10

C         -1.24780        0.29480       -0.34150
C         -0.16510       -0.71270       -0.02010
C          1.14960       -0.04100       -0.02340
C          2.22720        0.50390       -0.01790
H         -1.35330        0.28690       -1.45600
H         -2.21040        0.01200        0.11810
H         -1.00860        1.31070        0.03550
H         -0.37930       -1.12170        1.00640
H         -0.18290       -1.51920       -0.78410
H          3.17070        0.98630       -0.02960
10

C         -1.21610       -0.38350       -0.28850
C         -0.19870        0.73920       -0.13870
C          1.08920        0.12400        0.21790
C          2.14770       -0.38420        0.51470
H         -1.66240       -0.59990        0.71650
H         -0.64950       -1.26490       -0.66880
H         -1.97980       -0.16020       -1.05500
H         -0.48970        1.38490        0.71580
H         -0.12480        1.36270       -1.04370
H          3.08410       -0.81810        0.78550
10

C         -1.20230       -0.49980       -0.08970
C         -0.29850        0.69160        0.15910
C          1.09320        0.24370        0.04700
C          2.24910       -0.14120       -0.04850
H         -2.20530       -0.38200        0.33690
H         -1.26040       -0.62860       -1.19090
H         -0.67610       -1.39430        0.30360
H         -0.49970        1.07030        1.18380
H         -0.45860        1.50210       -0.57850
H          3.25870       -0.46170       -0.12280
10

C         -1.23190        0.42860       -0.23250
C         -0.25440       -0.54360        0.40690
C          1.12660       -0.19310        0.06040
C          2.27520        0.08440       -0.22360
H         -0.69810        0.99590       -1.04690
H         -2.06040       -0.10210       -0.74110
H         -1.57180        1.12790        0.54090
H         -0.47930       -1.54450        0.01000
H         -0.39260       -0.56790        1.52390
H          3.28670        0.31430       -0.47550
10

C         -1.18640        0.40660        0.30490
C         -0.27240       -0.36980       -0.61670
C          1.08780       -0.23550       -0.10400
C          2.20970       -0.11540        0.33890
H         -2.22260        0.07040        0.08380
H         -0.86570        0.18280        1.33860
H         -1.02220        1.47970        0.12180
H         -0.53240       -1.44930       -0.57050
H         -0.39300        0.03560       -1.62940
H          3.19730       -0.00530        0.73250
