14

C         -1.12490        0.84620        0.66210
C         -0.10120       -0.15980        0.17530
C         -0.79630       -0.97580       -0.91660
O          0.98920        0.56840       -0.35360
C          2.30320        0.36520        0.10170
O          2.42830       -0.50520        1.00560
H         -0.58620        1.74690        1.04050
H         -1.80120        1.10690       -0.20250
H         -1.78010        0.40770        1.44640
H          0.19000       -0.87150        0.95050
H         -1.89210       -0.90070       -0.85140
H         -0.48650       -0.50960       -1.88100
H         -0.47810       -2.04420       -0.87060
H          3.13590        0.92550       -0.30640
14

C         -0.93750        1.17510        0.26020
C         -0.10630       -0.08560        0.10230
C         -0.96070       -1.08090       -0.61240
O          1.12380        0.18000       -0.46770
C          2.35130       -0.02370        0.11560
O          2.31690       -0.49740        1.27770
H         -0.52080        1.94340       -0.44910
H         -0.91430        1.53040        1.30390
H         -1.99890        1.02120       -0.01430
H          0.08250       -0.50080        1.13570
H         -0.69630       -2.12300       -0.44770
H         -1.03730       -0.77740       -1.66710
H         -2.00170       -0.95160       -0.19030
H          3.29920        0.19030       -0.34690
14

C         -1.05380        1.06250       -0.12350
C         -0.10200       -0.11010        0.13330
C         -0.70910       -1.31140       -0.54260
O          1.14030        0.25340       -0.36770
C          2.22300        0.37270        0.48400
O          2.00320        0.13580        1.69710
H         -0.55780        2.03330        0.08940
H         -1.35370        1.03130       -1.18050
H         -1.93790        1.00370        0.53930
H         -0.13420       -0.28480        1.22310
H         -0.41330       -1.41400       -1.59920
H         -0.49000       -2.22510        0.04180
H         -1.81700       -1.19840       -0.53660
H          3.20240        0.65120        0.14200
14

C         -1.07960        1.08830        0.41560
C         -0.09680        0.11570       -0.18370
C         -0.85570       -1.17060       -0.45970
O          0.95500       -0.20200        0.68450
C          2.30710       -0.00830        0.35840
O          2.51900        0.47700       -0.78230
H         -0.62490        2.09350        0.37850
H         -1.40700        0.77940        1.42070
H         -1.98200        1.11280       -0.22470
H          0.22770        0.53360       -1.15160
H         -1.45070       -1.12610       -1.38590
H         -1.51060       -1.45370        0.41170
H         -0.10150       -1.97340       -0.53900
H          3.09990       -0.26650        1.05760
14

C         -1.38290       -0.79500       -0.18060
C         -0.17380       -0.00840        0.25580
C         -0.41250        1.48550        0.00500
O          0.91870       -0.36370       -0.58260
C          2.12900       -0.77840       -0.05140
O          2.22730       -0.82950        1.19960
H         -2.16180       -0.87900        0.58610
H         -1.09210       -1.84230       -0.45030
H         -1.76580       -0.30300       -1.12140
H          0.05470       -0.10070        1.32350
H          0.49320        2.02270        0.36450
H         -1.34060        1.82700        0.48740
H         -0.41350        1.59930       -1.09880
H          2.92000       -1.03450       -0.73670
