17

C         -2.70860        0.21900       -0.01810
C         -1.22430        0.10340       -0.01450
C         -0.60750       -1.11660       -0.19680
C          0.76880       -1.22980       -0.19450
C          1.59270       -0.13560       -0.01090
C          0.97530        1.08740        0.17190
C         -0.40170        1.19560        0.16880
N          3.00540       -0.24730       -0.00780
H         -2.96950        1.28730       -0.15770
H         -3.10340       -0.08150        0.98550
H         -3.16930       -0.44360       -0.76590
H         -1.24970       -1.99680       -0.34430
H          1.25800       -2.18610       -0.33730
H          1.62390        1.96000        0.31820
H         -0.86380        2.16320        0.31380
H          3.60180       -0.29460       -0.84830
H          3.47180       -0.28410        0.93780
17

C          2.71110       -0.01670        0.02750
C          1.22260        0.00020        0.00680
C          0.50690        0.89820       -0.75880
C         -0.87090        0.89440       -0.76180
C         -1.60990       -0.00480       -0.00190
C         -0.88570       -0.90040        0.76160
C          0.48730       -0.89180        0.76060
N         -3.02840        0.00630       -0.01740
H          3.10030       -1.05740       -0.07950
H          3.09940        0.54890       -0.85290
H          3.12270        0.44700        0.94740
H          1.05630        1.61450       -1.36430
H         -1.45170        1.59540       -1.35970
H         -1.43690       -1.60150        1.35410
H          1.07390       -1.59890        1.36350
H         -3.50460        0.84380        0.35480
H         -3.59240       -0.77710       -0.38010
17

C         -2.71490       -0.00130       -0.13930
C         -1.22940        0.00230       -0.06680
C         -0.47920       -1.07850       -0.48390
C          0.89990       -1.07670       -0.41680
C          1.59260        0.01050        0.07250
C          0.84610        1.09220        0.49010
C         -0.53270        1.08860        0.42230
N          3.01650        0.00610        0.13900
H         -3.11050       -0.32290        0.85840
H         -3.12830        0.98810       -0.41740
H         -3.06120       -0.72280       -0.88020
H         -0.99610       -1.94900       -0.87380
H          1.50750       -1.92810       -0.74440
H          1.40000        1.95040        0.87670
H         -1.10710        1.94760        0.75450
H          3.63020        0.16150       -0.67170
H          3.46650       -0.16810        1.08090
17

C         -2.70380        0.17300       -0.08430
C         -1.21430        0.09140       -0.03140
C         -0.43930        1.12220        0.45910
C          0.93700        1.02210        0.49650
C          1.60750       -0.09980        0.05150
C          0.82190       -1.13240       -0.44050
C         -0.55290       -1.03130       -0.47740
N          3.01250       -0.22930        0.07860
H         -3.16770       -0.38620        0.76150
H         -3.10720       -0.25140       -1.02560
H         -2.95750        1.24700       -0.00320
H         -0.94130        2.01560        0.81560
H          1.50770        1.84490        0.88510
H          1.30410       -2.02870       -0.79930
H         -1.18960       -1.83460       -0.86130
H          3.48530       -1.15420        0.16300
H          3.59750        0.63160        0.01210
17

C         -2.69950        0.05320        0.30830
C         -1.21900        0.01350        0.13760
C         -0.44820        1.12520        0.41140
C          0.92400        1.10990        0.26000
C          1.58480       -0.02040       -0.17270
C          0.82460       -1.13970       -0.45010
C         -0.55380       -1.11620       -0.29530
N          2.99650       -0.04620       -0.33140
H         -2.97470       -0.02690        1.39930
H         -3.14500        0.99340       -0.05350
H         -3.12980       -0.77660       -0.27950
H         -0.94740        2.02790        0.75400
H          1.53450        1.98540        0.47520
H          1.34910       -2.03530       -0.79300
H         -1.14750       -2.00600       -0.51670
H          3.68530        0.26380        0.38240
H          3.36620       -0.40470       -1.23600
