19

C          2.50990       -0.53710        0.16780
C          2.36720        0.82100       -0.02040
C          1.07700        1.28270       -0.14920
C         -0.04290        0.47220       -0.09990
C          0.12630       -0.88380        0.08930
C          1.42550       -1.38480        0.22390
C         -0.96430       -1.69480        0.14020
C         -2.22840       -1.16340        0.00340
C         -2.39370        0.17990       -0.18390
C         -1.30200        1.01520       -0.23800
O         -1.53260        2.36090       -0.42900
H          3.49420       -0.96520        0.27620
H          3.22940        1.47970       -0.06300
H          0.96870        2.34590       -0.29640
H          1.49890       -2.45410        0.36990
H         -0.84880       -2.76060        0.28810
H         -3.11310       -1.78550        0.03990
H         -3.39850        0.58010       -0.28960
H         -0.87280        3.09190       -0.49180
19

C          2.62090        0.14570        0.04400
C          2.27520       -1.18400        0.01750
C          0.94510       -1.52100       -0.00920
C         -0.02840       -0.51500       -0.00890
C          0.32180        0.81760        0.01770
C          1.66170        1.15830        0.04450
C         -0.61600        1.82450        0.01890
C         -1.95800        1.49820       -0.00730
C         -2.32870        0.16230       -0.03430
C         -1.37120       -0.83090       -0.03500
O         -1.69540       -2.18940       -0.06170
H          3.66160        0.40040        0.06450
H          3.02240       -1.95840        0.01790
H          0.64880       -2.55660       -0.03050
H          1.96190        2.20610        0.06610
H         -0.35660        2.87760        0.03970
H         -2.72030        2.25870       -0.00750
H         -3.38470       -0.11400       -0.05510
H         -2.66000       -2.47990       -0.08150
