23

C         -3.61540        0.22350       -0.13890
C         -2.19970        0.65730        0.08760
C         -1.22820       -0.50860        0.04010
C          0.16230        0.08550        0.28590
C          1.21260       -1.00530        0.25800
C          2.56180       -0.42240        0.49920
C          2.98810        0.61000       -0.51600
Br         4.77090        1.20260        0.02710
H         -4.18430        0.10710        0.80690
H         -4.12750        1.02390       -0.71330
H         -3.69660       -0.71140       -0.74480
H         -1.89870        1.36400       -0.71580
H         -2.13300        1.09900        1.09220
H         -1.45720       -1.19940        0.87730
H         -1.26270       -1.06910       -0.89310
H          0.41180        0.82700       -0.49550
H          0.16860        0.58770        1.27130
H          1.01500       -1.73570        1.06510
H          1.22300       -1.53660       -0.71020
H          2.58000        0.05880        1.51980
H          3.31520       -1.24400        0.44700
H          3.06160        0.09390       -1.51130
H          2.33220        1.49220       -0.55680
23

C          2.99260        0.56670        0.35420
C          2.56660       -0.13360       -0.90020
C          1.27350       -0.91110       -0.72180
C          0.21050        0.09060       -0.32090
C         -1.13490       -0.59160       -0.11530
C         -2.10920        0.50690        0.28000
C         -3.49400       -0.03340        0.51670
Br        -4.61360        1.48210        1.01030
H          2.43850        0.26180        1.25450
H          4.09430        0.40040        0.53780
H          2.90010        1.68500        0.23670
H          3.38820       -0.81870       -1.22540
H          2.40270        0.62010       -1.69600
H          1.05710       -1.40380       -1.68160
H          1.38310       -1.71010        0.03800
H          0.51350        0.53680        0.63750
H          0.05190        0.86250       -1.08910
H         -1.08610       -1.33930        0.70020
H         -1.48010       -1.11780       -1.02010
H         -2.17300        1.29040       -0.49560
H         -1.73510        0.96120        1.20610
H         -3.91170       -0.43170       -0.43190
H         -3.53470       -0.77360        1.33120
23

C          2.55570        1.21270       -0.13620
C          2.53760       -0.25310        0.17780
C          1.31920       -0.95630       -0.36800
C          0.05510       -0.36390        0.21180
C         -1.17730       -1.04340       -0.31290
C         -2.42500       -0.46510        0.25820
C         -2.60280        1.00810       -0.04760
Br        -4.25510        1.66710        0.73290
H          3.62340        1.56120       -0.24780
H          2.01390        1.48300       -1.05270
H          2.14900        1.82090        0.70190
H          3.46550       -0.70530       -0.17750
H          2.54340       -0.36270        1.29610
H          1.31650       -0.94990       -1.46310
H          1.37420       -2.01010       -0.01410
H          0.07270       -0.48510        1.31210
H          0.02130        0.71790       -0.00020
H         -1.12190       -2.11050        0.05250
H         -1.23920       -1.02900       -1.41730
H         -3.33560       -0.96920       -0.14620
H         -2.45500       -0.55960        1.38150
H         -1.76700        1.58920        0.38840
H         -2.66830        1.20310       -1.12950
23

C          2.21270        1.16160        0.32310
C          2.15240        0.23000       -0.82330
C          1.35190       -1.00630       -0.58030
C         -0.08620       -0.88930       -0.30890
C         -0.56380       -0.12850        0.86510
C         -2.09510       -0.25820        0.90260
C         -2.78080        0.28020       -0.29660
Br        -2.34130        2.15840       -0.47890
H          3.28430        1.52140        0.46990
H          1.56150        2.03900        0.11390
H          1.92130        0.72360        1.28750
H          3.22290       -0.04290       -1.09650
H          1.75140        0.74240       -1.73600
H          1.43690       -1.63720       -1.53030
H          1.87740       -1.65480        0.18290
H         -0.49350       -1.94420       -0.17770
H         -0.58790       -0.51010       -1.24850
H         -0.21680       -0.60120        1.80950
H         -0.36570        0.96640        0.85390
H         -2.47300        0.28520        1.79710
H         -2.33260       -1.33130        1.07470
H         -3.89900        0.16750       -0.19040
H         -2.53690       -0.27190       -1.21290
23

C         -2.38720       -0.75270        0.92920
C         -2.11260       -0.62480       -0.56440
C         -1.59850        0.74100       -0.86880
C         -0.32410        1.04640       -0.13500
C          0.80590        0.09640       -0.46910
C          2.00110        0.55030        0.34840
C          3.21570       -0.31560        0.11410
Br         4.63810        0.40360        1.23090
H         -2.86880       -1.74900        1.11000
H         -3.10190        0.03100        1.26900
H         -1.46180       -0.73520        1.52440
H         -1.38040       -1.40770       -0.83510
H         -3.08680       -0.81480       -1.07380
H         -1.48470        0.92600       -1.94180
H         -2.37060        1.47090       -0.49720
H          0.00960        2.09500       -0.28590
H         -0.46300        0.95890        0.98260
H          0.47170       -0.91920       -0.17770
H          0.99190        0.10080       -1.54840
H          2.21630        1.59450        0.06260
H          1.69140        0.52060        1.41280
H          3.04150       -1.36830        0.34610
H          3.55730       -0.17890       -0.93270
