16

C         -2.25760        0.55430        0.24940
C         -1.38290       -0.68630        0.46000
C          0.03920       -0.36120        0.16600
C          0.56890       -0.50740       -1.09720
N          1.85180       -0.19340       -1.27110
C          2.64720        0.25720       -0.27400
C          2.12170        0.40570        0.99350
N          0.81910        0.08820        1.17620
H         -3.19260        0.22780       -0.24950
H         -2.54090        1.01290        1.22780
H         -1.73650        1.30520       -0.39010
H         -1.52220       -0.98080        1.52340
H         -1.70680       -1.52820       -0.17170
H         -0.09560       -0.86900       -1.86620
H          3.67840        0.51070       -0.41030
H          2.70890        0.76440        1.84150
16

C         -2.28260       -0.46750        0.56730
C         -1.34410       -0.33590       -0.57950
C          0.05130       -0.01570       -0.17120
C          0.47390        1.29220       -0.04380
N          1.73730        1.60790        0.32590
C          2.63060        0.63700        0.58360
C          2.22020       -0.67210        0.45980
N          0.95550       -0.98460        0.08970
H         -2.95820       -1.34760        0.42040
H         -2.96910        0.41750        0.61840
H         -1.79700       -0.62370        1.54950
H         -1.73730        0.39410       -1.33000
H         -1.30500       -1.31540       -1.12380
H         -0.27060        2.05510       -0.25830
H          3.65140        0.83440        0.88190
H          2.94360       -1.47570        0.66860
16

C          2.32920       -0.40430       -0.14560
C          1.28090       -0.89870        0.78780
C         -0.07400       -0.50240        0.29580
C         -0.25150        0.21910       -0.86750
N         -1.49750        0.56830       -1.29430
C         -2.59210        0.22230       -0.59800
C         -2.42830       -0.49930        0.56700
N         -1.18960       -0.83460        0.97190
H          3.33540       -0.57290        0.33800
H          2.28970       -0.86720       -1.15040
H          2.25980        0.70660       -0.26100
H          1.49260       -0.49130        1.79620
H          1.34630       -2.01790        0.83320
H          0.60630        0.50540       -1.43830
H         -3.57830        0.50800       -0.95120
H         -3.32890       -0.76960        1.11630
16

C         -2.28790       -0.10160        0.80780
C         -1.46450        0.34730       -0.35610
C         -0.00970        0.13050       -0.12380
C          0.91900        0.48020       -1.08190
N          2.25220        0.28330       -0.87380
C          2.70470       -0.25820        0.27220
C          1.77710       -0.60850        1.23150
N          0.45810       -0.40830        1.01330
H         -3.30310        0.33730        0.68920
H         -1.79300        0.28060        1.73450
H         -2.32170       -1.20550        0.91290
H         -1.65860        1.42430       -0.54170
H         -1.75390       -0.17290       -1.30160
H          0.58430        0.91450       -2.00610
H          3.77070       -0.39840        0.39920
H          2.12620       -1.04470        2.15750
16

C         -2.20980        0.17600       -0.82950
C         -1.51230       -0.04050        0.47350
C         -0.03210       -0.04840        0.30950
C          0.77700       -0.23480        1.40080
N          2.12330       -0.25350        1.32660
C          2.72980       -0.08380        0.13740
C          1.92470        0.10430       -0.96590
N          0.57570        0.12110       -0.87860
H         -2.52400       -0.77440       -1.31950
H         -3.14860        0.74230       -0.64780
H         -1.60870        0.82070       -1.52330
H         -1.80680       -1.05640        0.86820
H         -1.83070        0.75090        1.18120
H          0.29750       -0.37440        2.37590
H          3.81170       -0.08930        0.01510
H          2.43320        0.24050       -1.92360
