29

C          3.14590        1.21410        0.21620
C          3.15050       -0.26880        0.36730
C          2.53740       -0.96730       -0.83520
C          1.11040       -0.53430       -1.02490
C          0.23910       -0.85270        0.17260
C         -1.13570       -0.35760       -0.18610
C         -2.15700       -0.58720        0.89410
C         -3.47850       -0.02420        0.35270
C         -3.38910        1.42520        0.04230
H          2.45210        1.73130        0.93130
H          2.83440        1.52970       -0.80110
H          4.19980        1.58260        0.35780
H          2.64820       -0.55460        1.29350
H          4.19640       -0.67020        0.44140
H          2.66190       -2.04710       -0.78250
H          3.10410       -0.60980       -1.71960
H          0.67480       -1.06880       -1.88570
H          1.07580        0.56030       -1.16040
H          0.26320       -1.95130        0.34050
H          0.62690       -0.37070        1.09650
H         -1.05910        0.72370       -0.38900
H         -1.47010       -0.92720       -1.08240
H         -2.28400       -1.64240        1.15830
H         -1.89460        0.05490        1.76480
H         -3.76860       -0.56200       -0.57960
H         -4.26340       -0.22590        1.09330
H         -4.31020        1.94010        0.41520
H         -2.48500        1.83210        0.55980
H         -3.22560        1.62820       -1.05120
29

C          4.59710       -0.12470        0.22980
C          3.25690        0.33470       -0.26160
C          2.18810       -0.62920        0.25390
C          0.86430       -0.10880       -0.27700
C         -0.21300       -1.04400        0.21770
C         -1.53430       -0.58730       -0.29350
C         -1.83300        0.79350        0.19890
C         -3.22220        1.15400       -0.37190
C         -4.20650        0.12510        0.16380
H          4.51390       -1.01020        0.88880
H          5.30880       -0.33820       -0.58720
H          5.04410        0.68380        0.84700
H          3.25840        0.37830       -1.36270
H          2.97140        1.33500        0.12010
H          2.31700       -1.64730       -0.16770
H          2.16070       -0.64670        1.35090
H          0.89240       -0.12850       -1.38020
H          0.74740        0.93120        0.13570
H         -0.18000       -1.15280        1.32010
H          0.07120       -2.06200       -0.17930
H         -2.33710       -1.31700        0.02130
H         -1.59380       -0.63520       -1.42100
H         -1.10830        1.54840       -0.12140
H         -1.88910        0.74970        1.30540
H         -3.20050        1.09760       -1.47330
H         -3.47740        2.18340       -0.06360
H         -4.36520       -0.70350       -0.56600
H         -3.84300       -0.33450        1.09450
H         -5.18820        0.63360        0.37860
29

C          4.34560        0.62360       -0.14520
C          2.82730        0.52180       -0.10210
C          2.37930       -0.72750        0.59370
C          0.86820       -0.76460        0.61720
C          0.27640       -0.76120       -0.75170
C         -1.20960       -0.82350       -0.69430
C         -1.87030        0.32290        0.03220
C         -3.36310        0.05550       -0.04790
C         -4.17830        1.10090        0.62620
H          4.76070        0.12610       -1.02950
H          4.78930        0.19450        0.78930
H          4.59070        1.70160       -0.19500
H          2.53220        0.43120       -1.18840
H          2.41330        1.40680        0.36980
H          2.71880       -1.64490        0.06660
H          2.74930       -0.81080        1.62710
H          0.49700       -1.64950        1.20670
H          0.46530        0.11390        1.19750
H          0.55320        0.17960       -1.31470
H          0.64350       -1.64580       -1.31720
H         -1.65870       -0.88560       -1.72790
H         -1.58140       -1.75800       -0.18140
H         -1.57920        1.25120       -0.45510
H         -1.51800        0.30510        1.09070
H         -3.61430       -0.03600       -1.12130
H         -3.56380       -0.93400        0.41150
H         -4.76050        1.67840       -0.12850
H         -4.93300        0.62650        1.28680
H         -3.58000        1.80170        1.24530
29

C         -4.35450        0.57320        0.16750
C         -2.87290        0.37610        0.39900
C         -2.43080       -1.01730        0.02600
C         -0.97040       -1.17780        0.26540
C         -0.12300       -0.22130       -0.52960
C          1.34940       -0.44960       -0.22910
C          2.12070        0.55250       -1.07030
C          3.59600        0.34440       -0.78760
C          3.82720        0.57810        0.68380
H         -4.92050        0.14920        1.03590
H         -4.52560        1.68650        0.24180
H         -4.70310        0.19770       -0.79460
H         -2.70630        0.48390        1.49150
H         -2.34490        1.12930       -0.20540
H         -2.99710       -1.74700        0.63380
H         -2.69540       -1.16990       -1.03530
H         -0.66800       -2.20950       -0.02840
H         -0.72960       -1.07590        1.33300
H         -0.32900        0.83470       -0.30710
H         -0.34340       -0.37740       -1.60390
H          1.65490       -1.47980       -0.44540
H          1.58870       -0.21820        0.82540
H          1.95120        0.41660       -2.15350
H          1.83140        1.59270       -0.82250
H          4.21720        1.02210       -1.41760
H          3.90170       -0.68570       -1.05740
H          3.18450        1.43810        0.98480
H          3.58840       -0.35340        1.22410
H          4.90310        0.80780        0.81310
29

C         -3.33610        0.94200       -1.29990
C         -2.65050       -0.09390       -0.45900
C         -1.92360        0.62040        0.66050
C         -1.19640       -0.33590        1.57030
C         -0.15890       -1.16610        0.86640
C          0.86360       -0.23740        0.25870
C          1.93980       -1.02290       -0.46130
C          2.91870       -0.00960       -1.03750
C          3.48340        0.78170        0.13660
H         -4.43250        0.98620       -1.13340
H         -3.16400        0.66640       -2.36860
H         -2.92010        1.95540       -1.16770
H         -3.33110       -0.82490       -0.00810
H         -1.91070       -0.67140       -1.05600
H         -2.69650        1.11400        1.32350
H         -1.23310        1.39620        0.33500
H         -1.94400       -1.01380        2.07210
H         -0.75720        0.26620        2.38920
H          0.36790       -1.85090        1.54180
H         -0.58370       -1.78330        0.05550
H          0.36960        0.45140       -0.45570
H          1.33730        0.31840        1.09400
H          1.43140       -1.53480       -1.31770
H          2.42380       -1.72730        0.21080
H          3.73240       -0.58400       -1.51820
H          2.39850        0.63340       -1.75160
H          2.86450        1.64560        0.37800
H          4.54390        1.03610       -0.10630
H          3.56340        0.04280        0.98650
