16

C         -2.04850        0.52150        0.26380
C         -1.90350       -0.79250       -0.14060
C         -0.67650       -1.35620       -0.37220
C          0.49270       -0.62220       -0.20840
C          0.35780        0.69140        0.19560
C         -0.90120        1.26080        0.43030
N          1.54000        1.46650        0.37130
N          1.74730       -1.23210       -0.45350
O          1.86110       -2.17760       -1.25160
O          2.88450       -0.80700        0.17890
H         -3.01930        0.95890        0.44410
H         -2.78280       -1.40800       -0.28120
H         -0.54800       -2.39420       -0.69320
H         -0.94560        2.30260        0.74720
H          2.22360        1.36960        1.12240
H          1.71840        2.21850       -0.35290
16

C          2.04970        0.56940        0.09340
C          1.93570       -0.77370       -0.19270
C          0.70580       -1.38630       -0.31120
C         -0.46830       -0.65270       -0.14220
C         -0.37110        0.69700        0.14570
C          0.86420        1.27560        0.25680
N         -1.57570        1.43380        0.31830
N         -1.75040       -1.26550       -0.26410
O         -1.94580       -2.27470       -0.97770
O         -2.78630       -0.68100        0.45610
H          3.01340        1.07700        0.19150
H          2.84890       -1.33870       -0.32220
H          0.59840       -2.44500       -0.53570
H          0.92980        2.34580        0.48420
H         -1.88440        1.70700        1.27660
H         -2.16400        1.71190       -0.47670
16

C         -2.03990       -0.21560        0.22580
C         -1.51980       -1.40580       -0.26340
C         -0.16470       -1.47310       -0.53520
C          0.69830       -0.41490       -0.30610
C          0.11540        0.82630       -0.10070
C         -1.23100        0.91520        0.20970
N          1.00590        1.93830        0.00520
N          2.06970       -0.64490        0.04190
O          2.46620       -1.82870        0.15550
O          2.74900        0.28500        0.80930
H         -2.85620       -0.19910        0.93080
H         -2.06000       -2.34050       -0.10150
H          0.25830       -2.31620       -1.08420
H         -1.68330        1.90450        0.19600
H          1.36490        2.29790       -0.91740
H          0.82710        2.67150        0.73430
16

C          1.99390       -0.38680       -0.32820
C          1.91570        0.90480        0.15370
C          0.65630        1.38280        0.44150
C         -0.47050        0.60080        0.25380
C         -0.38310       -0.69040       -0.22870
C          0.88370       -1.17940       -0.52080
N         -1.51080       -1.53390       -0.43740
N         -1.76280        1.09270        0.57370
O         -1.83410        1.95520        1.47050
O         -2.85760        0.60430       -0.09680
H          2.97110       -0.76480       -0.55770
H          2.80820        1.52000        0.30070
H          0.55090        2.40650        0.82330
H          0.96320       -2.19880       -0.90170
H         -2.16620       -1.71290        0.37590
H         -1.75770       -2.00010       -1.32190
16

C          1.96650       -0.70570       -0.13330
C          1.94240        0.66840       -0.25570
C          0.75680        1.37210       -0.19590
C         -0.43090        0.68070       -0.00870
C         -0.39670       -0.69400        0.11190
C          0.78930       -1.38970        0.05160
N         -1.63670       -1.39510        0.28970
N         -1.67990        1.36210        0.06000
O         -2.57020        0.86750        0.79760
O         -1.91090        2.52500       -0.64470
H          2.90580       -1.25980       -0.18050
H          2.85560        1.22200       -0.39650
H          0.74460        2.44690       -0.29600
H          0.77740       -2.46360        0.15210
H         -1.75080       -2.00390        1.11140
H         -2.36240       -1.23290       -0.46310
