11

C         -1.19090        0.53990       -0.02090
C          0.05800        1.11860        0.07430
C          1.17880        0.30520        0.07450
C          0.99080       -1.05060       -0.02110
N         -0.22890       -1.61280       -0.11400
C         -1.33320       -0.82040       -0.11470
Cl         2.79970        1.00910        0.19520
H         -2.04340        1.20430       -0.01790
H          0.19960        2.19070        0.14940
H          1.90700       -1.66150       -0.01750
H         -2.33760       -1.22260       -0.18740
