19

C          2.65870       -0.50340       -0.20450
C          1.64470        0.55030       -0.39730
O          1.97650        1.68000       -0.88440
N          0.28300        0.37670       -0.06340
C         -0.80480        1.31730       -0.19930
C         -1.99930        0.41130       -0.37110
C         -1.71400       -0.66990        0.67580
C         -0.24240       -0.87210        0.50620
H          3.67120       -0.06620       -0.10860
H          2.67690       -1.21610       -1.07220
H          2.40680       -1.09270        0.70380
H         -0.90720        1.99440        0.66640
H         -0.68260        1.94740       -1.09260
H         -1.95430       -0.07760       -1.34820
H         -2.95020        0.87570       -0.11730
H         -2.31600       -1.54100        0.39360
H         -1.98580       -0.28890        1.69340
H         -0.04150       -1.68980       -0.23010
H          0.28040       -1.13540        1.44970
19

C          2.66830        0.46390        0.19080
C          1.67920       -0.57080       -0.20690
O          2.13510       -1.68920       -0.55090
N          0.28830       -0.28480       -0.19080
C         -0.31430        0.98030        0.19350
C         -1.78620        0.78600       -0.02060
C         -1.92750       -0.69070        0.27120
C         -0.75340       -1.22940       -0.56210
H          2.54580        0.59550        1.30420
H          3.68580        0.21000       -0.08720
H          2.31180        1.42590       -0.25720
H          0.10410        1.82600       -0.38550
H         -0.15360        1.13850        1.28630
H         -2.34070        1.41900        0.69570
H         -2.03380        0.98800       -1.07690
H         -1.67910       -0.85840        1.33230
H         -2.88090       -1.10880       -0.04350
H         -0.54740       -2.25390       -0.24190
H         -1.00170       -1.14720       -1.65020
19

C          2.73430        0.10650        0.00260
C          1.54950       -0.02780       -0.87870
O          1.76690       -0.14510       -2.11210
N          0.21650       -0.03010       -0.40650
C         -0.10510        0.10240        1.01490
C         -1.58980        0.12400        1.12730
C         -2.12350       -0.15790       -0.24490
C         -0.97480       -0.15460       -1.18910
H          3.39130       -0.78190       -0.03230
H          3.27990        1.04740       -0.25980
H          2.35260        0.19430        1.05900
H          0.36830       -0.75720        1.52820
H          0.38140        1.02180        1.43670
H         -1.89750       -0.65410        1.88130
H         -1.89000        1.12810        1.50220
H         -2.64240       -1.15560       -0.19120
H         -2.87140        0.62610       -0.48040
H         -1.06100        0.63190       -1.98640
H         -0.88530       -1.11800       -1.77070
19

C          2.71630        0.42070       -0.23140
C          1.66340       -0.63410       -0.12520
O          1.99480       -1.85810       -0.03630
N          0.29040       -0.32620       -0.11920
C         -0.78090       -1.27630       -0.02100
C         -2.02680       -0.51710       -0.49030
C         -1.75910        0.83090        0.11350
C         -0.26920        1.00260       -0.21170
H          3.41650        0.24120        0.61630
H          3.28130        0.36690       -1.16960
H          2.24550        1.40110       -0.04460
H         -0.95290       -1.46870        1.06780
H         -0.61600       -2.19500       -0.59190
H         -2.89060       -0.98450        0.00750
H         -2.10080       -0.48710       -1.58180
H         -1.82410        0.73870        1.22460
H         -2.35670        1.64330       -0.29120
H          0.12940        1.69790        0.54750
H         -0.16050        1.40410       -1.25000
19

C          2.73040       -0.18830       -0.17160
C          1.60370        0.62260        0.40960
O          1.95040        1.67060        1.01400
N          0.26810        0.21350        0.27130
C         -0.87810        0.92120        0.79180
C         -2.06640        0.52600       -0.01590
C         -1.68280       -0.80770       -0.61050
C         -0.20030       -0.96850       -0.40410
H          3.31410       -0.55940        0.69950
H          2.38040       -1.04920       -0.73650
H          3.32360        0.54100       -0.78140
H         -0.66400        2.01890        0.63870
H         -0.99950        0.76950        1.87790
H         -3.01010        0.45850        0.57220
H         -2.25130        1.30400       -0.79560
H         -1.98550       -0.90280       -1.67130
H         -2.20750       -1.58820        0.00290
H          0.34780       -1.13200       -1.35190
H          0.02690       -1.84950        0.26110
