26

C         -2.87970       -0.40220       -1.23760
N         -2.71360        0.48600       -0.14410
C         -3.90440        1.30480        0.29800
C         -1.56220        0.66800        0.59060
O         -1.58290        1.55480        1.55930
C         -0.27790        0.01730        0.41760
C         -0.03790       -1.03770       -0.42220
C          1.23190       -1.43250       -0.83080
C          2.33580       -0.76040       -0.36390
C          2.14090        0.29070        0.50150
C          0.88280        0.66240        0.87590
O          3.60910       -1.12410       -0.74810
C          4.75170       -0.44600       -0.27900
H         -3.80690       -0.06050       -1.79010
H         -2.03400       -0.31550       -1.93890
H         -3.07760       -1.44250       -0.91240
H         -3.49430        2.31180        0.50390
H         -4.32790        0.82270        1.18660
H         -4.59840        1.38180       -0.54550
H         -0.82950       -1.77750       -0.54230
H          1.28190       -2.26070       -1.51410
H          3.04570        0.79410        0.85840
H          0.75450        1.47960        1.55590
H          4.60680        0.63050       -0.52720
H          5.65650       -0.79550       -0.77510
H          4.82950       -0.54930        0.83420
26

C         -2.63900       -0.69500       -1.35780
N         -2.70070        0.22700       -0.25990
C         -4.04880        0.82290        0.00280
C         -1.67900        0.64730        0.56910
O         -2.04690        1.48680        1.50180
C         -0.27060        0.30800        0.61040
C          0.51300        0.78990        1.67150
C          1.87580        0.62360        1.68080
C          2.51950       -0.02460        0.64690
C          1.79510       -0.51160       -0.41830
C          0.40920       -0.32410       -0.40800
O          3.89720       -0.18120        0.68900
C          4.55960       -0.85040       -0.37880
H         -3.67560       -1.05090       -1.65010
H         -2.17530       -0.21670       -2.23780
H         -2.11870       -1.62830       -1.06500
H         -4.79670        0.06510       -0.22840
H         -4.16690        1.69490       -0.68480
H         -4.10740        1.21070        1.02600
H          0.01490        1.28110        2.51910
H          2.48150        1.00930        2.52210
H          2.24330       -1.03170       -1.25100
H         -0.07060       -0.59040       -1.33720
H          4.48130       -0.27740       -1.32040
H          5.62630       -0.93140       -0.06420
H          4.07950       -1.85300       -0.47740
26

C         -2.55000        1.09070        1.14480
N         -2.73260        0.25670        0.00700
C         -4.10130        0.25220       -0.55490
C         -1.77010       -0.49340       -0.63640
O         -2.17880       -1.21100       -1.65820
C         -0.35100       -0.64540       -0.35200
C          0.40140       -1.60180       -1.05870
C          1.77090       -1.67030       -1.01350
C          2.49650       -0.78510       -0.25350
C          1.81260        0.15930        0.44460
C          0.41150        0.22750        0.38850
O          3.87240       -0.89770       -0.23700
C          4.71160       -0.03840        0.51090
H         -2.12820        2.09420        0.94740
H         -1.99810        0.52330        1.92520
H         -3.55300        1.33270        1.63720
H         -4.11730       -0.19950       -1.55800
H         -4.48780        1.28470       -0.57600
H         -4.77550       -0.34710        0.09220
H         -0.14670       -2.34060       -1.64350
H          2.31240       -2.41990       -1.57260
H          2.36510        0.87400        1.05840
H         -0.02060        1.10000        0.84360
H          5.74280       -0.02710        0.14660
H          4.71820       -0.39480        1.55460
H          4.29570        0.98450        0.41330
26

C         -2.41900       -1.32920       -0.56370
N         -2.67370       -0.09420        0.10160
C         -4.09080        0.20460        0.42220
C         -1.70100        0.84100        0.44110
O         -2.18050        1.88620        1.06700
C         -0.26130        0.82130        0.23970
C          0.36610       -0.13300       -0.49870
C          1.74000       -0.36370       -0.37190
C          2.47680        0.40240        0.49700
C          1.88940        1.40730        1.25750
C          0.54240        1.59750        1.11660
O          3.84110        0.20380        0.65120
C          4.50570       -0.81260       -0.10060
H         -3.31130       -2.02680       -0.42590
H         -1.56680       -1.88640       -0.12770
H         -2.35550       -1.19430       -1.67160
H         -4.36830       -0.23120        1.39280
H         -4.74700       -0.18680       -0.35820
H         -4.23320        1.31790        0.48370
H         -0.14660       -0.50310       -1.40250
H          2.17440       -1.14350       -0.96830
H          2.47720        2.01300        1.93310
H          0.04280        2.36440        1.67540
H          5.59710       -0.61580        0.04030
H          4.20870       -1.81060        0.29830
H          4.19350       -0.72830       -1.15770
26

C         -4.13400        0.04030        0.54600
N         -2.75990       -0.00950       -0.00250
C         -2.66060       -0.04680       -1.44320
C         -1.68110        0.36880        0.82160
O         -2.01490        0.77600        2.02020
C         -0.27830        0.37780        0.50470
C          0.60710        0.94530        1.42110
C          1.97480        0.78720        1.35820
C          2.52430        0.03200        0.34530
C          1.67540       -0.52930       -0.54510
C          0.27870       -0.37630       -0.48150
O          3.90100       -0.09120        0.32080
C          4.65220       -0.80280       -0.60800
H         -4.11850       -0.58840        1.46750
H         -4.83190       -0.45300       -0.15580
H         -4.45360        1.06590        0.73780
H         -2.58540       -1.07580       -1.85410
H         -1.86870        0.64200       -1.83100
H         -3.61780        0.34380       -1.91500
H          0.24150        1.55900        2.25440
H          2.64130        1.24940        2.09790
H          2.06770       -1.12840       -1.35220
H         -0.32920       -1.01350       -1.14060
H          5.34440       -1.47940       -0.04510
H          5.32880       -0.06460       -1.12580
H          4.09660       -1.30940       -1.39540
