25

C          3.57200        0.35200       -0.04840
C          2.13890        0.08070        0.47820
C          1.56860       -0.95990       -0.40450
C          0.18710       -1.37640       -0.04110
O         -0.78020       -0.50770       -0.14800
C         -0.98830        0.67570        0.37970
C         -2.42860        1.12740       -0.04870
C         -3.38380        0.05350        0.40840
O         -2.48940        1.18710       -1.43990
H          3.84170        1.40760        0.09790
H          4.25740       -0.27850        0.54550
H          3.62150        0.10180       -1.12850
H          1.64290        1.04730        0.52790
H          2.23340       -0.29290        1.53870
H          1.60710       -0.64730       -1.49790
H          2.26950       -1.84680       -0.39640
H         -0.02020       -2.28060       -0.73320
H          0.21420       -1.91970        0.97010
H         -0.89260        0.83200        1.45340
H         -0.37680        1.49480       -0.11670
H         -2.63570        2.11760        0.38680
H         -3.71170        0.25600        1.44460
H         -4.22900        0.03470       -0.30470
H         -2.82620       -0.91730        0.32420
H         -2.39190        0.25880       -1.77130
25

C          2.64130        1.28620        0.59040
C          2.78920       -0.20490        0.73700
C          1.46790       -0.88700        0.99090
C          0.49050       -0.63910       -0.16210
O         -0.67050       -1.29270        0.15750
C         -1.69280       -1.20840       -0.74550
C         -2.06860        0.24760       -0.92600
C         -2.48730        0.89120        0.35520
O         -3.11710        0.26650       -1.85500
H          2.02900        1.56690       -0.27290
H          2.25590        1.70520        1.54570
H          3.66940        1.68560        0.38640
H          3.28550       -0.66780       -0.11640
H          3.41590       -0.38320        1.63490
H          0.97320       -0.56550        1.90610
H          1.65940       -1.98210        0.99490
H          0.91870       -0.88460       -1.13220
H          0.31030        0.47560       -0.14560
H         -1.53180       -1.72850       -1.68680
H         -2.58410       -1.70430       -0.26420
H         -1.25240        0.83670       -1.39130
H         -1.73220        1.61160        0.72910
H         -3.44530        1.42920        0.28640
H         -2.61380        0.07260        1.11890
H         -2.71020        0.07330       -2.73550
25

C          3.60080        0.57790       -1.04680
C          2.33920        0.41260       -0.20670
C          1.79620       -0.99000       -0.39910
C          0.55010       -1.12290        0.44340
O         -0.43320       -0.20390        0.08120
C         -1.52440       -0.42790        0.92680
C         -2.66330        0.53160        0.61250
C         -3.14880        0.24260       -0.77200
O         -2.24540        1.83890        0.77870
H          4.17620       -0.37430       -0.96920
H          4.18230        1.38360       -0.57810
H          3.34890        0.85130       -2.07330
H          1.60480        1.15950       -0.59620
H          2.52970        0.61640        0.85720
H          2.53650       -1.70710        0.00350
H          1.57350       -1.16880       -1.45760
H          0.79180       -0.94820        1.50630
H          0.11260       -2.13960        0.38470
H         -1.83280       -1.47120        0.79320
H         -1.23260       -0.30910        2.00330
H         -3.47940        0.30170        1.32640
H         -2.29950       -0.15680       -1.36750
H         -3.94420       -0.51070       -0.72460
H         -3.57540        1.16000       -1.22370
H         -2.76360        2.45440        0.16950
25

C         -3.42190        0.64620        0.31640
C         -2.99300       -0.75160        0.69900
C         -1.49860       -0.77650        1.00150
C         -0.71910       -0.33320       -0.24130
O          0.60820       -0.37470        0.08740
C          1.47190       -0.00740       -0.90920
C          2.87220       -0.13790       -0.29540
C          2.86950        0.68990        0.96030
O          3.85890        0.19910       -1.18030
H         -3.77370        0.67800       -0.75320
H         -2.62660        1.39010        0.51210
H         -4.32880        0.95280        0.90770
H         -3.18510       -1.48200       -0.10840
H         -3.54420       -1.11810        1.58830
H         -1.21860       -1.81240        1.27940
H         -1.27360       -0.07690        1.83090
H         -0.91520       -1.05450       -1.06430
H         -1.03410        0.68050       -0.54770
H          1.30910        1.05760       -1.16750
H          1.38410       -0.59480       -1.83460
H          2.94480       -1.21310        0.01450
H          1.83310        0.80600        1.34330
H          3.54660        0.25900        1.73630
H          3.24200        1.71020        0.74550
H          4.59220        0.66380       -0.68540
25

C          3.23890        0.35260       -0.35680
C          2.47840       -0.83450       -0.83430
C          1.45160       -1.32990        0.15390
C          0.41560       -0.26250        0.47010
O         -0.21930        0.08390       -0.69290
C         -1.18710        1.04330       -0.56410
C         -2.30870        0.65080        0.36460
C         -3.01920       -0.57050       -0.16810
O         -3.23010        1.68720        0.42350
H          2.67360        1.29020       -0.36810
H          3.63210        0.18010        0.66470
H          4.13070        0.48050       -1.01130
H          3.19770       -1.66530       -0.98920
H          2.04900       -0.60450       -1.82210
H          0.93570       -2.18780       -0.32270
H          1.97600       -1.69560        1.04070
H         -0.27160       -0.72810        1.22300
H          0.89100        0.59290        0.99270
H         -0.81060        2.03640       -0.26190
H         -1.65270        1.18240       -1.57420
H         -1.97220        0.43120        1.38610
H         -2.32510       -1.14910       -0.81960
H         -3.91720       -0.30740       -0.76410
H         -3.32050       -1.24490        0.67040
H         -2.83600        2.56860        0.32880
