19

C         -3.75050        0.15160        0.23890
O         -2.35260        0.31390        0.21150
C         -1.45070       -0.69970        0.39530
O         -1.85820       -1.86370        0.60450
C         -0.00950       -0.38970        0.34150
C          0.42540        0.89710        0.11020
C          1.75140        1.25820        0.04710
C          2.69520        0.27930        0.22480
C          2.30490       -1.02220        0.45880
C          0.94760       -1.36350        0.51830
O          4.04630        0.64050        0.16170
H         -4.18340        0.84460       -0.52690
H         -4.21060        0.42310        1.20420
H         -4.08330       -0.86550       -0.04360
H         -0.35210        1.64810       -0.02630
H          1.98550        2.30290       -0.14080
H          3.08700       -1.75540        0.59190
H          0.66930       -2.38350        0.70170
H          4.33820        1.58390       -0.00780
19

C          3.82760        0.27870       -0.17330
O          2.42550        0.57700       -0.14220
C          1.46920       -0.43360       -0.02460
O          1.91010       -1.60450        0.05110
C          0.04050       -0.15060        0.00890
C         -0.83370       -1.21040        0.12730
C         -2.20660       -1.03190        0.16660
C         -2.71890        0.24080        0.08540
C         -1.84900        1.31470       -0.03390
C         -0.46460        1.10610       -0.07140
O         -4.08840        0.45340        0.12190
H          3.98940       -0.82280       -0.28040
H          4.33700        0.76460       -1.01300
H          4.25560        0.66320        0.78000
H         -0.45500       -2.22320        0.19300
H         -2.86560       -1.87990        0.25980
H         -2.23670        2.32230       -0.09880
H          0.18050        1.96550       -0.16500
H         -4.71680       -0.32940        0.20860
19

C         -3.74120       -0.01500       -0.15270
O         -2.38380        0.27530       -0.01300
C         -1.40620       -0.70510       -0.03700
O         -1.77650       -1.89260       -0.19120
C         -0.01590       -0.32730        0.11470
C          1.02080       -1.24280        0.10260
C          2.33640       -0.87250        0.24720
C          2.65940        0.47340        0.41390
C          1.64210        1.40180        0.42890
C          0.34160        1.00250        0.28240
O          3.99230        0.84380        0.56000
H         -4.29480        0.30170        0.76920
H         -4.18130        0.62860       -0.97030
H         -3.95850       -1.05060       -0.45060
H          0.80380       -2.29160       -0.02430
H          3.14530       -1.57230        0.23900
H          1.87440        2.43480        0.55540
H         -0.44070        1.72660        0.29480
H          4.38270        0.88140        1.47310
19

C          3.74130        0.54420       -0.11090
O          2.32900        0.60430       -0.28240
C          1.51690       -0.30360        0.36020
O          2.05200       -1.17190        1.09000
C          0.05500       -0.24200        0.18320
C         -0.53150        0.71160       -0.61820
C         -1.90300        0.76520       -0.78100
C         -2.73670       -0.13410       -0.14710
C         -2.13820       -1.08720        0.65500
C         -0.76870       -1.14150        0.81820
O         -4.12570       -0.08580       -0.30720
H          4.06970        1.50280        0.37660
H          3.99670       -0.25110        0.64390
H          4.26820        0.42100       -1.06030
H          0.09030        1.41850       -1.11950
H         -2.36880        1.51780       -1.41390
H         -2.74590       -1.80370        1.16500
H         -0.30110       -1.88830        1.44650
H         -4.49940        0.62380       -0.89810
19

C          3.81880        0.27800        0.05170
O          2.43510        0.44490       -0.26770
C          1.47830       -0.30470        0.39270
O          1.89120       -1.11440        1.26200
C          0.05210       -0.18690        0.11880
C         -0.84150       -0.97380        0.82400
C         -2.19850       -0.88230        0.58420
C         -2.71230       -0.01360       -0.35630
C         -1.82690        0.78290       -1.07220
C         -0.47800        0.66640       -0.80790
O         -4.07160        0.07920       -0.59760
H          4.36720       -0.25820       -0.72830
H          3.87220       -0.19540        1.04950
H          4.21990        1.31990        0.14420
H         -0.44660       -1.66000        1.56590
H         -2.89630       -1.49670        1.13480
H         -2.18200        1.48880       -1.82980
H          0.18870        1.29640       -1.37800
H         -4.67000        0.72950       -0.08990
