17

C          2.30070       -0.08640        0.35780
C          0.88990        0.49560        0.20810
C          0.10830       -0.48940       -0.59950
C         -1.31700       -0.05630       -0.83650
C         -2.08870        0.13220        0.44160
H          2.24590       -0.97650        1.00830
H          2.68030       -0.37430       -0.65580
H          2.96420        0.65530        0.84320
H          0.49930        0.65950        1.21810
H          0.98790        1.42150       -0.38160
H          0.59020       -0.55960       -1.60180
H          0.17810       -1.47090       -0.10940
H         -1.84960       -0.75360       -1.51320
H         -1.27730        0.91870       -1.39030
H         -2.96650       -0.56680        0.49810
H         -1.46360       -0.12090        1.34390
H         -2.48200        1.17190        0.54360
17

C         -2.26940        0.31520       -0.31140
C         -0.99730        0.10420        0.51810
C          0.03330       -0.46290       -0.40350
C          1.35050       -0.72900        0.26340
C          1.98280        0.49060        0.84970
H         -2.01020        0.67950       -1.33380
H         -2.79110       -0.66190       -0.34170
H         -2.90740        1.11290        0.13320
H         -0.70340        1.08000        0.90820
H         -1.27150       -0.54070        1.35860
H         -0.35270       -1.44420       -0.77180
H          0.11940        0.21460       -1.27850
H          2.04280       -1.11230       -0.53050
H          1.20250       -1.52070        1.00560
H          3.10680        0.39240        0.86350
H          1.70290        0.66380        1.91760
H          1.76180        1.41830        0.29080
17

C          2.04240        0.04460       -0.30150
C          1.30890       -0.23560        0.99110
C         -0.13490       -0.55910        0.75090
C         -0.87420        0.57100        0.06590
C         -2.31760        0.16660       -0.13920
H          1.59580        0.84290       -0.89690
H          2.22680       -0.89490       -0.86590
H          3.06220        0.42020        0.00370
H          1.46190        0.58780        1.71460
H          1.78080       -1.13750        1.43250
H         -0.63620       -0.71750        1.72590
H         -0.17350       -1.47390        0.12310
H         -0.79210        1.48200        0.69740
H         -0.44480        0.82380       -0.92380
H         -2.99380        0.74140        0.54100
H         -2.64890        0.25260       -1.18440
H         -2.46280       -0.91460        0.14600
17

C          2.31320       -0.30590       -0.33220
C          0.89640        0.20410       -0.55420
C          0.14270        0.01730        0.71780
C         -1.28170        0.47450        0.66330
C         -2.11430       -0.21860       -0.35610
H          3.04720        0.16780       -0.99160
H          2.32940       -1.40040       -0.49440
H          2.64830       -0.12060        0.71990
H          0.41840       -0.42760       -1.34030
H          0.90860        1.22890       -0.93230
H          0.25470       -1.03870        1.03620
H          0.65300        0.62340        1.50430
H         -1.71150        0.33300        1.68370
H         -1.27490        1.57340        0.49430
H         -1.86620       -1.26380       -0.53370
H         -2.18770        0.36630       -1.31860
H         -3.17550       -0.21320        0.03370
17

C         -2.11040        0.23210        0.26690
C         -1.24430       -0.55730       -0.65100
C          0.16750       -0.08260       -0.73100
C          0.87500       -0.12280        0.60900
C          2.30230        0.38800        0.37460
H         -1.66470        0.42880        1.25430
H         -2.50580        1.15730       -0.21210
H         -3.02830       -0.39340        0.47400
H         -1.22790       -1.61030       -0.29300
H         -1.67270       -0.55400       -1.66030
H          0.27890        0.91510       -1.19230
H          0.72260       -0.78910       -1.39360
H          0.85560       -1.11770        1.04120
H          0.36690        0.60960        1.26350
H          2.88620       -0.42410       -0.13700
H          2.23100        1.23990       -0.34330
H          2.76810        0.68050        1.33030
