26

C          3.21520       -1.61000        0.72050
C          2.32750       -0.39800        0.60050
O          1.00020       -0.76240        0.87290
P          0.05990        0.05330       -0.28770
O          0.22460       -0.71330       -1.58270
O          0.67080        1.60580       -0.39120
C         -0.21700        2.53790       -0.88950
C         -1.06970        3.06410        0.23740
O         -1.55930       -0.01650        0.13820
C         -2.21290       -1.06650       -0.47420
C         -2.11020       -2.36810        0.28730
H          2.66180       -2.47530        0.31990
H          4.11530       -1.46720        0.07750
H          3.50160       -1.74450        1.77580
H          2.44370       -0.02310       -0.44760
H          2.65860        0.42540        1.26110
H         -0.79310        2.20070       -1.76030
H          0.40270        3.40030       -1.24540
H         -0.96170        4.16880        0.37680
H         -0.80000        2.61720        1.22430
H         -2.12160        2.86570       -0.02300
H         -1.74030       -1.23650       -1.45630
H         -3.29080       -0.88410       -0.64070
H         -2.59110       -2.29200        1.27440
H         -1.09140       -2.77620        0.32330
H         -2.72280       -3.10520       -0.29150
26

C          0.03050       -2.73120       -0.67460
C         -1.03760       -2.07830        0.16630
O         -0.55460       -1.10250        1.01650
P          0.12440        0.21160        0.23480
O          0.70060        1.12400        1.30830
O          1.39770       -0.21010       -0.77830
C          2.41800        0.73030       -0.72320
C          3.62640        0.23310        0.04120
O         -1.04720        1.14370       -0.57320
C         -2.10140        1.32910        0.33460
C         -3.14290        2.24960       -0.24670
H          0.02840       -2.26120       -1.69090
H         -0.27130       -3.79440       -0.85610
H          1.02850       -2.70910       -0.19940
H         -1.83450       -1.73780       -0.50970
H         -1.45450       -2.88120        0.82640
H          2.01560        1.60880       -0.18700
H          2.75240        1.06810       -1.71510
H          4.21280       -0.51300       -0.53620
H          3.35960       -0.23420        1.00250
H          4.30440        1.11600        0.15700
H         -1.76730        1.71570        1.30590
H         -2.54780        0.33030        0.48560
H         -2.69990        3.22240       -0.55360
H         -3.93540        2.37450        0.52160
H         -3.60500        1.79590       -1.15350
26

C          3.50460       -0.12830       -0.18920
C          2.34680        0.49500       -0.95760
O          1.40810       -0.47950       -1.26590
P          0.00210       -0.26400       -0.33080
O          0.30410       -0.30200        1.13670
O         -1.09540       -1.48730       -0.77090
C         -0.97020       -2.60850        0.04650
C         -2.15400       -2.69700        0.97130
O         -0.68940        1.19130       -0.82480
C         -0.76550        2.12910        0.18970
C         -2.00810        2.96700       -0.08600
H          4.05880        0.72420        0.26710
H          3.12350       -0.83470        0.56190
H          4.14710       -0.61630       -0.96470
H          2.73140        0.88990       -1.92950
H          1.94480        1.29590       -0.30280
H         -0.03020       -2.56610        0.64050
H         -0.95580       -3.49060       -0.64250
H         -3.09080       -2.79470        0.40110
H         -2.06620       -3.59090        1.62230
H         -2.12810       -1.81980        1.64000
H          0.11020        2.80260        0.06140
H         -0.84380        1.69090        1.19410
H         -2.86370        2.53350        0.46380
H         -1.77550        4.01220        0.24140
H         -2.24480        2.94820       -1.17320
26

C          3.47590       -1.63970       -0.00750
C          2.09480       -1.42820       -0.62450
O          1.54710       -0.39240        0.09790
P         -0.06550       -0.09540       -0.16730
O         -0.40330        0.13100       -1.63070
O         -0.42360        1.37920        0.60660
C          0.07480        2.37990       -0.24210
C          0.08160        3.66990        0.56910
O         -1.09130       -1.25490        0.50500
C         -2.40790       -0.83170        0.26280
C         -3.25030       -2.08110        0.11180
H          3.92370       -2.59990       -0.30170
H          3.30590       -1.61680        1.09930
H          4.12010       -0.76610       -0.23160
H          2.26260       -1.09610       -1.68110
H          1.56260       -2.38370       -0.55070
H         -0.60160        2.43590       -1.11280
H          1.10490        2.06260       -0.52160
H         -0.90500        3.69880        1.09820
H          0.22980        4.54110       -0.09160
H          0.92080        3.55290        1.29670
H         -2.79500       -0.19320        1.08280
H         -2.43820       -0.22700       -0.67830
H         -4.28320       -1.95010        0.46590
H         -2.81080       -2.94950        0.66190
H         -3.22910       -2.34530       -0.96710
26

C          0.87220        3.40670       -0.20570
C          0.18370        2.11540        0.13450
O          0.02930        1.27040       -0.95070
P          0.01910       -0.31880       -0.34230
O         -0.11200       -0.31720        1.17470
O         -1.42450       -1.02430       -0.90620
C         -2.44170       -0.40720       -0.16060
C         -3.81470       -0.82740       -0.59620
O          1.37590       -1.17300       -0.83430
C          1.99770       -1.68160        0.31220
C          3.23440       -2.47350        0.00200
H          1.08140        3.92730        0.76200
H          0.21500        4.08970       -0.77340
H          1.85910        3.25620       -0.68200
H          0.78190        1.57760        0.89880
H         -0.82270        2.35810        0.51370
H         -2.31510        0.67830       -0.31760
H         -2.30830       -0.61090        0.93070
H         -4.15190       -1.61910        0.11970
H         -4.51300        0.04750       -0.59900
H         -3.75310       -1.25590       -1.60620
H          2.20110       -0.79490        0.96020
H          1.21450       -2.27980        0.83350
H          4.10070       -1.79380       -0.03760
H          3.09100       -2.94990       -0.99450
H          3.39990       -3.20000        0.81430
