18

C          0.13150        1.89880       -0.03980
C          1.24470        1.11980       -0.29750
C          1.15320       -0.24600       -0.05470
C         -0.08740       -0.84500        0.10990
C         -1.23060       -0.07930        0.25110
C         -1.05540        1.29620        0.35840
C         -2.52800       -0.61080       -0.25470
F         -3.53020        0.30860       -0.09570
F         -2.92040       -1.75460        0.41250
F         -2.48770       -0.94060       -1.60050
C          2.42940       -0.96060        0.27650
F          3.21950       -0.21880        1.14900
F          3.20090       -1.13950       -0.86260
F          2.17490       -2.19570        0.83790
H          0.20440        2.96870       -0.09400
H          2.06790        1.48980       -0.91400
H         -0.12780       -1.92540        0.00060
H         -1.85900        1.83420        0.81750
18

C         -0.04360        1.96880       -0.36410
C          1.13160        1.26290       -0.50280
C          1.15830       -0.10440       -0.35040
C         -0.02150       -0.78830       -0.12400
C         -1.18380       -0.10590        0.04420
C         -1.22580        1.27560       -0.05190
C         -2.41780       -0.87650        0.50920
F         -2.18570       -1.28780        1.81250
F         -3.50300       -0.09730        0.30800
F         -2.38880       -2.02070       -0.27580
C          2.42990       -0.81140       -0.07500
F          2.75260       -1.71880       -1.02200
F          3.48470        0.08420        0.09170
F          2.23750       -1.56060        1.10770
H         -0.12640        3.04670       -0.54700
H          2.06820        1.77330       -0.62380
H         -0.03650       -1.86470       -0.12270
H         -2.12990        1.82480        0.18600
18

C         -0.10080        1.93180       -0.27960
C         -1.21670        1.19670        0.05260
C         -1.18450       -0.15410        0.06860
C          0.04090       -0.77410        0.14230
C          1.16710       -0.02450        0.02310
C          1.14400        1.31290       -0.27640
C          2.47820       -0.71820        0.17340
F          3.21450       -0.04990        1.14270
F          3.13290       -0.62230       -1.04530
F          2.31220       -2.01410        0.59410
C         -2.39540       -1.00480       -0.00190
F         -3.21030       -0.61610       -1.04420
F         -2.04720       -2.32660       -0.23070
F         -3.08720       -0.82880        1.16320
H         -0.24690        2.89210       -0.78870
H         -2.13810        1.71310        0.32830
H          0.09900       -1.80350        0.48730
H          2.03840        1.89050       -0.50870
18

C         -0.09440        1.95120        0.00770
C         -1.24450        1.20490       -0.12990
C         -1.16110       -0.16530       -0.05670
C          0.02940       -0.81510        0.10600
C          1.18550       -0.06990        0.19980
C          1.12510        1.32340        0.16350
C          2.49730       -0.73600        0.04720
F          3.49620        0.17060       -0.33160
F          2.46360       -1.67810       -0.97370
F          2.86310       -1.39090        1.19290
C         -2.42990       -0.95730       -0.07780
F         -2.52360       -1.78020        1.03140
F         -2.38830       -1.72530       -1.21900
F         -3.52440       -0.09230       -0.02820
H         -0.17500        3.04800       -0.03910
H         -2.21990        1.68240       -0.39130
H          0.09460       -1.90550        0.19520
H          2.00620        1.93560        0.30350
18

C          0.02280        1.90800       -0.39720
C          1.21390        1.21430       -0.30760
C          1.17110       -0.17040       -0.25160
C         -0.04540       -0.79960       -0.20650
C         -1.23020       -0.08790       -0.33350
C         -1.21310        1.29210       -0.32920
C         -2.45540       -0.81870        0.07270
F         -2.39640       -2.05920       -0.54510
F         -2.32840       -0.92450        1.44940
F         -3.60950       -0.20660       -0.31920
C          2.40990       -0.85550        0.18410
F          2.85290       -0.27620        1.35420
F          2.14570       -2.19410        0.41730
F          3.40660       -0.84000       -0.78410
H          0.07020        2.98290       -0.43970
H          2.10100        1.75020        0.07750
H         -0.05050       -1.78240        0.30650
H         -2.06510        1.86770        0.05200
