5

C         -0.01320        0.00170       -0.00510
F          0.49890       -0.17240        1.26400
F         -0.81900       -1.07310       -0.29380
F         -0.70450        1.19520       -0.08300
F          1.03780        0.04850       -0.88210
5

C          0.01420       -0.01770       -0.01240
F          0.37110        0.03420        1.30920
F         -0.73160        1.11720       -0.29140
F         -0.79940       -1.10120       -0.20660
F          1.14580       -0.03250       -0.79880
