20

C          0.33240       -0.16290        1.63620
C         -0.18360        0.11580        0.22900
O         -0.32720        1.49490        0.12710
C         -0.83870        1.87340       -1.11100
O          0.67540       -0.39650       -0.73050
C          1.95480        0.12870       -0.65030
O         -1.40690       -0.49020        0.09120
C         -1.37190       -1.86650        0.17750
H          0.59220       -1.20830        1.79860
H          1.20640        0.52210        1.82700
H         -0.46850        0.20520        2.33450
H         -0.92360        2.97460       -1.11590
H         -0.15020        1.49040       -1.88440
H         -1.84550        1.46190       -1.29640
H          1.97710        1.22490       -0.78230
H          2.44650       -0.23460        0.25560
H          2.52440       -0.29740       -1.51370
H         -0.73330       -2.33890       -0.59580
H         -1.06740       -2.22570        1.18920
H         -2.39260       -2.27100        0.01430
20

C          0.54760        0.84660        1.34550
C         -0.18840        0.04460        0.26250
O         -1.24310        0.88750       -0.15810
C         -0.71900        2.02810       -0.75860
O         -0.65310       -1.09710        0.86260
C         -1.45410       -1.87690        0.04770
O          0.61820       -0.15550       -0.82800
C          1.70640       -0.96110       -0.59790
H          1.27150        1.51920        0.88250
H         -0.23060        1.35480        1.95170
H          1.08700        0.12200        2.00040
H         -0.11070        1.67370       -1.64100
H         -1.55640        2.62040       -1.16370
H         -0.12510        2.64930       -0.08760
H         -1.77360       -2.76100        0.61460
H         -2.37190       -1.31230       -0.22190
H         -0.88860       -2.19180       -0.82800
H          1.43370       -1.96140       -0.26860
H          2.28860       -1.00690       -1.55390
H          2.36150       -0.42200        0.13950
20

C         -1.47630        0.40820        0.89820
C         -0.26190        0.09950        0.01280
O          0.13530        1.24510       -0.67460
C          0.45940        2.29730        0.13570
O         -0.54750       -0.84640       -0.93400
C         -0.95980       -2.05660       -0.48720
O          0.73540       -0.34010        0.89020
C          1.91390       -0.64980        0.23370
H         -2.30860        0.83070        0.29980
H         -1.75680       -0.53420        1.41620
H         -1.19080        1.11830        1.68690
H          0.75860        3.14200       -0.55090
H          1.30910        2.12200        0.80060
H         -0.42480        2.72390        0.69410
H         -1.14760       -2.70650       -1.37990
H         -0.19880       -2.54560        0.14380
H         -1.90450       -2.06940        0.08600
H          1.82350       -1.44230       -0.51940
H          2.43040        0.24590       -0.18720
H          2.61180       -1.04200        1.01550
20

C         -0.31330       -0.22410       -1.13640
C          0.08490        0.02190        0.30070
O          1.38300        0.51220        0.38530
C          2.31930       -0.37360       -0.14010
O         -0.06800       -1.17450        0.99350
C         -1.37470       -1.60240        0.86780
O         -0.74570        0.95840        0.92070
C         -0.67120        2.20240        0.29630
H          0.40190        0.37190       -1.76250
H         -1.34420        0.06970       -1.36460
H         -0.18360       -1.28280       -1.44250
H          2.31710       -1.35730        0.39090
H          2.26680       -0.46840       -1.23190
H          3.32350        0.07020        0.08860
H         -1.51230       -2.57030        1.42420
H         -1.68900       -1.80640       -0.16680
H         -2.10470       -0.85700        1.27970
H          0.33910        2.60870        0.31610
H         -1.44560        2.85380        0.74610
H         -0.98340        2.04760       -0.76530
20

C          0.53960       -0.60540        1.49000
C         -0.11300        0.07020        0.30930
O          0.52120       -0.21230       -0.87300
C          1.86610        0.12570       -0.88450
O         -1.44550       -0.31470        0.18720
C         -1.56520       -1.67430       -0.07970
O         -0.10990        1.45170        0.51010
C         -0.75960        2.12960       -0.50150
H          0.99030       -1.59120        1.19410
H         -0.23010       -0.86930        2.25680
H          1.27610        0.04550        2.00250
H          2.06310        1.18690       -0.71510
H          2.25190       -0.11840       -1.90660
H          2.45060       -0.50470       -0.18390
H         -2.64420       -1.90340       -0.16250
H         -1.07500       -1.88150       -1.05100
H         -1.12030       -2.31010        0.69120
H         -0.71140        3.21220       -0.26600
H         -0.33940        1.94460       -1.50370
H         -1.84530        1.81900       -0.51360
