17

C         -1.69520       -0.96180        0.00250
C         -0.58880       -0.00860       -0.46970
C         -0.76840        1.20280        0.39910
C          0.70420       -0.74280       -0.23110
C          1.89310        0.02910       -0.64720
O          2.50310       -0.13920       -1.73230
O          2.37650        1.00300        0.20630
H         -2.61980       -0.36140        0.00830
H         -1.75750       -1.84610       -0.65630
H         -1.42140       -1.20590        1.06070
H         -0.66650        0.27830       -1.50740
H         -1.68320        1.73060        0.01910
H          0.08670        1.86560        0.42700
H         -1.08380        0.87550        1.43460
H          0.64970       -1.66650       -0.89010
H          0.78010       -1.09320        0.82290
H          3.29110        1.04060        0.58050
17

C         -0.91030       -1.28690        0.23370
C         -0.76570        0.04810       -0.48660
C         -1.20630        1.12190        0.45690
C          0.64960        0.25120       -0.98390
C          1.64440        0.24500        0.08800
O          1.75330        1.27410        0.79870
O          2.45970       -0.84570        0.34090
H         -0.48600       -2.12070       -0.36810
H         -0.47530       -1.25620        1.25150
H         -2.00140       -1.46680        0.32560
H         -1.40620       -0.02650       -1.39080
H         -2.29220        1.30310        0.26640
H         -0.66290        2.08300        0.32540
H         -1.08320        0.79260        1.52950
H          0.63670        1.20140       -1.56910
H          0.85190       -0.55070       -1.73190
H          3.29400       -0.76700        0.91380
17

C         -0.52120        1.46190       -0.16510
C         -0.74940        0.08530        0.39130
C         -1.27350       -0.83100       -0.66710
C          0.44130       -0.45600        1.12180
C          1.64570       -0.57180        0.29530
O          2.68600       -1.02010        0.84200
O          1.74230       -0.22890       -1.04550
H         -0.75720        1.45800       -1.26100
H         -1.20360        2.22990        0.27400
H          0.53020        1.79750       -0.06310
H         -1.56830        0.19020        1.16230
H         -2.36920       -1.04020       -0.54900
H         -1.17670       -0.34950       -1.67190
H         -0.74140       -1.80590       -0.72090
H          0.65210        0.18420        1.98980
H          0.18010       -1.47510        1.48130
H          2.48250        0.37170       -1.41400
17

C         -1.06260        1.14590       -0.13410
C         -0.49360       -0.14460        0.37940
C         -1.50770       -1.25570        0.10100
C          0.79250       -0.56730       -0.29910
C          1.86470        0.42600       -0.11700
O          2.20810        1.15790       -1.07140
O          2.46560        0.55850        1.11520
H         -2.12240        1.03600       -0.50180
H         -1.13750        1.89900        0.70660
H         -0.48780        1.57450       -0.97900
H         -0.26850       -0.07950        1.47310
H         -1.17210       -2.21050        0.55310
H         -2.46360       -0.91180        0.50680
H         -1.62550       -1.30270       -0.99740
H          0.56170       -0.70900       -1.38230
H          1.07580       -1.54200        0.09240
H          3.37300        0.92500        1.29030
17

C         -0.92520        1.31310       -0.06280
C         -0.54050       -0.08000       -0.50850
C         -1.63750       -1.01560        0.01730
C          0.74760       -0.54540        0.10600
C          1.89500        0.31010       -0.22480
O          1.84820        1.33660       -0.94500
O          3.13450       -0.03430        0.29500
H         -0.59780        1.42560        1.00870
H         -2.05090        1.36710       -0.07200
H         -0.48750        2.08930       -0.71090
H         -0.53150       -0.08880       -1.60730
H         -1.36270       -1.24430        1.06830
H         -1.67860       -1.95280       -0.58260
H         -2.61110       -0.47860        0.02310
H          0.63610       -0.55840        1.20020
H          0.94830       -1.56200       -0.29380
H          3.21350       -0.28160        1.28920
