15

C         -1.40150       -0.54500       -0.34800
C         -0.38870       -1.43860        0.23960
C          0.91260       -1.26360        0.34400
C          1.70160       -0.11080       -0.09360
C          1.21810        1.14170       -0.16950
C         -0.14740        1.60970        0.15280
C         -1.22760        0.86750        0.07010
H         -1.29040       -0.62180       -1.46960
H         -2.43380       -0.88880       -0.13240
H         -0.70730       -2.38590        0.65880
H          1.51720       -2.06220        0.78200
H          2.73220       -0.27330       -0.37210
H          1.91020        1.90390       -0.48630
H         -0.24970        2.65680        0.45680
H         -2.14550        1.41030        0.36730
15

C         -1.48980       -0.00170       -0.39410
C         -0.82260        1.25780        0.01220
C          0.46850        1.54310        0.10790
C          1.59480        0.63690       -0.16500
C          1.52020       -0.69400       -0.02160
C          0.38740       -1.51270        0.40820
C         -0.89100       -1.19630        0.24420
H         -2.56970        0.04750       -0.14150
H         -1.42160       -0.11090       -1.51720
H         -1.47840        2.10250        0.28090
H          0.76980        2.55370        0.38550
H          2.53450        1.04140       -0.48670
H          2.42360       -1.27270       -0.23620
H          0.59980       -2.47090        0.88770
H         -1.62540       -1.92360        0.63580
15

C         -1.51230        0.34200       -0.23230
C         -0.51790        1.37770        0.01140
C          0.80660        1.39890        0.07780
C          1.70470        0.26500       -0.09540
C          1.37460       -1.01620       -0.02510
C          0.06890       -1.59710        0.23540
C         -1.12060       -1.01280        0.14270
H         -2.46210        0.63970        0.29980
H         -1.80090        0.32950       -1.31820
H         -0.92970        2.38510        0.18280
H          1.29290        2.35070        0.28160
H          2.75140        0.49980       -0.30340
H          2.22220       -1.66770       -0.18990
H          0.08370       -2.63330        0.54120
H         -1.96150       -1.66140        0.39160
