20

C         -1.06880       -1.46210       -0.36620
C         -0.71620       -0.01400       -0.12790
C         -1.47620        0.86790       -1.08490
C         -1.19050        0.32090        1.28670
C          0.71420        0.27040       -0.23920
O          1.15200        1.09210       -1.08980
O          1.68770       -0.33120        0.56900
C          3.06380       -0.01020        0.40920
H         -1.38610       -1.59930       -1.41870
H         -1.93860       -1.77330        0.27150
H         -0.25670       -2.15730       -0.15180
H         -1.58500        1.86740       -0.61700
H         -0.84110        0.99640       -1.98420
H         -2.45180        0.39020       -1.31330
H         -2.29060        0.12560        1.31090
H         -1.03500        1.38900        1.49090
H         -0.63660       -0.26430        2.04300
H          3.46900       -0.66720       -0.37880
H          3.59130       -0.07940        1.36590
H          3.19510        1.03820        0.02510
20

C         -1.17540        0.63880       -1.25670
C         -0.69720        0.09670        0.06970
C         -1.67460       -0.97310        0.49530
C         -0.73610        1.24960        1.08150
C          0.64670       -0.47090        0.00930
O          0.81160       -1.68050        0.30460
O          1.77950        0.26440       -0.36380
C          3.02960       -0.39780       -0.38420
H         -1.33510       -0.21660       -1.94510
H         -2.18390        1.08760       -1.06230
H         -0.52610        1.41830       -1.67140
H         -1.17440       -1.76300        1.10030
H         -2.46190       -0.47870        1.08870
H         -2.09560       -1.49690       -0.39930
H          0.12340        1.89470        0.91690
H         -0.74450        0.78050        2.07660
H         -1.70470        1.78560        0.96300
H          2.88900       -1.47680       -0.59560
H          3.75960        0.07510       -1.06560
H          3.47000       -0.33700        0.63800
20

C         -1.19220        1.35180       -0.25650
C         -0.76680       -0.06390        0.02900
C         -0.75980       -0.90700       -1.24790
C         -1.69890       -0.76850        0.99320
C          0.64000       -0.10190        0.54110
O          0.94850       -0.56020        1.66050
O          1.62990        0.39690       -0.27470
C          3.00100        0.42720        0.07390
H         -1.90150        1.40820       -1.11320
H         -1.75800        1.71450        0.64220
H         -0.27960        1.95460       -0.44210
H         -0.10290       -1.77740       -1.03930
H         -0.40870       -0.31870       -2.11680
H         -1.76200       -1.29680       -1.49000
H         -2.72230       -0.68010        0.61730
H         -1.36410       -1.82450        1.03830
H         -1.66190       -0.26440        1.97490
H          3.40940        1.44160       -0.10770
H          3.15720        0.12420        1.12070
H          3.59260       -0.25590       -0.60300
20

C         -1.06300        1.43380       -0.12910
C         -0.78710       -0.02460        0.09590
C         -1.65250       -0.65320        1.13990
C         -0.91200       -0.72970       -1.25970
C          0.65920       -0.18600        0.48410
O          1.00880       -0.68730        1.57590
O          1.58880        0.25080       -0.43310
C          2.96660        0.12710       -0.12810
H         -1.30790        1.67770       -1.18550
H         -0.21800        2.08110        0.20460
H         -1.94430        1.78320        0.48000
H         -2.08230       -1.59880        0.70880
H         -1.07850       -0.98770        2.04680
H         -2.45800        0.04130        1.41770
H          0.06210       -0.62480       -1.80970
H         -1.69680       -0.21780       -1.85820
H         -1.10750       -1.80920       -1.13050
H          3.19710       -0.88940        0.30550
H          3.49880        0.14770       -1.11180
H          3.32650        0.86580        0.58660
20

C         -1.25680       -1.14790        0.93610
C         -0.72220       -0.02160        0.08690
C         -1.37020       -0.08260       -1.26050
C         -1.06150        1.27020        0.81080
C          0.73610       -0.06730       -0.06860
O          1.22210       -0.17450       -1.21900
O          1.60490        0.00360        1.01260
C          2.99850       -0.04790        0.77290
H         -2.29740       -0.85530        1.22530
H         -0.69320       -1.25160        1.88630
H         -1.33410       -2.09480        0.40380
H         -2.47560       -0.00520       -1.17160
H         -1.08930       -1.05350       -1.72270
H         -0.96500        0.76710       -1.86370
H         -1.77400        1.10730        1.64490
H         -1.49920        1.95020        0.04600
H         -0.15700        1.72470        1.26580
H          3.38630        0.97840        0.98490
H          3.21970       -0.25970       -0.30870
H          3.52810       -0.73970        1.44610
