24

C         -3.97220        0.22670        0.73290
C         -2.70410        0.28390       -0.05650
C         -1.48230       -0.10180        0.78870
C         -0.28710        0.00080       -0.13370
C          0.99880       -0.35760        0.58270
C          2.11180       -0.21090       -0.46270
C          3.43430       -0.53000        0.09340
C          4.39540        0.36970        0.10350
H         -3.84570        0.78380        1.69130
H         -4.26350       -0.81910        0.88290
H         -4.74440        0.79280        0.16370
H         -2.48390        1.29240       -0.46510
H         -2.79090       -0.38860       -0.93390
H         -1.32780        0.63510        1.59610
H         -1.58920       -1.11100        1.21340
H         -0.42600       -0.71110       -0.97270
H         -0.18170        1.02510       -0.50590
H          1.14360        0.33780        1.42690
H          0.97610       -1.37600        1.00530
H          2.02970        0.81630       -0.84370
H          1.84290       -0.88370       -1.30710
H          3.59320       -1.53110        0.49550
H          4.19370        1.35020       -0.30600
H          5.37920        0.10640        0.52620
24

C         -2.83610        0.82570        0.69230
C         -2.39730       -0.57150        1.05920
C         -0.88340       -0.63860        0.76870
C         -0.74690       -0.35130       -0.69240
C          0.68540       -0.41190       -1.10880
C          1.46650        0.61950       -0.33170
C          2.86660        0.52710       -0.80220
C          3.80180        0.23590        0.04420
H         -3.67560        1.15230        1.34520
H         -2.01410        1.56980        0.77910
H         -3.17010        0.88120       -0.38440
H         -2.85440       -1.27720        0.32360
H         -2.61580       -0.83050        2.10040
H         -0.44430       -1.58310        1.08700
H         -0.48650        0.23140        1.34700
H         -1.22900        0.62250       -0.96480
H         -1.29630       -1.10610       -1.32390
H          0.81530       -0.23770       -2.21160
H          1.12630       -1.43560       -0.94070
H          1.02870        1.61430       -0.50530
H          1.38220        0.36990        0.74890
H          3.07500        0.70280       -1.83060
H          3.57490        0.06140        1.07890
H          4.82700        0.16390       -0.27830
24

C         -2.94270        0.92810        0.47520
C         -1.95920       -0.20000        0.32560
C         -0.62980        0.12200        0.99810
C          0.30710       -1.03630        0.81540
C          0.57840       -1.33770       -0.63970
C          1.20540       -0.17910       -1.37120
C          2.50660        0.19210       -0.75790
C          2.74450        1.38190       -0.25720
H         -3.96180        0.51470        0.45770
H         -2.75820        1.46700        1.42350
H         -2.88930        1.64810       -0.38190
H         -2.42000       -1.09950        0.76900
H         -1.75550       -0.36010       -0.74500
H         -0.85970        0.18020        2.09160
H         -0.24060        1.09230        0.69030
H         -0.16810       -1.93060        1.26150
H          1.26640       -0.89650        1.34020
H         -0.30010       -1.73620       -1.17180
H          1.34060       -2.16600       -0.66200
H          1.43410       -0.54030       -2.39880
H          0.52250        0.68800       -1.45460
H          3.28080       -0.55630       -0.72860
H          3.69470        1.60940        0.17550
H          2.00360        2.18540       -0.25490
24

C         -3.34370        0.12340        0.08480
C         -2.36390       -0.21950        1.16660
C         -0.97060        0.29000        0.76400
C         -0.63220       -0.41230       -0.52860
C          0.71220       -0.02420       -1.06810
C          1.79630       -0.36590       -0.07980
C          3.13810        0.00380       -0.58180
C          3.91240        0.86420        0.05790
H         -3.11520        1.08240       -0.42720
H         -4.38510        0.14080        0.49960
H         -3.34570       -0.67800       -0.69580
H         -2.65010        0.19690        2.16030
H         -2.34130       -1.32160        1.28350
H         -0.29150        0.06170        1.58920
H         -1.02790        1.38880        0.62060
H         -0.62710       -1.51030       -0.37080
H         -1.44630       -0.17380       -1.24330
H          0.74160        1.05220       -1.35310
H          0.90420       -0.61730       -1.98570
H          1.62940        0.11330        0.91400
H          1.78950       -1.47640        0.03980
H          3.48790       -0.44910       -1.50170
H          4.88490        1.12380       -0.31800
H          3.54390        1.30430        0.97380
24

C         -3.62260        0.52380       -0.29750
C         -2.22820        0.20600        0.17050
C         -1.56370       -0.84860       -0.68310
C         -0.18550       -1.11480       -0.16360
C          0.70590        0.08180       -0.16790
C          2.06130       -0.36340        0.38860
C          2.96800        0.82420        0.39150
C          4.10770        0.83800       -0.29800
H         -3.63090        1.42110       -0.94430
H         -4.20070        0.82370        0.62420
H         -4.13700       -0.34830       -0.74770
H         -1.66080        1.16330        0.16610
H         -2.26760       -0.17030        1.22280
H         -2.15670       -1.79250       -0.51820
H         -1.61610       -0.63650       -1.74740
H         -0.25960       -1.59650        0.82740
H          0.27850       -1.87720       -0.84510
H          0.36730        0.91610        0.43860
H          0.80910        0.43380       -1.20830
H          2.48280       -1.14460       -0.25460
H          1.86880       -0.71690        1.43280
H          2.70980        1.69710        0.95850
H          4.76050        1.70130       -0.29200
H          4.40960       -0.02060       -0.88480
