14

C         -1.88780       -0.53170       -0.36910
C         -0.79840        0.25240        0.35430
C          0.56780       -0.12300       -0.19420
C          1.59030        0.65650        0.53070
O          1.27290        1.47760        1.44380
O          2.94940        0.54770        0.26850
H         -1.56660       -1.56830       -0.52550
H         -2.79730       -0.45670        0.29540
H         -2.18020       -0.04150       -1.31640
H         -1.00290        1.33800        0.24530
H         -0.89170       -0.01750        1.42220
H          0.71980       -1.19900        0.07580
H          0.61490       -0.03330       -1.28380
H          3.40970       -0.30130        0.02070
14

C         -1.90760        0.36290       -0.03940
C         -0.40970        0.42570       -0.14930
C          0.27350       -0.86870        0.18840
C          1.74360       -0.58700        0.19400
O          2.56060       -1.52390        0.42040
O          2.27170        0.60250       -0.31470
H         -2.23610        0.22170        0.99900
H         -2.32840       -0.39000       -0.71860
H         -2.29060        1.35650       -0.37510
H         -0.00830        1.20130        0.52070
H         -0.12410        0.70420       -1.17930
H          0.08910       -1.66420       -0.55630
H          0.00930       -1.24730        1.18990
H          2.35720        1.40610        0.31250
14

C         -1.99880        0.20090       -0.15690
C         -0.65910       -0.26680       -0.60390
C          0.45660        0.10480        0.37060
C          1.73370       -0.40700       -0.17030
O          1.83220       -1.64410       -0.44140
O          2.83210        0.41480       -0.41030
H         -2.78130       -0.59880       -0.15580
H         -2.35240        0.94140       -0.93000
H         -1.98300        0.72050        0.82400
H         -0.67670       -1.37200       -0.67250
H         -0.38820        0.09800       -1.62710
H          0.28570       -0.40880        1.35090
H          0.47500        1.20250        0.47220
H          3.22420        1.01460        0.30310
14

C         -1.97000       -0.04290        0.12980
C         -0.51110       -0.12430        0.52840
C          0.33960        0.31620       -0.64100
C          1.78130        0.26780       -0.33880
O          2.57470        0.61620       -1.25060
O          2.28390       -0.14140        0.89450
H         -2.65090       -0.27170        0.95150
H         -2.12430        0.97450       -0.29730
H         -2.12520       -0.78170       -0.70560
H         -0.31380        0.43400        1.44170
H         -0.30680       -1.21690        0.70460
H          0.09580        1.35910       -0.92630
H          0.16200       -0.36100       -1.50070
H          2.76470       -1.02770        1.00990
14

C          1.43350       -0.00310       -0.64840
C          0.82780       -0.05880        0.71200
C         -0.55040       -0.64240        0.74780
C         -1.51610        0.12120       -0.07620
O         -2.70380       -0.30140       -0.10310
O         -1.19030        1.25090       -0.80320
H          1.32800        1.03270       -1.07050
H          0.89230       -0.73230       -1.30160
H          2.51330       -0.26620       -0.66170
H          0.74970        0.98370        1.11710
H          1.46500       -0.63810        1.40130
H         -0.59760       -1.70060        0.45900
H         -0.90850       -0.56130        1.80860
H         -1.74270        1.51590       -1.58110
