16

C         -2.13840        0.70550       -0.28040
C         -0.79720        0.26820        0.32650
C          0.02950       -0.41170       -0.69850
C          1.36280       -0.90470       -0.28670
N          2.23620        0.14530        0.16650
O          1.90580        1.32860        0.08170
O          3.50070       -0.18010        0.62370
H         -2.86450        0.72640        0.55930
H         -2.04500        1.72950       -0.69480
H         -2.50490       -0.03750       -1.00340
H         -0.38930        1.13690        0.81960
H         -1.05370       -0.50070        1.10860
H         -0.58870       -1.26170       -1.10600
H          0.13310        0.28480       -1.57380
H          1.87410       -1.36080       -1.18580
H          1.33950       -1.66800        0.51360
16

C          1.76560        0.71320       -0.02520
C          1.23190       -0.66900        0.25810
C         -0.16410       -0.82430       -0.34580
C         -1.01730        0.23680        0.31870
N         -2.37940        0.20980       -0.15930
O         -3.26510       -0.00450        0.68480
O         -2.72420        0.40250       -1.46810
H          2.86910        0.64780       -0.18960
H          1.25900        1.12440       -0.90460
H          1.59050        1.41820        0.82200
H          1.20400       -0.78550        1.35850
H          1.88010       -1.46190       -0.14260
H         -0.12360       -0.63220       -1.42330
H         -0.58380       -1.81520       -0.15600
H         -0.95480        0.21840        1.40500
H         -0.58780        1.22140       -0.03250
16

C          2.27830        0.31400       -0.90860
C          1.10010        0.05730       -0.03010
C         -0.21250        0.04250       -0.78090
C         -1.29590       -0.23240        0.27390
N         -2.60230       -0.27140       -0.31490
O         -3.32970       -1.28020       -0.25690
O         -3.08730        0.83210       -0.97070
H          3.03700       -0.51390       -0.79350
H          1.99650        0.41480       -1.97610
H          2.75980        1.27580       -0.62520
H          1.01520        0.82960        0.75820
H          1.18980       -0.97160        0.42030
H         -0.15800       -0.79650       -1.50300
H         -0.43530        0.97530       -1.30070
H         -1.24380        0.52250        1.08440
H         -1.01180       -1.19790        0.73320
16

C         -1.64850        0.10590        0.50710
C         -0.75550        0.84190       -0.46840
C          0.18620       -0.16280       -1.07100
C          0.98820       -0.80590        0.02180
N          1.81630        0.05580        0.79800
O          3.07040       -0.10760        0.70260
O          1.42070        1.04490        1.63540
H         -2.72320        0.41800        0.34200
H         -1.65580       -0.99040        0.34690
H         -1.36210        0.28100        1.56050
H         -1.37930        1.33370       -1.27130
H         -0.17880        1.63470        0.02990
H         -0.49430       -0.93080       -1.55280
H          0.82800        0.28410       -1.86280
H          1.58380       -1.63500       -0.46000
H          0.30380       -1.36750        0.74220
16

C         -1.98250       -0.03470       -0.16130
C         -0.95740       -0.66780        0.73340
C          0.42020       -0.67640        0.10380
C          0.89340        0.74200       -0.19590
N          2.20140        0.62340       -0.78710
O          2.38400        1.06410       -1.93220
O          3.27230        0.04510       -0.15320
H         -2.21530        1.02840        0.13890
H         -2.97800       -0.55930       -0.09140
H         -1.65940        0.02570       -1.22610
H         -1.20740       -1.72030        0.98000
H         -0.94010       -0.08530        1.67680
H          0.41600       -1.21720       -0.86190
H          1.15240       -1.14820        0.78720
H          0.97410        1.33680        0.74740
H          0.22640        1.24360       -0.92030
