20

C         -1.86410       -0.74090       -1.03380
C         -1.53540       -0.38810        0.37750
C         -1.82770        1.08920        0.64710
C         -0.11570       -0.69660        0.76830
O          0.80660        0.02570       -0.05680
C          2.15580       -0.11170        0.13250
O          2.54170       -0.88970        1.05030
C          3.19330        0.59030       -0.66630
H         -1.02420       -1.05130       -1.64780
H         -2.35470        0.14190       -1.53560
H         -2.64160       -1.54060       -1.05790
H         -2.19140       -0.94960        1.07780
H         -1.42700        1.72340       -0.17730
H         -2.93710        1.17380        0.68040
H         -1.35670        1.37220        1.58830
H          0.10170       -1.75700        0.63510
H          0.02230       -0.34000        1.81020
H          3.69200        1.40310       -0.07050
H          3.97770       -0.12930       -0.96130
H          2.78430        1.07520       -1.56010
20

C         -1.52260        1.11270       -0.23650
C         -1.06230       -0.26510        0.18920
C         -2.29560       -1.17020        0.01130
C         -0.00610       -0.82000       -0.70430
O          1.17210       -0.08490       -0.80290
C          1.97070        0.14740        0.29570
O          1.61610       -0.32390        1.40380
C          3.24500        0.94760        0.18690
H         -2.25150        1.46910        0.51830
H         -2.08810        1.01520       -1.20080
H         -0.69980        1.82710       -0.33660
H         -0.79050       -0.24340        1.25920
H         -3.18270       -0.63480        0.43810
H         -2.42360       -1.32200       -1.08050
H         -2.12910       -2.15130        0.46950
H          0.18250       -1.87230       -0.34910
H         -0.47100       -0.91070       -1.72600
H          3.09630        1.98010        0.49960
H          3.70060        0.82790       -0.80790
H          3.93970        0.47180        0.92560
20

C         -1.49050        1.32200        0.34180
C         -1.34240       -0.15800        0.54670
C         -2.54450       -0.93630        0.08100
C         -0.16100       -0.62240       -0.28380
O          0.96960        0.07860        0.17930
C          2.17960       -0.16210       -0.41320
O          2.25000       -0.99260       -1.34440
C          3.44140        0.51750       -0.00920
H         -0.53250        1.79500        0.63340
H         -2.33700        1.75790        0.88390
H         -1.57570        1.48970       -0.76600
H         -1.19750       -0.34640        1.60990
H         -3.41940       -0.83180        0.75280
H         -2.25030       -2.02340        0.13270
H         -2.81830       -0.75340       -0.96460
H         -0.00840       -1.72660       -0.18570
H         -0.36450       -0.44220       -1.35390
H          3.75350        1.13680       -0.88640
H          4.17740       -0.29270        0.21130
H          3.27040        1.19040        0.83440
20

C         -1.75160       -1.03080        0.36340
C         -1.34930        0.40750        0.53930
C         -2.35830        1.35760       -0.10370
C         -0.02870        0.63520       -0.20160
O          0.95010       -0.22480        0.35340
C          2.22680       -0.20240       -0.15050
O          2.48170        0.59110       -1.09800
C          3.32620       -1.06350        0.36040
H         -0.84710       -1.66100        0.14640
H         -2.18030       -1.47030        1.30210
H         -2.47630       -1.18810       -0.45150
H         -1.25870        0.71370        1.58700
H         -3.32220        1.34980        0.42670
H         -2.45490        1.14890       -1.19410
H         -1.89480        2.38010       -0.02080
H         -0.13200        0.45000       -1.27020
H          0.33330        1.67230       -0.05160
H          2.92900       -2.09770        0.54940
H          4.12540       -1.13770       -0.40460
H          3.68160       -0.62990        1.32040
20

C         -2.40850       -0.91740       -0.24450
C         -1.11310       -0.10940       -0.17400
C         -1.39870        1.17790        0.55440
C         -0.07230       -0.94140        0.48560
O          1.18190       -0.37200        0.64340
C          1.96880        0.04360       -0.39300
O          1.57200       -0.08070       -1.57610
C          3.31470        0.65740       -0.22590
H         -2.38630       -1.74520        0.48050
H         -3.26760       -0.23490       -0.10900
H         -2.52550       -1.37280       -1.25750
H         -0.82100        0.10860       -1.20760
H         -0.95180        2.04040        0.00460
H         -2.49570        1.35560        0.58720
H         -1.06480        1.14790        1.62190
H         -0.45620       -1.18710        1.51510
H         -0.04050       -1.92030       -0.07200
H          3.41770        1.47060       -0.97080
H          3.48560        1.00980        0.81120
H          4.06130       -0.13070       -0.47330
