17

C         -2.81180       -0.05190        0.07890
C         -1.33500       -0.04730       -0.02240
C         -0.57840        0.33010        1.07600
C          0.79600        0.32410        0.95020
C          1.44310       -0.03870       -0.21320
N          0.67150       -0.39790       -1.25440
C         -0.67460       -0.40880       -1.18280
C          2.93500       -0.04070       -0.33580
H         -3.12840        0.99470        0.33000
H         -3.11150       -0.77080        0.87700
H         -3.21300       -0.34330       -0.91460
H         -1.07920        0.62170        2.00970
H          1.40830        0.61300        1.78860
H         -1.30140       -0.69730       -2.01810
H          3.38520        0.40370        0.55170
H          3.25040        0.56040       -1.23600
H          3.34400       -1.05100       -0.48460
17

C          2.79760       -0.14270        0.10650
C          1.29900       -0.11630        0.04850
C          0.62870        1.09430        0.00540
C         -0.75280        1.06740       -0.04690
C         -1.45010       -0.12710       -0.05620
N         -0.74390       -1.26430       -0.01290
C          0.60140       -1.30790        0.03910
C         -2.94730       -0.11270       -0.11380
H          3.15610       -0.99560        0.74690
H          3.19740        0.82330        0.48360
H          3.17050       -0.28660       -0.93050
H          1.15720        2.02960        0.01180
H         -1.31960        1.98400       -0.08160
H          1.16010       -2.24200        0.07380
H         -3.29580        0.83460        0.36200
H         -3.33430       -0.25530       -1.12660
H         -3.32400       -0.98250        0.49100
17

C         -2.77310        0.21960        0.21800
C         -1.28600        0.15420        0.27080
C         -0.61090       -0.89470       -0.34550
C          0.77160       -0.94410       -0.28920
C          1.42070        0.05700        0.38060
N          0.77910        1.08720        0.98730
C         -0.58040        1.13710        0.93280
C          2.91120       -0.00860        0.43360
H         -3.17100        0.67810        1.12460
H         -3.02830        0.79480       -0.70740
H         -3.23670       -0.77940        0.10010
H         -1.16910       -1.66970       -0.86760
H          1.27800       -1.76910       -0.77560
H         -1.14270        1.92390        1.39170
H          3.32820        0.86190        0.99660
H          3.25520        0.11830       -0.61990
H          3.25410       -0.96670        0.86560
17

C          2.80830        0.04010       -0.01120
C          1.30600       -0.01710        0.02830
C          0.54600        0.90440       -0.63470
C         -0.82890        0.83310       -0.58490
C         -1.45370       -0.16890        0.13450
N         -0.66760       -1.05640        0.77320
C          0.67700       -1.01440        0.74430
C         -2.94070       -0.24600        0.18790
H          3.11940        0.80260       -0.74800
H          3.20840        0.19320        0.99860
H          3.16980       -0.94030       -0.43050
H          1.07500        1.67460       -1.18790
H         -1.40640        1.57250       -1.11650
H          1.30070       -1.73330        1.26160
H         -3.20850       -1.25480        0.59570
H         -3.39450       -0.16750       -0.83570
H         -3.31040        0.57820        0.82540
17

C          2.80630       -0.13120       -0.04000
C          1.32380       -0.09390       -0.03750
C          0.62290        0.98180        0.46430
C         -0.77210        0.94930        0.43460
C         -1.47810       -0.11950       -0.07830
N         -0.75600       -1.14890       -0.55800
C          0.60530       -1.15620       -0.54750
C         -2.97350       -0.13510       -0.10140
H          3.21020       -0.13000        1.01260
H          3.17790       -1.05220       -0.50030
H          3.24930        0.75410       -0.57260
H          1.17150        1.82210        0.86750
H         -1.32210        1.78320        0.82370
H          1.17820       -1.98840       -0.93550
H         -3.34560       -0.72520       -0.94010
H         -3.31280        0.93710       -0.14160
H         -3.38520       -0.54710        0.85010
