17

C          2.54150       -0.94710       -0.05040
O          1.73770        0.19860       -0.25820
C          0.37900        0.13150       -0.08130
C         -0.31040       -0.99910        0.29740
C         -1.69130       -0.99990        0.45930
C         -2.40010        0.14780        0.23990
C         -1.74380        1.30220       -0.14130
C         -0.37680        1.27210       -0.29350
O          0.26930        2.43930       -0.67690
H          2.48570       -1.15590        1.05500
H          2.06170       -1.75430       -0.64570
H          3.58900       -0.75860       -0.36360
H          0.24470       -1.91040        0.47320
H         -2.21420       -1.89130        0.75530
H         -3.47860        0.18910        0.35570
H         -2.34480        2.19950       -0.30730
H          1.25150        2.53670       -0.81770
17

C         -2.12500        1.65940        0.23400
O         -1.49760        0.67760       -0.53330
C         -0.30370        0.06810       -0.20620
C          0.37780        0.39980        0.94550
C          1.57290       -0.20870        1.27510
C          2.09270       -1.17100        0.42780
C          1.41730       -1.51740       -0.73870
C          0.21840       -0.89220       -1.04830
O         -0.44470       -1.25840       -2.23030
H         -3.20240        1.68800       -0.05670
H         -2.08040        1.47290        1.31720
H         -1.68990        2.67760        0.05850
H          0.00690        1.15230        1.64380
H          2.13210        0.02040        2.15980
H          3.02960       -1.66150        0.66730
H          1.79960       -2.26190       -1.41420
H         -1.30360       -0.84520       -2.50120
17

C          2.64010       -0.78570       -0.25050
O          1.80570        0.34580       -0.42290
C          0.45880        0.17550       -0.13570
C         -0.07610       -1.01820        0.29730
C         -1.42740       -1.15020        0.57450
C         -2.30360       -0.08890        0.42940
C         -1.77270        1.10230       -0.00210
C         -0.43500        1.23910       -0.27820
O          0.10470        2.43960       -0.71390
H          3.70230       -0.55950       -0.43870
H          2.59770       -1.15700        0.81140
H          2.22840       -1.58370       -0.88890
H          0.59580       -1.86400        0.41790
H         -1.84380       -2.08650        0.91360
H         -3.36400       -0.21050        0.65190
H         -2.42790        1.94210       -0.12320
H         -0.48310        3.25990       -0.84190
17

C          2.63830       -0.46730        0.34260
O          1.64900        0.49240        0.11530
C          0.29610        0.21720        0.00990
C         -0.21280       -1.05990        0.12210
C         -1.55670       -1.34370        0.01870
C         -2.40130       -0.27470       -0.20770
C         -1.89900        1.01110       -0.32180
C         -0.54990        1.28290       -0.21630
O         -0.09050        2.59210       -0.33790
H          2.79260       -0.74130        1.38800
H          2.36190       -1.40960       -0.20370
H          3.62600       -0.12310       -0.07420
H          0.44860       -1.90540        0.30070
H         -1.95620       -2.35170        0.10760
H         -3.46920       -0.49250       -0.29090
H         -2.59370        1.82390       -0.49940
H          0.91670        2.74940       -0.25310
17

C          2.59640       -0.73030        0.00610
O          1.70900        0.34050       -0.11540
C          0.31330        0.18290       -0.02850
C         -0.26510       -1.04190        0.18250
C         -1.63070       -1.18430        0.26580
C         -2.42880       -0.05830        0.13200
C         -1.85210        1.18260       -0.08140
C         -0.48100        1.30050       -0.16120
O          0.11750        2.53470       -0.37450
H          3.59760       -0.36460       -0.34930
H          2.24960       -1.54070       -0.68300
H          2.71640       -1.09140        1.04880
H          0.37300       -1.90120        0.28330
H         -2.12220       -2.14630        0.43320
H         -3.50030       -0.18690        0.19980
H         -2.49950        2.03790       -0.18100
H          1.10680        2.66680       -0.43920
