12

C         -1.40910       -0.58040       -0.04910
C         -0.12000       -1.01250       -0.29490
C          0.89260       -0.09790       -0.11130
C          0.62730        1.19600        0.30130
N         -0.62900        1.61000        0.53880
C         -1.62620        0.72200        0.36180
C          2.25750       -0.53080       -0.36440
N          3.34260       -0.88410       -0.54890
H         -2.24050       -1.28490       -0.18610
H          0.10790       -2.00680       -0.61400
H          1.47110        1.86920        0.42700
H         -2.67410        1.00010        0.53980
