14

C          2.23190        0.33640       -0.02660
C          0.74570        0.22630       -0.00460
C          0.12620       -1.00420       -0.09220
C         -1.26220       -1.13870       -0.07420
C         -2.06080       -0.01770        0.03430
C         -1.41200        1.19770        0.12010
N         -0.06080        1.29760        0.10000
H          2.65490       -0.57340       -0.49330
H          2.64400        0.37310        1.02210
H          2.55720        1.27580       -0.52360
H          0.75300       -1.89200       -0.17810
H         -1.73570       -2.10370       -0.14310
H         -3.14100       -0.07020        0.05260
H         -2.04030        2.09290        0.20650
14

C         -2.23550       -0.16790        0.15440
C         -0.73940       -0.15270        0.04040
C         -0.02740        1.02310        0.06170
C          1.34640        1.03510       -0.04320
C          2.00390       -0.16140       -0.17130
C          1.30740       -1.32890       -0.19330
N         -0.03000       -1.28350       -0.08750
H         -2.59730       -1.13700        0.54120
H         -2.64820        0.10240       -0.82120
H         -2.54710        0.59550        0.92460
H         -0.59000        1.95950        0.16560
H          1.86980        1.96470       -0.02330
H          3.07120       -0.15480       -0.25300
H          1.81630       -2.29400       -0.29500
14

C          2.22790        0.35270        0.03920
C          0.74330        0.22270        0.00860
C          0.13680       -1.01750       -0.01620
C         -1.24340       -1.17180       -0.04470
C         -2.06120       -0.05390       -0.04880
C         -1.42730        1.17380       -0.02350
N         -0.07820        1.28990        0.00390
H          2.72720       -0.33440       -0.67370
H          2.48730        1.42080       -0.17080
H          2.58660        0.18560        1.09840
H          0.79230       -1.87730       -0.01210
H         -1.70790       -2.15010       -0.06400
H         -3.14440       -0.11800       -0.07030
H         -2.03900        2.07750       -0.02600
14

C          2.21710       -0.15800        0.00300
C          0.73200       -0.19980       -0.04820
C          0.04460        0.92960        0.32910
C         -1.31100        0.96430        0.30780
C         -2.02070       -0.14630       -0.09750
C         -1.31290       -1.26630       -0.47110
N          0.02670       -1.26360       -0.43710
H          2.66860       -1.13120       -0.25830
H          2.61490        0.58510       -0.71840
H          2.56080        0.19160        1.00850
H          0.57780        1.83550        0.65860
H         -1.82010        1.87040        0.61160
H         -3.09740       -0.05900       -0.09360
H         -1.88040       -2.15230       -0.79440
