22

C          1.27100        1.34440        0.08200
C          0.66290        0.11050       -0.05210
C          1.41660       -1.02460       -0.26990
C          2.78950       -0.92540       -0.35430
C          3.39420        0.32170       -0.21790
C          2.64370        1.46100        0.00020
Cl         3.46010        3.00230        0.16320
Cl         5.14870        0.38410       -0.33520
Cl         3.73960       -2.36890       -0.63060
Cl         0.68660       -2.63240       -0.44940
C         -0.76510       -0.02210        0.03160
C         -1.50150        0.09010       -1.12870
C         -2.87110       -0.03790       -1.04250
C         -3.49350       -0.27360        0.18060
C         -2.70720       -0.37980        1.32890
C         -1.33690       -0.25500        1.26370
Cl        -0.35230       -0.39210        2.73090
Cl        -3.49550       -0.67600        2.86310
Cl        -5.22370       -0.42800        0.24220
Cl        -0.74360        0.38980       -2.69990
H          0.71310        2.25970        0.25410
H         -3.43560        0.05230       -1.95990
22

C         -1.31410       -1.18220       -0.58860
C         -0.67510       -0.08250       -0.07660
C         -1.40130        0.99290        0.38790
C         -2.78030        1.00690        0.35720
C         -3.43900       -0.09200       -0.15500
C         -2.68870       -1.17900       -0.62410
Cl        -3.51040       -2.58640       -1.28000
Cl        -5.18950       -0.15750       -0.23120
Cl        -3.71340        2.36060        0.94160
Cl        -0.62340        2.44610        1.06290
C          0.75650       -0.01360       -0.00710
C          1.35730       -0.48940        1.14810
C          2.72940       -0.46220        1.30110
C          3.48430        0.05690        0.26070
C          2.87780        0.52770       -0.88440
C          1.52480        0.49860       -1.03030
Cl         0.67910        1.07480       -2.44780
Cl         3.84030        1.17680       -2.18160
Cl         5.23690        0.14210        0.34300
Cl         0.41190       -1.15170        2.47930
H         -0.76010       -2.05770       -0.96770
H          3.19700       -0.82920        2.19260
22

C          1.41670        0.98310       -0.62630
C          0.70300       -0.02740       -0.02330
C          1.42060       -1.11280        0.44480
C          2.81090       -1.15450        0.29800
C          3.46750       -0.12080       -0.30980
C          2.77790        0.96640       -0.78230
Cl         3.64310        2.28590       -1.56160
Cl         5.21770       -0.14010       -0.51130
Cl         3.74400       -2.52430        0.88520
Cl         0.60480       -2.43450        1.21910
C         -0.75280        0.06430        0.10590
C         -1.35580        0.63830        1.20350
C         -2.74600        0.72070        1.31650
C         -3.54860        0.22660        0.32650
C         -2.95450       -0.34590       -0.76830
C         -1.57060       -0.43180       -0.88840
Cl        -0.89910       -1.17920       -2.32050
Cl        -3.97640       -0.99030       -2.05900
Cl        -5.31410        0.29990        0.40880
Cl        -0.33660        1.26870        2.46530
H          0.87430        1.83770       -0.99760
H         -3.22610        1.16980        2.17480
