24

C         -3.98160        0.14710       -0.10460
C         -2.51420       -0.13650       -0.10580
C         -2.00590       -1.39940       -0.32280
C         -0.64030       -1.65640       -0.32230
C          0.26020       -0.63880       -0.10120
C          1.62410       -0.88030       -0.09790
C          2.49860        0.17040        0.12840
C          2.01630        1.43030        0.34570
C          0.64680        1.64870        0.33790
C         -0.24840        0.62490        0.11580
C         -1.60410        0.88240        0.11580
C          3.96870       -0.11330        0.12740
H         -4.50700       -0.81490       -0.32010
H         -4.18290        0.79630       -0.98430
H         -4.31250        0.58680        0.84200
H         -2.74110       -2.19460       -0.49660
H         -0.27780       -2.66960       -0.49810
H          2.03310       -1.86890       -0.26730
H          2.71580        2.23070        0.51920
H          0.23790        2.63560        0.50710
H         -2.01240        1.87880        0.28670
H          4.16200       -1.00430       -0.52690
H          4.54780        0.71700       -0.32860
H          4.31680       -0.37210        1.15060
24

C          3.89260        0.31610       -0.01570
C          2.45120       -0.02240       -0.12360
C          2.09130       -1.24190       -0.65150
C          0.75800       -1.54970       -0.74900
C         -0.17810       -0.62280       -0.31300
C         -1.51200       -0.92330       -0.40760
C         -2.43450       -0.01230        0.02090
C         -2.06200        1.19760        0.54430
C         -0.73000        1.53170        0.65360
C          0.19780        0.60020        0.21600
C          1.53030        0.89440        0.30760
C         -3.89800       -0.30470       -0.06630
H          4.21840        0.91100       -0.90950
H          4.01530        0.95960        0.87740
H          4.52340       -0.59400        0.06220
H          2.81320       -1.97430       -0.99560
H          0.39540       -2.50010       -1.15790
H         -1.84540       -1.88380       -0.82200
H         -2.80820        1.91570        0.88250
H         -0.44930        2.48700        1.06720
H          1.81380        1.84890        0.72080
H         -4.42790        0.62480       -0.39530
H         -4.24020       -0.51020        0.96830
H         -4.11530       -1.14740       -0.74920
24

C          3.92680       -0.08510        0.04070
C          2.43720       -0.17950        0.11610
C          1.92090       -1.16470        0.95710
C          0.56870       -1.31610        1.08180
C         -0.25290       -0.47530        0.35950
C         -1.60720       -0.60220        0.46320
C         -2.43250        0.23010       -0.25180
C         -1.96550        1.22210       -1.09880
C         -0.59490        1.34460       -1.19880
C          0.24260        0.51260       -0.48400
C          1.60920        0.65790       -0.60340
C         -3.90500        0.03200       -0.08730
H          4.23960       -0.68110       -0.82860
H          4.18570        0.97930       -0.15900
H          4.37930       -0.44020        1.00140
H          2.57780       -1.82000        1.51990
H          0.15300       -2.08330        1.73680
H         -1.99370       -1.38350        1.13040
H         -2.64950        1.85760       -1.64500
H         -0.14850        2.09390       -1.83830
H          2.08590        1.39670       -1.23370
H         -4.08980       -1.05340        0.01870
H         -4.22360        0.49340        0.88520
H         -4.46370        0.46420       -0.94240
24

C          3.89310        0.54980        0.16560
C          2.46530        0.32150       -0.17540
C          2.03440        0.14590       -1.47360
C          0.70190       -0.06390       -1.75660
C         -0.23120       -0.10220       -0.73850
C         -1.57250       -0.30860       -0.97120
C         -2.44090       -0.33380        0.09230
C         -2.02140       -0.15940        1.39380
C         -0.68180        0.04820        1.64160
C          0.19790        0.07330        0.56030
C          1.54870        0.28650        0.85320
C         -3.89960       -0.55410       -0.11430
H          4.40950       -0.37350        0.48840
H          4.01130        1.28550        0.99160
H          4.40200        1.02780       -0.72210
H          2.78200        0.17780       -2.27360
H          0.34890       -0.20310       -2.76620
H         -1.92070       -0.44560       -1.96500
H         -2.70510       -0.17950        2.22860
H         -0.32360        0.18810        2.65210
H          1.89240        0.42490        1.86920
H         -4.49410        0.07880        0.58550
H         -4.21120       -0.28270       -1.15930
H         -4.18550       -1.60180        0.09770
24

C          3.97020        0.06230        0.24960
C          2.49560        0.24410        0.16330
C          2.02150        1.51520       -0.10650
C          0.65350        1.67000       -0.18380
C         -0.24690        0.64090       -0.00880
C         -1.61330        0.80710       -0.08830
C         -2.50900       -0.22230        0.08690
C         -1.99750       -1.47730        0.35480
C         -0.64980       -1.68910        0.44280
C          0.23620       -0.63120        0.26150
C          1.60770       -0.81130        0.34400
C         -3.97970       -0.02740       -0.00180
H          4.39530        0.48390        1.18070
H          4.46930        0.47120       -0.64140
H          4.17120       -1.03770        0.27700
H          2.72730        2.32320       -0.24390
H          0.27630        2.66060       -0.39450
H         -2.00230        1.77770       -0.29530
H         -2.67890       -2.30630        0.49720
H         -0.27160       -2.67420        0.65230
H          2.01970       -1.80710        0.55680
H         -4.48560       -0.98840        0.08390
H         -4.32970        0.59470        0.86990
H         -4.27930        0.42150       -0.97150
