8

C          0.70150        0.14390        0.27790
C         -0.74820       -0.02500       -0.12190
F         -1.26910       -1.20180        0.38400
F         -1.48700        1.04500        0.32860
F         -0.87560       -0.04130       -1.51270
F          1.17240        1.32070       -0.24510
Br         1.73600       -1.30870       -0.47680
H          0.77010        0.06730        1.36610
8

C         -0.72780       -0.20800        0.10510
C          0.75160        0.04380       -0.07350
F          1.48000       -1.14120       -0.08370
F          1.16990        0.71980        1.07870
F          1.04680        0.74740       -1.19560
F         -1.21810       -0.98940       -0.91900
Br        -1.60790        1.52160        0.01340
H         -0.89450       -0.69400        1.07460
8

C          0.72360       -0.16560       -0.12140
C         -0.76800        0.05830       -0.01300
F         -1.19200        0.17410        1.27670
F         -1.12010        1.19250       -0.71290
F         -1.38970       -1.05950       -0.55570
F          1.11360       -1.30520        0.51770
Br         1.59760        1.32410        0.77670
H          1.03500       -0.21880       -1.16810
8

C          0.69220       -0.21320       -0.22310
C         -0.74630        0.14620        0.07810
F         -1.63910       -0.63010       -0.62260
F         -1.01160        1.46520       -0.21880
F         -0.96080       -0.13040        1.42740
F          0.90920       -1.52050        0.11440
Br         1.84580        0.98560        0.74330
H          0.91070       -0.10290       -1.29880
