27

C         -2.11570       -1.79070        1.28680
O         -0.88120       -1.46320        0.79090
C         -0.73860       -0.10290        0.50000
C          0.64130        0.08970       -0.01140
C          1.56210       -0.92580        0.17770
C          2.80350       -0.81320       -0.37210
C          3.21150        0.27070       -1.12200
C          2.26600        1.26850       -1.29370
C          1.00650        1.19200       -0.75710
O         -1.71860        0.18010       -0.46170
C         -1.59120       -0.55350       -1.61100
O         -0.91910        0.61520        1.65270
C         -0.82250        1.96720        1.58770
H         -2.94020       -1.55420        0.59780
H         -2.13510       -2.88990        1.43740
H         -2.33840       -1.34130        2.27350
H          1.27110       -1.80610        0.77040
H          3.50230       -1.63030       -0.20280
H          4.21170        0.33140       -1.54780
H          2.57190        2.14320       -1.89000
H          0.28220        1.97870       -0.93420
H         -0.63450       -0.37950       -2.10450
H         -1.69310       -1.66740       -1.44120
H         -2.46290       -0.31650       -2.27650
H         -1.04170        2.34720        2.64350
H          0.19890        2.37960        1.41520
H         -1.49620        2.47100        0.89250
27

C         -2.43190       -1.67090       -0.58350
O         -1.15240       -1.34940       -0.48430
C         -0.67160       -0.15390       -0.06930
C          0.84330       -0.23110       -0.18820
C          1.48640       -1.27850       -0.78300
C          2.88510       -1.38230       -0.73050
C          3.62880       -0.43350       -0.08080
C          2.98920        0.61920        0.51790
C          1.61470        0.69430        0.44990
O         -0.96040        0.23210        1.15210
C         -2.09560        0.46440        1.76220
O         -1.13930        0.75350       -1.06450
C         -0.78300        2.04710       -0.87120
H         -3.02300       -1.66810        0.32660
H         -2.47570       -2.76110       -0.93990
H         -2.97480       -1.14690       -1.42730
H          0.94300       -2.04740       -1.30010
H          3.38330       -2.21990       -1.20760
H          4.73010       -0.53340       -0.05010
H          3.57960        1.38170        1.03940
H          1.16500        1.55680        0.95630
H         -1.83310        0.87930        2.81480
H         -2.67140       -0.44550        2.06470
H         -2.75830        1.23230        1.34360
H         -1.13830        2.49050        0.09990
H         -1.39580        2.64820       -1.62140
H          0.25630        2.32230       -1.12570
27

C         -1.65870        1.83810       -1.18890
O         -1.65780        1.03100       -0.15670
C         -1.11610       -0.14560        0.02910
C          0.37490       -0.16070        0.21150
C          0.95800       -1.39640        0.32520
C          2.31650       -1.54080        0.47600
C          3.12290       -0.42270        0.51490
C          2.52500        0.81400        0.40270
C          1.16940        0.94270        0.25640
O         -1.41120       -1.23970       -0.73400
C         -1.19380       -1.28080       -2.05200
O         -1.56560       -0.58420        1.34020
C         -1.19100        0.25780        2.33290
H         -2.15400        1.43310       -2.08940
H         -0.68660        2.23810       -1.55620
H         -2.26060        2.78530       -0.97060
H          0.34380       -2.31080        0.29790
H          2.74560       -2.53530        0.56370
H          4.21180       -0.53190        0.63270
H          3.19020        1.69230        0.43630
H          0.72480        1.92510        0.27410
H         -1.49470       -2.34880       -2.36880
H         -1.84060       -0.67490       -2.71060
H         -0.12170       -1.23360       -2.36880
H         -0.10510        0.40150        2.47740
H         -1.53450       -0.20150        3.30690
H         -1.69100        1.24880        2.31800
27

C         -1.59840       -1.95600        0.22110
O         -1.61950       -0.62430        0.51550
C         -0.80900        0.20290       -0.19530
C          0.63890        0.03920        0.00320
C          1.25210       -0.67100        0.99730
C          2.61220       -0.83860        1.02940
C          3.44140       -0.29860        0.06900
C          2.81420        0.42080       -0.92530
C          1.45430        0.60340       -0.98540
O         -1.06610        0.15730       -1.57350
C         -2.37350        0.53300       -1.86190
O         -1.11510        1.51980        0.26440
C         -0.86480        1.60410        1.61870
H         -0.61430       -2.38990        0.35480
H         -2.38460       -2.47120        0.84950
H         -1.96840       -2.14920       -0.82840
H          0.61800       -1.02430        1.81530
H          3.01120       -1.42620        1.86050
H          4.50920       -0.45480        0.13140
H          3.48680        0.84930       -1.68470
H          1.05210        1.17350       -1.78810
H         -2.48220        0.46660       -2.96590
H         -3.13110       -0.06130       -1.33560
H         -2.45650        1.62050       -1.62140
H         -1.15050        2.66120        1.91240
H          0.22440        1.57060        1.88240
H         -1.48100        0.94310        2.24060
27

C         -1.44550       -1.64540       -1.19320
O         -1.59360       -0.76920       -0.17420
C         -0.79290        0.31360       -0.09090
C          0.65290        0.06940        0.11400
C          1.18180       -1.15350        0.48270
C          2.54120       -1.36720        0.56650
C          3.43520       -0.35420        0.28630
C          2.94090        0.87410       -0.07840
C          1.59840        1.05790       -0.15550
O         -0.93780        1.09620       -1.23730
C         -2.22120        1.55250       -1.42880
O         -1.27510        1.09300        1.00230
C         -1.23560        0.38810        2.18260
H         -0.50150       -2.15690       -1.32500
H         -1.69390       -1.15610       -2.16610
H         -2.21540       -2.46240       -1.04870
H          0.53650       -1.96200        0.78420
H          2.91670       -2.35840        0.86040
H          4.51500       -0.48360        0.34100
H          3.66070        1.67710       -0.29840
H          1.22510        2.03050       -0.44360
H         -2.20930        2.15720       -2.36670
H         -2.55980        2.25210       -0.63670
H         -2.97600        0.76650       -1.55580
H         -0.18500        0.09830        2.39310
H         -1.80530       -0.56330        2.14760
H         -1.55650        1.00580        3.03880
