23

C          2.30340        0.32180        0.80330
C          1.69380       -0.74090       -0.04010
C          0.47950       -0.38790       -0.80770
C         -0.72590        0.04800       -0.07380
C         -0.61970        1.26330        0.76470
C         -1.31310       -1.05850        0.80510
C         -1.81240        0.27410       -1.14420
H          3.41750        0.28230        0.73430
H          2.03420        1.35120        0.59730
H          2.00880        0.10020        1.87170
H          1.59640       -1.68540        0.54630
H          2.47020       -1.01760       -0.82180
H          0.75280        0.46070       -1.50600
H          0.16020       -1.19620       -1.51820
H         -1.64230        1.67410        1.03080
H         -0.08980        1.19400        1.70070
H         -0.17820        2.10370        0.15670
H         -0.75940       -1.14280        1.74790
H         -1.40740       -2.00310        0.24200
H         -2.34940       -0.72910        1.04060
H         -1.36090        0.94280       -1.89840
H         -2.67770        0.68310       -0.62410
H         -1.98040       -0.73790       -1.58500
23

C          2.85050        0.11740       -0.37370
C          1.48620       -0.22320        0.13970
C          0.38520        0.52470       -0.61430
C         -0.92330        0.06990        0.02460
C         -1.00830       -1.43100       -0.16130
C         -2.11730        0.67380       -0.67540
C         -0.88290        0.46790        1.47310
H          3.31310       -0.82520       -0.74340
H          3.52900        0.47230        0.45280
H          2.84880        0.84030       -1.21160
H          1.44220        0.01600        1.22140
H          1.25890       -1.31420        0.05430
H          0.39990        0.24730       -1.68650
H          0.51310        1.60800       -0.55110
H         -0.52290       -1.74860       -1.09290
H         -2.07440       -1.73500       -0.18230
H         -0.56920       -1.89040        0.75250
H         -2.42290        0.01290       -1.49740
H         -2.96190        0.63630        0.07300
H         -1.98570        1.72310       -0.94610
H         -0.11360        1.26590        1.66300
H         -1.84140        0.90550        1.81750
H         -0.60310       -0.41390        2.06400
23

C          2.87180       -0.22980       -0.47810
C          1.47280       -0.71030       -0.15800
C          0.57360        0.49260       -0.14400
C         -0.86650        0.15070        0.16650
C         -1.61750        1.47000        0.13820
C         -1.02270       -0.40690        1.56600
C         -1.46390       -0.80420       -0.82650
H          2.94770        0.88900       -0.39990
H          3.15440       -0.45360       -1.54110
H          3.60880       -0.66720        0.22320
H          1.42040       -1.32240        0.73690
H          1.14480       -1.34970       -1.02760
H          0.89690        1.22530        0.62420
H          0.57010        1.00530       -1.12720
H         -2.11810        1.52900       -0.84960
H         -0.94060        2.34520        0.21390
H         -2.32890        1.55640        0.98230
H         -0.56910       -1.39680        1.68810
H         -0.59780        0.31960        2.26810
H         -2.12310       -0.51520        1.73670
H         -1.87670       -1.70720       -0.30880
H         -0.78670       -1.09990       -1.63560
H         -2.34950       -0.32010       -1.32880
23

C          2.33730        0.55930        0.22540
C          1.58940        0.09410       -0.98440
C          0.39750       -0.73000       -0.71360
C         -0.70480       -0.14360        0.07340
C         -1.78540       -1.24450        0.16420
C         -1.38070        1.02090       -0.61110
C         -0.41790        0.25210        1.47890
H          3.44230        0.58360        0.05170
H          2.05780        1.61450        0.43580
H          2.20240       -0.03900        1.13050
H          1.30880        0.93460       -1.65150
H          2.31800       -0.55170       -1.56100
H          0.76020       -1.69340       -0.24440
H         -0.02160       -1.05580       -1.70370
H         -1.46390       -1.90220        0.98090
H         -1.81660       -1.75980       -0.82740
H         -2.76850       -0.80050        0.33500
H         -1.64630        0.67510       -1.64470
H         -0.77860        1.93280       -0.59990
H         -2.31850        1.22130       -0.02920
H          0.04490        1.22630        1.63250
H         -1.43570        0.34380        1.97530
H          0.07990       -0.53800        2.08720
23

C          2.91020       -0.23170       -0.15040
C          1.55640        0.01110        0.48520
C          0.49860       -0.16810       -0.57990
C         -0.88950        0.04840       -0.06600
C         -1.07660        1.43950        0.48710
C         -1.27790       -0.92900        1.01350
C         -1.84730       -0.15450       -1.22280
H          3.42750        0.74160       -0.19030
H          3.50740       -0.98530        0.40390
H          2.79740       -0.63130       -1.18020
H          1.43660       -0.76420        1.26980
H          1.46680        1.03200        0.90760
H          0.59330       -1.17420       -0.99550
H          0.66450        0.54920       -1.41000
H         -0.77440        1.44110        1.55420
H         -2.15020        1.72260        0.38520
H         -0.44900        2.16770       -0.07230
H         -2.29000       -0.59860        1.38420
H         -1.41980       -1.93800        0.61000
H         -0.61640       -0.88990        1.89940
H         -2.82100        0.29760       -1.03260
H         -1.91060       -1.27130       -1.37730
H         -1.33590        0.28530       -2.12280
