16

C         -0.20540       -0.66930        1.01420
C          0.99930       -0.82270        0.08590
C          1.24080        0.36300       -0.75750
O          0.21580        1.16870       -1.06580
C         -0.88540        1.19250       -0.28680
C         -1.32000       -0.21120        0.05820
H         -0.45530       -1.60750        1.49490
H         -0.06040        0.13770        1.74150
H          1.84630       -1.10170        0.74120
H          0.73760       -1.69520       -0.58230
H          1.70310       -0.00340       -1.72420
H          2.07770        0.95780       -0.28440
H         -0.65030        1.71560        0.68400
H         -1.70570        1.72390       -0.78860
H         -2.30350       -0.27330        0.51620
H         -1.23470       -0.87500       -0.84650
16

C          0.27020       -1.02010        0.65490
C         -0.90380       -0.95070       -0.32750
C         -1.38790        0.48510       -0.30340
O         -0.39970        1.23990       -0.96180
C          0.74180        1.27760       -0.14200
C          1.33370       -0.08950        0.06770
H         -0.10680       -0.61440        1.62100
H          0.64880       -2.04140        0.75050
H         -0.45080       -1.12100       -1.33880
H         -1.67820       -1.68160       -0.10030
H         -2.37670        0.62330       -0.74060
H         -1.38910        0.87200        0.75050
H          0.45680        1.67750        0.83720
H          1.48490        1.88720       -0.68870
H          1.63300       -0.53430       -0.89140
H          2.12380       -0.00950        0.81270
16

C          0.48730       -1.15160       -0.01300
C          1.32090        0.07320        0.12440
C          0.67810        1.33230       -0.34060
O         -0.58900        1.13220       -0.87190
C         -1.43550        0.46600       -0.00620
C         -0.97100       -0.95430        0.19510
H          0.67770       -1.66200       -0.99240
H          0.84040       -1.87940        0.77540
H          1.69860        0.22730        1.16020
H          2.24680       -0.08190       -0.49620
H          1.27010        1.83910       -1.15930
H          0.57010        2.09580        0.47910
H         -2.44950        0.47450       -0.48490
H         -1.50100        1.00740        0.97150
H         -1.53870       -1.58730       -0.54020
H         -1.30530       -1.33150        1.19910
16

C          0.09050        1.24970       -0.03600
C         -1.23500        0.57710        0.03250
C         -1.17370       -0.91550       -0.10950
O         -0.15240       -1.51970        0.54960
C          1.08950       -1.01550        0.39730
C          1.22840        0.29860       -0.25180
H          0.08370        1.94890       -0.91490
H          0.27600        1.88450        0.85460
H         -1.73020        0.82110        1.00780
H         -1.94970        0.94730       -0.74600
H         -1.26160       -1.20240       -1.19400
H         -2.13310       -1.30580        0.34540
H          1.71150       -1.76480       -0.17590
H          1.58480       -0.99240        1.41360
H          1.42470        0.18460       -1.34550
H          2.14670        0.80420        0.17270
16

C         -0.35680        1.12840        0.27940
C          1.02250        0.76550       -0.11230
C          1.34280       -0.67800       -0.13530
O          0.30980       -1.53180       -0.36310
C         -0.87880       -1.22860        0.22820
C         -1.34660        0.12780       -0.31310
H         -0.62450        2.14250       -0.10480
H         -0.50010        1.12720        1.38820
H          1.72970        1.29140        0.58400
H          1.22950        1.23120       -1.11560
H          1.92730       -0.94460        0.79420
H          2.09160       -0.84670       -0.96680
H         -1.61940       -2.00090       -0.04570
H         -0.74260       -1.10390        1.31550
H         -1.20140        0.18250       -1.41580
H         -2.38300        0.33790       -0.01690
