31

C         -2.94890        1.64100       -0.54380
C         -2.22580        0.61540        0.29830
C         -2.60270       -0.80190       -0.11600
C         -1.31620       -1.50010        0.07210
C         -0.98970       -2.85720        0.13220
C          0.32100       -3.25200        0.33170
C          1.32300       -2.32560        0.47400
C          1.01850       -0.98620        0.41700
C         -0.31590       -0.59690        0.21380
O         -0.82190        0.67720        0.12530
O          1.99710       -0.00870        0.55520
C          2.70590        0.51910       -0.51070
O          2.44790        0.09010       -1.65610
N          3.69990        1.52230       -0.30390
C          4.43500        2.06830       -1.41820
C         -2.49490        0.85040        1.77070
H         -3.35340        1.15380       -1.45800
H         -3.80670        2.01060        0.03790
H         -2.26180        2.44320       -0.88470
H         -3.32540       -1.23030        0.61320
H         -2.97900       -0.84000       -1.15630
H         -1.72480       -3.64280        0.02860
H          0.56570       -4.32290        0.37730
H          2.34590       -2.62200        0.62990
H          3.90790        1.87230        0.64630
H          3.80720        2.20760       -2.32690
H          4.87030        3.06930       -1.13560
H          5.27660        1.37750       -1.63570
H         -2.40800        1.96560        1.91600
H         -1.66130        0.40180        2.37130
H         -3.48540        0.50090        2.08560
31

C         -2.16380        2.13400        1.18910
C         -2.09900        0.92600        0.31230
C         -2.50910       -0.34400        1.03940
C         -1.40360       -1.26430        0.65360
C         -1.28130       -2.64590        0.85950
C         -0.14800       -3.31370        0.41070
C          0.83740       -2.59550       -0.23160
C          0.75900       -1.24260       -0.45430
C         -0.39140       -0.59750        0.00750
O         -0.75360        0.72700       -0.06480
O          1.70930       -0.49120       -1.08520
C          2.76910        0.13690       -0.44730
O          2.81670       -0.02540        0.79910
N          3.73760        0.91090       -1.14260
C          4.79500        1.51440       -0.35890
C         -3.01050        1.03740       -0.89990
H         -2.94840        2.07560        1.97180
H         -1.18340        2.30160        1.66990
H         -2.38920        3.01590        0.52570
H         -2.48080       -0.15850        2.11770
H         -3.48940       -0.71510        0.69860
H         -2.05580       -3.19620        1.36170
H         -0.00480       -4.36490        0.54170
H          1.69620       -3.12960       -0.56620
H          3.68590        1.03590       -2.16960
H          4.67970        2.61730       -0.26900
H          5.74410        1.32770       -0.94040
H          4.93990        1.02240        0.60870
H         -2.49720        1.47410       -1.75940
H         -3.52130        0.07550       -1.12250
H         -3.83920        1.75160       -0.62000
31

C         -2.62100       -0.99790        1.94040
C         -2.21710       -0.12270        0.77290
C         -2.52890       -0.86370       -0.50540
C         -1.34910       -0.47400       -1.35470
C         -1.12100       -0.60130       -2.71070
C          0.05120       -0.17070       -3.29890
C          1.00140        0.40010       -2.47180
C          0.80930        0.54400       -1.11390
C         -0.37900        0.09800       -0.57290
O         -0.82330        0.12310        0.75750
O          1.80690        1.12800       -0.33490
C          2.81300        0.38450        0.25710
O          2.79650       -0.85380        0.06570
N          3.83980        0.93990        1.05220
C          4.83940        0.06280        1.62030
C         -2.93110        1.18150        0.88520
H         -3.17450       -0.41720        2.71580
H         -3.34330       -1.77630        1.58870
H         -1.72720       -1.49760        2.31740
H         -3.45720       -0.55140       -0.98520
H         -2.48070       -1.95400       -0.40090
H         -1.87340       -1.05000       -3.34620
H          0.19580       -0.28700       -4.36840
H          1.92720        0.74490       -2.90910
H          3.91540        1.96040        1.25310
H          5.23870       -0.54640        0.75910
H          4.42010       -0.65060        2.34800
H          5.70260        0.63890        2.03160
H         -2.30220        1.85360        1.52770
H         -3.09830        1.68390       -0.08320
H         -3.92990        1.07090        1.35970
31

C         -2.93460       -1.28990        1.57440
C         -2.07770       -0.75640        0.46690
C         -2.70770        0.46230       -0.16970
C         -1.51780        1.26360       -0.54010
C         -1.30640        2.32960       -1.41690
C         -0.08410        2.94450       -1.57470
C          0.99380        2.49850       -0.83900
C          0.80840        1.44690        0.03210
C         -0.44080        0.82790        0.18390
O         -0.84520       -0.24260        0.99570
O          1.86000        0.96230        0.79350
C          2.63850       -0.05170        0.26660
O          2.36580       -0.48950       -0.86900
N          3.74110       -0.62010        0.96450
C          4.55170       -1.66990        0.42560
C         -1.81800       -1.76230       -0.62090
H         -3.76030       -0.57490        1.85060
H         -2.31400       -1.35530        2.51310
H         -3.31190       -2.31260        1.39720
H         -3.32050        0.22050       -1.05530
H         -3.31540        0.99100        0.61730
H         -2.19940        2.63700       -1.97150
H          0.02120        3.76840       -2.27060
H          1.98420        2.96100       -0.93440
H          3.97360       -0.24990        1.92770
H          5.48980       -1.33070       -0.03890
H          3.95380       -2.28840       -0.27250
H          4.84370       -2.35920        1.26490
H         -2.72760       -1.87240       -1.24510
H         -1.01270       -1.35100       -1.27630
H         -1.53140       -2.73640       -0.17880
31

C         -2.19330        1.87380        1.63410
C         -2.09100        0.87930        0.52420
C         -2.46860       -0.52360        0.94660
C         -1.41340       -1.34120        0.29600
C         -1.30130       -2.70670        0.11580
C         -0.20340       -3.20450       -0.53050
C          0.79930       -2.36550       -1.00860
C          0.69820       -1.00720       -0.83500
C         -0.40450       -0.50570       -0.18570
O         -0.73310        0.80560        0.10870
O          1.67750       -0.14460       -1.29810
C          2.74520        0.20240       -0.49330
O          2.79060       -0.28950        0.65890
N          3.72170        1.08980       -1.01520
C          4.83810        1.44610       -0.15940
C         -2.97240        1.23160       -0.66070
H         -3.16870        2.41260        1.52940
H         -1.40530        2.66040        1.55030
H         -2.08360        1.41470        2.64900
H         -3.47440       -0.81150        0.57110
H         -2.35590       -0.61700        2.02740
H         -2.04930       -3.38800        0.46760
H         -0.10870       -4.26980       -0.67510
H          1.66780       -2.76610       -1.52040
H          3.67200        1.48450       -1.95920
H          5.59330        0.63930       -0.28320
H          4.46360        1.47560        0.87420
H          5.26960        2.43630       -0.44350
H         -2.54540        0.71620       -1.54320
H         -2.96920        2.33100       -0.81290
H         -3.99540        0.84180       -0.52960
