17

C          0.58860       -1.85690       -0.96640
O          1.37030       -0.90090       -0.35870
C          0.60250        0.12120        0.18230
O          0.73620        0.16130        1.55700
C         -0.47050       -0.10310        2.20120
O          0.84720        1.34920       -0.42130
C         -0.25650        1.87020       -1.06740
H          1.18320       -2.67290       -1.39960
H         -0.11070       -2.26370       -0.20420
H          0.01530       -1.32670       -1.78190
H         -0.46020       -0.11760       -0.02820
H         -0.36180       -0.07080        3.29210
H         -1.19180        0.72200        1.94240
H         -0.88520       -1.10220        1.89910
H          0.05190        2.84070       -1.50740
H         -1.01530        2.10750       -0.29770
H         -0.64300        1.24280       -1.88290
17

C         -2.15830       -0.16620       -0.30210
O         -1.34250       -0.10720        0.81380
C         -0.02920       -0.04880        0.41740
O          0.74030       -1.10730        0.86650
C          1.29950       -1.83270       -0.19340
O          0.47710        1.18650        0.80960
C          0.85560        1.97880       -0.25560
H         -3.23890       -0.21530       -0.03990
H         -2.06310        0.76610       -0.93190
H         -1.89570       -1.00600       -0.97030
H          0.00910       -0.06540       -0.68840
H          1.90790       -2.67070        0.20280
H          2.01100       -1.14670       -0.69930
H          0.52340       -2.17430       -0.90780
H          1.65260        1.50550       -0.88130
H         -0.05300        2.20180       -0.87800
H          1.30420        2.90210        0.16750
17

C          2.21310        0.36840       -0.15380
O          1.36400        0.31140        0.94600
C          0.05250        0.09350        0.53760
O         -0.39450       -1.09710        1.14840
C         -0.77340       -2.03770        0.20290
O         -0.81030        1.09000        0.97030
C         -1.42560        1.63430       -0.15020
H          3.24900        0.54190        0.19120
H          2.10730       -0.57710       -0.73590
H          1.84110        1.17700       -0.81490
H          0.00470        0.02000       -0.54220
H         -1.10930       -2.93670        0.75760
H         -1.61460       -1.66610       -0.38240
H          0.04370       -2.27610       -0.51850
H         -0.62280        2.05690       -0.81660
H         -1.98520        0.85870       -0.72670
H         -2.13980        2.43870        0.08730
17

C          2.01970       -0.96000       -0.23250
O          1.25440       -0.65260        0.88490
C          0.03460       -0.08230        0.56620
O         -0.01090        1.22510        1.05050
C         -0.11850        2.16210        0.01140
O         -1.04170       -0.77360        1.09370
C         -1.92200       -1.19550        0.07380
H          2.96560       -1.40570        0.10580
H          1.50110       -1.56890       -0.97070
H          2.28990        0.01780       -0.71900
H         -0.02940       -0.01050       -0.54590
H         -1.05060        1.95250       -0.54730
H          0.75960        2.12690       -0.64520
H         -0.21250        3.15510        0.49200
H         -2.76010       -1.73830        0.52920
H         -2.27600       -0.35050       -0.53220
H         -1.40320       -1.90160       -0.61480
17

C         -2.00780       -0.22470       -0.84690
O         -1.14790       -1.15770       -0.28780
C          0.03620       -0.58750        0.17010
O          0.24800       -0.75480        1.51240
C          0.31070        0.49110        2.17030
O          1.06250       -1.08840       -0.62190
C          1.65840       -0.10290       -1.40270
H         -2.31170        0.56660       -0.14930
H         -2.93180       -0.77180       -1.13190
H         -1.60960        0.22580       -1.78190
H         -0.03040        0.49940       -0.04380
H          1.16000        1.07120        1.72370
H          0.54280        0.35720        3.24670
H         -0.58820        1.08800        2.03890
H          2.45770       -0.60850       -1.99040
H          0.96490        0.37420       -2.10430
H          2.18620        0.62290       -0.73820
