18

C          1.81760       -0.02700        0.53730
C          0.93600       -0.31560       -0.63580
C         -0.51100       -0.00630       -0.39490
C         -0.75050        1.44480       -0.06110
C         -1.10520       -0.83700        0.71720
O         -1.21900       -0.28970       -1.55890
H          2.20410       -0.95920        1.03130
H          2.72480        0.57000        0.27700
H          1.31040        0.53820        1.34830
H          1.25070        0.22210       -1.55030
H          1.00730       -1.40540       -0.84940
H         -0.58860        1.68980        0.99570
H         -0.16980        2.05550       -0.76720
H         -1.83010        1.69660       -0.26880
H         -0.90160       -0.37090        1.71140
H         -2.20480       -0.87520        0.53130
H         -0.74980       -1.87560        0.69520
H         -1.22040       -1.25520       -1.75840
18

C          2.06410        0.18310        0.24170
C          0.90110       -0.44600       -0.42280
C         -0.42120        0.20650       -0.16030
C         -1.44000       -0.61970       -0.94720
C         -0.82960        0.20390        1.26880
O         -0.37550        1.49260       -0.71820
H          2.82870       -0.62820        0.42900
H          1.86690        0.62640        1.22970
H          2.60770        0.93380       -0.37910
H          1.07150       -0.38280       -1.53710
H          0.79940       -1.52680       -0.13010
H         -0.99680       -1.02570       -1.88190
H         -2.36700       -0.08050       -1.12300
H         -1.67630       -1.52290       -0.32000
H         -1.59300        0.98730        1.46330
H         -1.24640       -0.79940        1.51210
H         -0.01200        0.38090        1.98520
H         -1.18140        2.01740       -0.51000
18

C          1.79010        0.03770        0.53780
C          0.93460        0.03250       -0.69900
C         -0.55900        0.05480       -0.35460
C         -0.90670        1.27980        0.43100
C         -0.95820       -1.21910        0.35710
O         -1.22940        0.09790       -1.57690
H          2.17190       -1.01760        0.65900
H          2.61760        0.75490        0.36190
H          1.21370        0.36100        1.42850
H          1.10780        0.94570       -1.32760
H          1.12840       -0.83580       -1.36060
H         -0.06250        1.91450        0.69580
H         -1.37180        0.94860        1.39950
H         -1.72230        1.87310       -0.07150
H         -1.67910       -0.90340        1.16610
H         -1.52320       -1.91590       -0.29400
H         -0.08580       -1.75750        0.76770
H         -0.86600       -0.65120       -2.12010
18

C          2.04150       -0.05160        0.44060
C          0.80790       -0.74620       -0.04950
C         -0.44290        0.06610        0.11780
C         -0.43120        1.36450       -0.60280
C         -1.60370       -0.80380       -0.37520
O         -0.62890        0.24300        1.49630
H          2.49350        0.49460       -0.40880
H          1.86580        0.58280        1.32160
H          2.77270       -0.84730        0.73210
H          0.69260       -1.69290        0.51710
H          0.97820       -1.05150       -1.10980
H         -1.15420        1.33310       -1.44970
H          0.55450        1.71660       -0.92700
H         -0.84750        2.15120        0.09250
H         -2.49050       -0.15070       -0.50640
H         -1.77290       -1.62320        0.35780
H         -1.25310       -1.21360       -1.36480
H         -1.58190        0.22890        1.71820
18

C          1.84420       -0.01560        0.48790
C          0.94410       -0.19840       -0.70060
C         -0.50650        0.04010       -0.37990
C         -0.77990        1.42060        0.12370
C         -1.05990       -0.97540        0.58690
O         -1.21270       -0.11330       -1.59260
H          1.98920        1.05930        0.74170
H          2.85050       -0.41450        0.21190
H          1.50780       -0.55670        1.37240
H          1.25970        0.42510       -1.53140
H          1.03900       -1.26550       -1.01730
H         -0.90550        1.41460        1.23240
H          0.00680        2.14910       -0.15300
H         -1.74250        1.79030       -0.28530
H         -1.32780       -0.50100        1.55810
H         -0.35170       -1.79300        0.79500
H         -2.00960       -1.42460        0.20700
H         -1.54510       -1.04110       -1.65680
