22

C         -2.98700       -0.65570       -1.27460
C         -2.07780        0.06690       -2.02010
C         -0.95860        0.65160       -1.42020
C         -0.73180        0.52230       -0.06480
C         -1.65540       -0.20470        0.65760
C         -2.76670       -0.78860        0.07860
C          0.46660        1.15450        0.54600
N          1.61420        0.30110        0.55960
C          2.54410        0.20660       -0.40060
C          3.49870       -0.71770       -0.04100
N          3.12170       -1.17800        1.15940
C          1.97410       -0.55490        1.52090
H         -3.86750       -1.12120       -1.71960
H         -2.24880        0.17320       -3.08640
H         -0.26710        1.21520       -2.05790
H         -1.47160       -0.30230        1.71880
H         -3.49590       -1.36410        0.65750
H          0.74310        2.08450       -0.02680
H          0.17460        1.51110        1.55470
H          2.58510        0.75580       -1.34290
H          4.38750       -1.04350       -0.57540
H          1.41870       -0.71220        2.44240
22

C          3.01980        1.04630       -0.50910
C          2.53420        0.90570        0.77490
C          1.41920        0.13580        1.03710
C          0.74280       -0.52510        0.03080
C          1.23410       -0.38080       -1.25630
C          2.34780        0.38800       -1.51930
C         -0.46330       -1.36020        0.30200
N         -1.67700       -0.55400        0.21360
C         -2.29830        0.13260        1.18530
C         -3.41030        0.75040        0.65490
N         -3.40360        0.39270       -0.65720
C         -2.36310       -0.39240       -0.92940
H          3.90260        1.65880       -0.69880
H          3.07520        1.43140        1.56350
H          1.06020        0.04450        2.06140
H          0.68480       -0.91020       -2.02890
H          2.69750        0.47540       -2.52830
H         -0.45960       -2.16970       -0.45540
H         -0.38550       -1.83520        1.29750
H         -1.99260        0.20200        2.22050
H         -4.14500        1.38240        1.13580
H         -2.12020       -0.81840       -1.89470
22

C         -3.11130        0.72130        0.19870
C         -2.68190       -0.13160       -0.79700
C         -1.46720       -0.76370       -0.72650
C         -0.62110       -0.57240        0.34650
C         -1.02290        0.27400        1.35630
C         -2.24330        0.89790        1.26750
C          0.68910       -1.25840        0.41580
N          1.69970       -0.40220       -0.22370
C          2.43190        0.52820        0.39940
C          3.27130        1.12720       -0.52390
N          2.99450        0.51120       -1.68490
C          2.04480       -0.41720       -1.51820
H         -4.07010        1.22040        0.14330
H         -3.31460       -0.31910       -1.67150
H         -1.13880       -1.43770       -1.52300
H         -0.40610        0.46590        2.22350
H         -2.60610        1.57860        2.04400
H          0.60550       -2.23360       -0.06760
H          0.97900       -1.39850        1.47360
H          2.35710        0.75460        1.46140
H          3.97570        1.91550       -0.29860
H          1.63500       -1.06030       -2.29530
