26

C         -2.73910       -2.33090        0.31340
O         -3.24200       -1.03910        0.18640
P         -2.14500        0.13750        0.67890
S         -2.82330        1.09210        1.92530
O         -1.71920        1.05980       -0.67560
C         -2.53970        2.14910       -0.83710
O         -0.71830       -0.63880        1.26830
C          0.51590       -0.39680        0.73050
C          0.99380       -1.15110       -0.31520
C          2.24900       -0.89030       -0.84760
C          3.06370        0.12950       -0.35300
C          2.55740        0.86790        0.69480
C          1.30440        0.61190        1.23060
N          4.34680        0.38290       -0.91030
O          4.82440       -0.26290       -1.84870
O          5.07990        1.40500       -0.36230
H         -3.50830       -2.90490        0.88720
H         -2.58700       -2.77110       -0.71300
H         -1.74760       -2.34900        0.81190
H         -3.10210        2.34900        0.09230
H         -1.92510        3.04410       -1.06840
H         -3.26500        2.04430       -1.66090
H          0.38190       -1.94880       -0.71800
H          2.64010       -1.46440       -1.66060
H          3.17880        1.67440        1.10040
H          0.92550        1.20060        2.05040
26

C         -2.86630        2.39080        0.45220
O         -3.31150        1.35460       -0.36510
P         -2.06490        0.29340       -0.77150
S         -1.12680        0.92030       -2.09520
O         -2.78340       -1.18360       -1.19340
C         -2.78090       -2.08860       -0.15390
O         -1.00540        0.03470        0.55000
C          0.36480       -0.08720        0.41290
C          1.16820        1.02570        0.47960
C          2.53500        0.95470        0.34910
C          3.16020       -0.26830        0.14150
C          2.35360       -1.37390        0.07600
C          0.98160       -1.31630        0.20520
N          4.56240       -0.30440        0.01240
O          5.11720       -1.40110       -0.17300
O          5.33090        0.82270        0.08400
H         -1.97350        2.90520        0.05450
H         -3.70330        3.12650        0.52110
H         -2.64090        1.99350        1.46750
H         -2.54730       -1.64870        0.82620
H         -2.00790       -2.87270       -0.39740
H         -3.77920       -2.58280       -0.04600
H          0.70800        1.99030        0.64050
H          3.12970        1.84970        0.40730
H          2.80670       -2.34290       -0.08480
H          0.37260       -2.19160        0.15070
26

C         -2.69420       -2.73060        0.49840
O         -1.84330       -2.05460       -0.34610
P         -1.87810       -0.39230       -0.15520
S         -1.47410        0.08690        1.46080
O         -3.36600        0.28550       -0.56580
C         -3.32510        1.62930       -0.15330
O         -0.67530        0.27640       -1.18630
C          0.62780        0.32540       -0.71450
C          1.49380       -0.72060       -0.93040
C          2.76980       -0.61230       -0.43870
C          3.20980        0.49420        0.25570
C          2.31580        1.51800        0.45100
C          1.00860        1.45690       -0.02810
N          4.54130        0.56190        0.74660
O          4.95610        1.55280        1.37560
O          5.41620       -0.47240        0.53960
H         -2.10980       -3.52490        1.01230
H         -3.16960       -2.09720        1.26370
H         -3.45000       -3.24700       -0.12760
H         -3.76570        2.30170       -0.91530
H         -2.28280        1.96150        0.04480
H         -3.88290        1.72110        0.80500
H          1.14600       -1.59040       -1.47690
H          3.47280       -1.41860       -0.59300
H          2.61220        2.39890        0.98540
H          0.34670        2.29030        0.15350
26

C         -3.04450       -2.24100        0.14240
O         -1.77800       -1.64980        0.25380
P         -1.85400       -0.11350       -0.49500
S         -1.69560       -0.25470       -2.20940
O         -3.40580        0.48380       -0.18620
C         -3.41010        1.85680       -0.44860
O         -0.66460        0.91490        0.16920
C          0.67890        0.57410        0.15490
C          1.60370        1.44590        0.70840
C          2.95310        1.17310        0.72930
C          3.42860       -0.00690        0.18460
C          2.48600       -0.87100       -0.36720
C          1.13660       -0.60230       -0.39020
N          4.81300       -0.32410        0.18710
O          5.60200        0.48490        0.69250
O          5.29550       -1.48110       -0.34500
H         -3.09400       -3.05090        0.88990
H         -3.13970       -2.64050       -0.89890
H         -3.85910       -1.50040        0.27820
H         -2.60140        2.06740       -1.20630
H         -4.37560        2.15580       -0.85260
H         -3.23100        2.40840        0.48600
H          1.22670        2.37850        1.13890
H          3.66690        1.87990        1.17380
H          2.85590       -1.80720       -0.80020
H          0.40640       -1.28030       -0.82290
26

C         -4.01650        1.04130       -0.71630
O         -2.71290        1.27100       -1.07830
P         -1.72560       -0.09060       -0.91480
S         -0.78910       -0.20090       -2.38350
O         -2.73950       -1.43880       -0.79630
C         -2.82510       -1.78320        0.54980
O         -0.67040        0.03760        0.42360
C          0.69770        0.15420        0.29650
C          1.50350       -0.98370        0.26330
C          2.85830       -0.87420        0.13760
C          3.50220        0.34650        0.03750
C          2.71720        1.46640        0.06940
C          1.35220        1.35940        0.19590
N          4.90670        0.36700       -0.08980
O          5.57540       -0.68180       -0.11360
O          5.57150        1.56230       -0.19100
H         -4.41170        0.06050       -0.98210
H         -4.14420        1.25290        0.36320
H         -4.64350        1.80490       -1.25540
H         -1.87790       -2.33270        0.79810
H         -3.70760       -2.44220        0.72710
H         -2.91060       -0.86660        1.13990
H          1.05820       -1.95190        0.33680
H          3.46010       -1.76850        0.11430
H          3.20480        2.42820       -0.00770
H          0.76680        2.26300        0.21740
