8

C         -0.77210        0.00360       -0.03560
C          0.72590       -0.04160        0.06670
F          1.24220       -0.95800       -0.83620
F          1.31590        1.18500       -0.15720
H         -1.09400        1.07220       -0.16820
H         -1.24290       -0.30640        0.93510
H         -1.17930       -0.55260       -0.89630
H          1.00430       -0.40220        1.09170
8

C          0.77180       -0.04440       -0.02900
C         -0.75310        0.02670       -0.03770
F         -1.16660       -0.14330        1.26240
F         -1.11640        1.23290       -0.55940
H          1.17100       -0.28150       -1.04340
H          1.01440       -0.87700        0.68620
H          1.18620        0.91860        0.35750
H         -1.10730       -0.83200       -0.63660
8

C         -0.75270       -0.05780       -0.10430
C          0.72890        0.08820        0.18350
F          1.36400       -0.93110       -0.52710
F          1.17610        1.30620       -0.26690
H         -1.36080        0.03310        0.82410
H         -1.02030        0.68850       -0.87410
H         -0.99890       -1.07540       -0.51020
H          0.86380       -0.05170        1.27500
8

C          0.75630        0.11010        0.10700
C         -0.72280       -0.19810       -0.06380
F         -1.36940       -0.39520        1.11390
F         -1.26660        0.95040       -0.64440
H          1.34910       -0.80240        0.32280
H          1.09580        0.48550       -0.89700
H          0.94760        0.90920        0.83110
H         -0.79000       -1.05940       -0.76960
