22

C          0.98090        1.39290       -0.17570
C          1.45320        0.31660        0.75960
C          1.26430       -1.07450        0.20390
C          0.12920       -1.08580       -0.78760
C         -1.14930       -0.86220       -0.01530
C         -1.26330        0.52370        0.54700
C         -0.49190        1.55240       -0.23800
O         -2.20400       -1.16480       -0.90160
H          1.41870        2.36090        0.18240
H          1.46770        1.20950       -1.16510
H          0.99720        0.40450        1.75580
H          2.55850        0.46000        0.88530
H          2.19850       -1.49440       -0.22080
H          0.95800       -1.76780        1.03770
H          0.08940       -2.08570       -1.23790
H          0.23050       -0.35510       -1.59160
H         -1.13970       -1.57990        0.84660
H         -1.05270        0.54450        1.62680
H         -2.35090        0.81550        0.44980
H         -0.85400        2.55970        0.06450
H         -0.80660        1.43630       -1.30670
H         -2.43370       -2.10630       -0.71920
22

C         -1.00430        1.31140       -0.50230
C         -1.84200        0.21800        0.15050
C         -1.24740       -1.10450       -0.34400
C         -0.01700       -1.32790        0.54030
C          1.22300       -0.87110       -0.14170
C          1.38440        0.58760       -0.28730
C          0.28590        1.41760        0.30300
O          2.31790       -1.44000        0.53950
H         -1.56110        2.25930       -0.53280
H         -0.71960        1.00960       -1.53010
H         -1.71260        0.24930        1.26240
H         -2.90510        0.30830       -0.07410
H         -1.95990       -1.93280       -0.26970
H         -0.90920       -0.93980       -1.40170
H         -0.11100       -0.81520        1.51140
H          0.06330       -2.42050        0.71320
H          1.23560       -1.34450       -1.16430
H          2.33590        0.90150        0.20310
H          1.47320        0.88860       -1.36560
H          0.12440        1.26740        1.37200
H          0.60610        2.49570        0.18910
H          2.93960       -0.71770        0.82920
22

C         -1.17890        0.35220       -0.95290
C         -1.56230       -0.51240        0.20940
C         -0.53890       -1.49220        0.62950
C          0.80500       -1.33160       -0.01160
C          1.43210       -0.00400        0.16020
C          0.52040        1.07730        0.64800
C         -0.44770        1.56500       -0.38980
O          2.04230        0.46960       -1.02310
H         -0.53830       -0.16000       -1.69290
H         -2.09210        0.67520       -1.52520
H         -1.84690        0.15650        1.07180
H         -2.53900       -1.00710       -0.07220
H         -0.90670       -2.51930        0.33610
H         -0.47360       -1.52430        1.73950
H          1.47130       -2.11810        0.45130
H          0.73580       -1.63290       -1.08600
H          2.28310       -0.06330        0.90090
H          0.01510        0.81210        1.58540
H          1.17910        1.95990        0.90210
H          0.00370        2.16580       -1.17610
H         -1.22670        2.16640        0.14300
H          2.86330        0.96540       -0.84730
22

C         -1.68970        0.37840       -0.21310
C         -1.42990       -0.99960        0.24710
C         -0.06650       -1.24580        0.80880
C          1.02430       -1.15330       -0.20970
C          1.62360        0.21170       -0.32410
C          0.59940        1.17020       -0.87810
C         -0.58940        1.35760       -0.00540
O          2.19760        0.68000        0.83630
H         -2.02700        0.39290       -1.28990
H         -2.58850        0.76680        0.34870
H         -1.56040       -1.70720       -0.61510
H         -2.16820       -1.36500        1.01450
H         -0.06390       -2.31140        1.18570
H          0.12410       -0.63390        1.72350
H          1.84540       -1.85370        0.07750
H          0.60810       -1.42840       -1.19190
H          2.44110        0.14840       -1.08770
H          0.33470        0.86880       -1.89630
H          1.12150        2.16960       -0.94680
H         -0.31790        1.39620        1.06190
H         -1.01200        2.38040       -0.23760
H          1.59350        0.77740        1.59170
22

C          1.38160        0.52300        0.59730
C          0.48970        1.70920        0.32110
C         -0.66110        1.30080       -0.59200
C         -1.41700        0.23410        0.08720
C         -1.03290       -1.16630       -0.18050
C          0.34960       -1.52280       -0.43480
C          1.38160       -0.45200       -0.52850
O         -1.57710       -1.93730        0.88410
H          1.11690       -0.01200        1.52320
H          2.40780        0.91990        0.72920
H          1.02690        2.58130       -0.04840
H          0.02300        1.98810        1.28990
H         -0.33070        1.08210       -1.61650
H         -1.30600        2.21050       -0.66600
H         -2.51030        0.37410       -0.17290
H         -1.37850        0.43810        1.18090
H         -1.66350       -1.51830       -1.05530
H          0.71230       -2.23170        0.37170
H          0.47750       -2.14670       -1.37220
H          2.38710       -0.97580       -0.48660
H          1.42300        0.04350       -1.53620
H         -1.29970       -1.44170        1.70510
