27

C         -2.22130       -1.68200        0.51310
C         -2.50830       -0.40370       -0.18810
C         -1.56860        0.70590        0.19280
C         -1.92680        1.98430       -0.56770
N         -0.18740        0.37950        0.08010
C          0.60270        0.42450        1.16840
O          0.12840        0.75710        2.30880
C          1.94500        0.12660        1.15080
C          2.49130       -0.23860       -0.07350
N          1.66340       -0.26880       -1.12980
C          0.35840        0.02440       -1.09470
O         -0.36550       -0.02810       -2.14880
C          3.94910       -0.58120       -0.18930
Br         3.05000        0.19560        2.70190
H         -1.82040       -2.45160       -0.17750
H         -3.07940       -2.13380        1.03060
H         -1.43990       -1.50760        1.27570
H         -2.59390       -0.58590       -1.25670
H         -3.53290       -0.06770        0.15270
H         -1.78860        0.93050        1.25680
H         -2.61220        2.62410        0.00450
H         -0.99920        2.56470       -0.72930
H         -2.44320        1.71910       -1.51600
H          2.04820       -0.54350       -2.08000
H          4.19030       -1.31420        0.60140
H          4.54820        0.34460       -0.08700
H          4.11250       -0.97400       -1.19880
27

C         -3.63120        0.08980       -0.52760
C         -2.19670        0.52830       -0.40090
C         -1.30130       -0.58270        0.08060
C         -1.71440       -1.10280        1.43960
N          0.09480       -0.24580        0.00550
C          0.86860       -0.67140       -1.02200
O          0.39570       -1.37960       -1.94970
C          2.20310       -0.34810       -1.09530
C          2.72090        0.42890       -0.07710
N          1.91400        0.82960        0.92500
C          0.61060        0.51720        1.00190
O         -0.12740        0.90110        1.94570
C          4.15480        0.82190       -0.08190
Br         3.29190       -0.95100       -2.54670
H         -3.75770       -0.99910       -0.54990
H         -4.12420        0.49880       -1.44800
H         -4.25460        0.46900        0.32400
H         -1.87110        0.86760       -1.40490
H         -2.18100        1.41780        0.25350
H         -1.46030       -1.43770       -0.62830
H         -2.35880       -2.02710        1.35240
H         -0.77710       -1.47590        1.92810
H         -2.24570       -0.35310        2.04930
H          2.27990        1.42710        1.72240
H          4.52190        0.87670        0.97930
H          4.74170        0.06840       -0.64580
H          4.20310        1.83210       -0.53210
27

C         -3.45500        0.81190       -0.94810
C         -1.99150        0.88630       -0.66820
C         -1.42610       -0.42130       -0.14810
C         -2.06630       -0.86020        1.12560
N          0.01650       -0.31640       -0.06820
C          0.84510       -0.81170       -1.00300
O          0.33820       -1.39580       -1.99670
C          2.23150       -0.67450       -0.86240
C          2.75600       -0.03840        0.22200
N          1.88840        0.44980        1.14700
C          0.54730        0.30470        0.98900
O         -0.17640        0.77790        1.87710
C          4.22280        0.13100        0.41420
Br         3.36810       -1.39140       -2.21200
H         -4.02790        1.63620       -0.47440
H         -3.61770        0.94300       -2.05750
H         -3.87650       -0.19380       -0.71340
H         -1.80880        1.64140        0.13840
H         -1.40850        1.22240       -1.53910
H         -1.64370       -1.18380       -0.93500
H         -2.49560       -0.04380        1.73050
H         -2.92670       -1.55050        0.90360
H         -1.33750       -1.48320        1.68450
H          2.30780        0.93460        1.97200
H          4.58050        0.78660       -0.40290
H          4.74650       -0.83190        0.46530
H          4.40970        0.67110        1.35970
27

C         -3.59600       -0.74820       -0.10260
C         -2.11700       -0.84490       -0.28160
C         -1.42090        0.24730        0.51210
C         -1.86540        1.62170        0.05610
N          0.02490        0.10900        0.44220
C          0.73360       -0.30790        1.51220
O          0.12770       -0.57840        2.57840
C          2.10490       -0.43000        1.41890
C          2.75150       -0.12940        0.24300
N          2.02200        0.28420       -0.80900
C          0.67650        0.39630       -0.69330
O         -0.01070        0.78290       -1.67520
C          4.22950       -0.27380        0.18340
Br         3.12900       -1.01700        2.91630
H         -3.88040       -1.05270        0.94140
H         -4.11860       -1.39290       -0.85270
H         -3.99390        0.27350       -0.24660
H         -1.87110       -0.81410       -1.35110
H         -1.78610       -1.81690        0.13870
H         -1.77300        0.13770        1.55890
H         -2.22760        1.61730       -0.98980
H         -2.59260        2.07300        0.73960
H         -0.94640        2.26840        0.05820
H          2.48660        0.51920       -1.71380
H          4.52010       -1.32030       -0.03720
H          4.68970        0.40240       -0.56820
H          4.70380       -0.00620        1.15880
27

C         -2.44470       -1.67120       -0.11700
C         -2.49740       -0.33170       -0.82030
C         -1.57390        0.61240       -0.16780
C         -1.67680        1.94650       -0.92640
N         -0.21500        0.30300       -0.04790
C          0.53600       -0.42440       -0.90860
O         -0.04450       -0.87220       -1.90200
C          1.86420       -0.67700       -0.73610
C          2.51340       -0.17240        0.37590
N          1.75700        0.55300        1.22940
C          0.44710        0.78180        1.02670
O         -0.13750        1.48060        1.91240
C          3.95730       -0.42440        0.60040
Br         2.81120       -1.71700       -2.01990
H         -3.23250       -1.78380        0.65710
H         -1.47370       -1.78910        0.44830
H         -2.59130       -2.50820       -0.83650
H         -2.45990       -0.39760       -1.90650
H         -3.54460        0.05310       -0.60850
H         -1.98860        0.83180        0.83980
H         -2.51300        2.55600       -0.53180
H         -1.94780        1.72930       -2.00060
H         -0.72650        2.48150       -0.94680
H          2.25570        0.93720        2.07740
H          4.56740        0.49850        0.43000
H          4.07230       -0.78840        1.65330
H          4.28610       -1.20740       -0.09730
