13

C         -1.55750        0.62520        0.18040
C         -0.22840        0.98250        0.31470
C          0.74130        0.04530        0.02500
C          0.34120       -1.21570       -0.38880
N         -0.96870       -1.51480       -0.50400
C         -1.94540       -0.63240       -0.23210
C          2.16220        0.34220        0.14130
O          3.05450       -0.49810       -0.11820
H         -2.28300        1.39850        0.42050
H          0.09720        1.96330        0.63670
H          1.12210       -1.94140       -0.61250
H         -3.00340       -0.87920       -0.32680
H          2.46790        1.32460        0.46390
13

C         -1.56110        0.58840        0.17590
C         -0.25030        0.96810        0.14910
C          0.75710        0.03950       -0.04020
C          0.36970       -1.28210       -0.19970
N         -0.92700       -1.62080       -0.16810
C         -1.92730       -0.74150        0.01400
C          2.15950        0.43000       -0.07120
O          2.49150        1.62740        0.07420
H         -2.32480        1.34380        0.32660
H          0.07140        2.01120        0.27370
H          1.16980       -2.00570       -0.34810
H         -2.96190       -1.05810        0.03280
H          2.93350       -0.30010       -0.21900
