17

C         -2.14880       -0.10620        0.62240
C         -1.35040       -0.25180       -0.65500
C          0.06710       -0.03980       -0.33210
C          0.59410        1.24360       -0.39810
C          1.92920        1.37810       -0.08380
N          2.69330        0.33410        0.26930
C          2.15920       -0.89910        0.32580
C          0.84000       -1.12270        0.02930
H         -2.99960        0.55110        0.44360
H         -1.53230        0.26300        1.46280
H         -2.56310       -1.09420        0.95610
H         -1.46680       -1.28690       -1.04540
H         -1.70020        0.42220       -1.45560
H         -0.01090        2.06770       -0.67730
H          2.32870        2.40040       -0.14150
H          2.77430       -1.75790        0.61290
H          0.38600       -2.10150        0.06650
17

C         -2.31320       -0.05920       -0.33610
C         -1.28060       -0.35730        0.71150
C          0.09400       -0.08190        0.29410
C          0.86780       -1.05960       -0.32410
C          2.16350       -0.80780       -0.72000
N          2.68970        0.41640       -0.50100
C          1.98760        1.39230        0.09010
C          0.69360        1.14670        0.48740
H         -2.35230        0.99820       -0.62810
H         -3.30320       -0.32240        0.09110
H         -2.14230       -0.65450       -1.25220
H         -1.35270       -1.45950        0.92490
H         -1.56960        0.15120        1.65950
H          0.45810       -2.03230       -0.50100
H          2.79770       -1.53830       -1.20290
H          2.44600        2.35520        0.24580
H          0.11580        1.91270        0.96120
17

C          2.19690       -0.08840        0.59420
C          1.39800        0.11940       -0.66720
C         -0.03960        0.04360       -0.34000
C         -0.76970       -1.12950       -0.36660
C         -2.11310       -1.18390       -0.05650
N         -2.72310       -0.03460        0.28480
C         -2.05260        1.14260        0.32620
C         -0.70700        1.19300        0.01480
H          1.54470        0.09140        1.49510
H          2.51290       -1.14710        0.66280
H          3.03140        0.62800        0.65540
H          1.70890        1.04840       -1.14060
H          1.66020       -0.71010       -1.38210
H         -0.26940       -2.05050       -0.64260
H         -2.66370       -2.12330       -0.08560
H         -2.53610        2.07190        0.59960
H         -0.17840        2.12920        0.04840
17

C         -2.31350        0.05260        0.50490
C         -1.27620       -0.42980       -0.46070
C          0.09600       -0.09400       -0.09310
C          0.79700       -0.98870        0.68940
C          2.10200       -0.71760        1.06570
N          2.70260        0.43080        0.66790
C          2.04320        1.31070       -0.08930
C          0.74780        1.06890       -0.47820
H         -2.11730       -0.41640        1.47840
H         -3.29830       -0.36070        0.15360
H         -2.35120        1.12840        0.64230
H         -1.36440       -1.53200       -0.54560
H         -1.44820       -0.03600       -1.50090
H          0.34520       -1.93160        1.03260
H          2.61430       -1.44610        1.67920
H          2.54850        2.21330       -0.38850
H          0.17260        1.74840       -1.08990
