30

C         -1.98390       -3.29840        0.56450
C         -1.73730       -2.21560       -0.46130
O         -0.73970       -1.39370        0.02880
P         -1.36820        0.05050        0.67410
S         -2.41830       -0.28700        1.99470
O         -2.13390        0.86720       -0.57820
C         -3.36150        1.39120       -0.22560
C         -3.22520        2.78620        0.34850
S          0.30710        1.19590        1.28750
C          1.59850        1.03840        0.01140
S          2.98250        0.10900        0.70020
C          4.52940        0.66440       -0.09310
C          5.57160       -0.40080        0.22830
H         -2.96140       -3.10110        1.05020
H         -1.99860       -4.28000        0.04240
H         -1.17070       -3.32790        1.32910
H         -1.38850       -2.66090       -1.41690
H         -2.65030       -1.60050       -0.65580
H         -3.96250        1.46940       -1.16590
H         -3.91050        0.71800        0.45520
H         -4.22970        3.12570        0.69320
H         -2.88370        3.44900       -0.48640
H         -2.45610        2.82910        1.13130
H          1.20670        0.49200       -0.87980
H          1.94750        2.02060       -0.34920
H          4.82980        1.66560        0.28170
H          4.32370        0.70800       -1.17150
H          6.54030       -0.19830       -0.25290
H          5.11790       -1.36900       -0.09300
H          5.62490       -0.44710        1.33840
30

C         -2.41580        3.41330       -0.67810
C         -1.74000        2.19950       -0.05740
O         -1.55090        1.24630       -1.03800
P         -1.32000       -0.23870       -0.24380
S         -0.87410       -1.38690       -1.46630
O         -2.72870       -0.76010        0.52420
C         -3.48670       -1.49030       -0.39540
C         -3.41210       -2.94910       -0.03490
S          0.25660        0.03200        1.15270
C          1.73600       -0.67220        0.39140
S          3.26620        0.03240        1.06390
C          4.50220       -0.17850       -0.26000
C          5.89910        0.10150        0.20300
H         -3.43010        3.15270       -1.05410
H         -1.78610        3.77860       -1.52960
H         -2.51260        4.18710        0.10590
H         -0.75880        2.50920        0.33210
H         -2.37720        1.82750        0.75710
H         -3.11980       -1.37060       -1.43540
H         -4.53320       -1.10050       -0.35890
H         -2.84700       -3.14070        0.89590
H         -4.46260       -3.30140        0.11920
H         -2.91060       -3.54780       -0.83580
H          1.68800       -1.76860        0.53280
H          1.68030       -0.41890       -0.69810
H          4.18240        0.52660       -1.06930
H          4.37230       -1.22040       -0.64670
H          6.42880        0.57830       -0.66110
H          6.39420       -0.85630        0.46180
H          5.86020        0.81570        1.04850
30

C         -3.55510       -2.67390        0.79960
C         -2.15710       -2.15350        0.48430
O         -2.33520       -1.25770       -0.58240
P         -1.38620        0.11130       -0.34280
S         -0.87710        0.65500       -1.91210
O         -2.26000        1.34050        0.44630
C         -1.86910        2.53390       -0.13790
C         -2.08920        3.73610        0.73120
S          0.26700       -0.38130        0.85650
C          1.57160       -1.21610       -0.06580
S          2.60910        0.01020       -0.87880
C          4.03190        0.40130        0.19290
C          5.05580       -0.71420        0.01770
H         -3.78980       -3.43840        0.04580
H         -4.26310       -1.82000        0.68610
H         -3.52830       -3.03950        1.83600
H         -1.72940       -1.63280        1.37630
H         -1.46590       -2.98680        0.20020
H         -2.41060        2.67190       -1.08700
H         -0.79280        2.47980       -0.37150
H         -1.29340        3.85650        1.49240
H         -2.00780        4.63350        0.06690
H         -3.09380        3.78560        1.18390
H          1.19630       -1.99330       -0.75540
H          2.21310       -1.76010        0.67190
H          4.47760        1.39230       -0.07150
H          3.66760        0.45000        1.23890
H          4.88890       -1.44530        0.83130
H          4.85430       -1.25690       -0.93690
H          6.07060       -0.28830        0.04530
30

C         -3.02540        3.06080       -0.09000
C         -2.46220        1.85920       -0.79540
O         -1.20910        1.48300       -0.32600
P         -1.33200        0.00410        0.45020
S         -2.74770        0.02370        1.45610
O         -1.54660       -1.28320       -0.64100
C         -1.80940       -2.40420        0.16390
C         -2.24440       -3.56240       -0.72000
S          0.32510       -0.45730        1.64270
C          1.84060        0.34180        1.07990
S          2.37210       -0.24300       -0.54500
C          4.18640       -0.35960       -0.56700
C          4.83510        1.00020       -0.39040
H         -4.13990        3.00510       -0.16410
H         -2.79030        3.00010        0.99510
H         -2.74180        4.02330       -0.54760
H         -3.19030        1.02150       -0.65130
H         -2.44710        2.03050       -1.90090
H         -2.56550       -2.18550        0.93790
H         -0.84440       -2.67900        0.64700
H         -3.24070       -3.29010       -1.10850
H         -2.25820       -4.49780       -0.12800
H         -1.48880       -3.60950       -1.54480
H          2.63940        0.05710        1.80980
H          1.77000        1.45710        1.10070
H          4.48370       -0.98120        0.31530
H          4.56890       -0.77990       -1.50430
H          5.04080        1.50310       -1.36070
H          4.18710        1.63940        0.25480
H          5.83460        0.82280        0.08020
30

C         -3.33710       -2.94680        0.02270
C         -2.47750       -1.77820       -0.43660
O         -2.72440       -0.66550        0.36180
P         -1.35560        0.27200        0.62630
S         -1.46370        0.86770        2.25260
O         -1.17510        1.50990       -0.49450
C         -2.24680        2.37540       -0.55060
C         -2.05010        3.60500        0.32590
S          0.42340       -0.88250        0.52870
C          1.81930        0.15990        0.07660
S          2.74400       -0.69490       -1.23940
C          4.27480       -1.41500       -0.61510
C          5.08730       -0.39990        0.16360
H         -4.40920       -2.69920       -0.08710
H         -3.10350       -3.19910        1.07560
H         -3.12880       -3.81790       -0.63370
H         -2.79480       -1.49710       -1.46170
H         -1.41360       -2.06840       -0.36840
H         -3.22590        1.89070       -0.38490
H         -2.28650        2.76980       -1.59870
H         -3.02540        3.95950        0.69050
H         -1.43730        3.38100        1.22620
H         -1.48750        4.40270       -0.21750
H          2.51540        0.36410        0.90110
H          1.51860        1.14160       -0.35000
H          4.00740       -2.30410       -0.00340
H          4.84920       -1.77230       -1.49200
H          4.78620        0.63790       -0.07380
H          6.15780       -0.60510       -0.06150
H          4.95970       -0.59100        1.25750
