13

C         -1.16260       -1.06390       -0.27280
C         -1.68070        0.18530        0.00440
C         -0.79860        1.20020        0.25950
C          0.56330        1.00550        0.24560
C          1.08560       -0.24240       -0.03120
C          0.20240       -1.26960       -0.28920
O          2.45030       -0.47450       -0.05350
F          1.41210        2.02160        0.49970
H         -1.81580       -1.90440       -0.48170
H         -2.76900        0.31550        0.00880
H         -1.22200        2.18150        0.47720
H          0.64500       -2.24880       -0.50600
H          3.09000        0.29400        0.13910
13

C         -1.02770       -1.08510       -0.12950
C         -1.63930        0.16310       -0.07040
C         -0.89700        1.31600        0.04960
C          0.47480        1.20760        0.11060
C          1.08040       -0.03850        0.05140
C          0.34490       -1.19240       -0.06840
O          2.44780       -0.09700        0.11570
F          1.19600        2.35770        0.22940
H         -1.63320       -1.99540       -0.22540
H         -2.70420        0.23130       -0.11870
H         -1.35640        2.30040        0.09740
H          0.81680       -2.16890       -0.11490
H          2.89720       -0.99890        0.07340
