23

C         -2.78400        0.60040       -0.44230
C         -2.30090        0.29180        0.96320
C         -1.11440       -0.66690        0.79480
C         -0.02820        0.01730       -0.02990
C          1.10080       -0.94720       -0.16740
C          2.26200       -0.42120       -0.96080
C          2.88960        0.80490       -0.38990
H         -2.15850        1.35310       -0.92130
H         -3.85140        0.93690       -0.32490
H         -2.83680       -0.36900       -0.98780
H         -2.01820        1.17650        1.53320
H         -3.10820       -0.21990        1.50950
H         -1.44400       -1.60160        0.29950
H         -0.71420       -0.90960        1.79700
H         -0.49100        0.18420       -1.04200
H          0.22640        0.99520        0.36730
H          0.71740       -1.84270       -0.70580
H          1.42510       -1.31200        0.82930
H          3.03950       -1.22910       -0.96250
H          1.96370       -0.30710       -2.02660
H          3.84650        0.60980        0.14570
H          2.24700        1.35300        0.32180
H          3.13190        1.50340       -1.22080
23

C          3.21850        0.21690       -0.43900
C          2.10540       -0.38160        0.37270
C          0.78190       -0.33510       -0.34370
C         -0.32860       -0.93170        0.46480
C         -1.65190       -0.90090       -0.21690
C         -2.13370        0.47660       -0.56170
C         -2.29090        1.35610        0.66280
H          3.91360       -0.57070       -0.80830
H          3.82140        0.92090        0.15770
H          2.82660        0.78630       -1.32310
H          2.06740        0.14790        1.34970
H          2.39280       -1.43380        0.61640
H          0.90090       -0.94490       -1.27510
H          0.58260        0.73240       -0.59000
H         -0.06790       -2.00230        0.64020
H         -0.35450       -0.47460        1.48920
H         -1.56500       -1.46900       -1.16110
H         -2.41580       -1.36780        0.43290
H         -3.17460        0.35390       -0.97690
H         -1.54230        0.96980       -1.33470
H         -2.57350        2.37500        0.28500
H         -3.15120        1.02180        1.28500
H         -1.36090        1.45500        1.23560
23

C         -3.19870        0.68210        0.43780
C         -2.11780       -0.10590       -0.26200
C         -0.83620       -0.14070        0.56830
C          0.15140       -0.93650       -0.21110
C          1.49060       -1.10280        0.41660
C          2.23200        0.16340        0.68860
C          2.48250        0.94490       -0.59210
H         -3.51650        0.12660        1.31980
H         -4.03570        0.78540       -0.28720
H         -2.87130        1.71970        0.67400
H         -1.89360        0.37890       -1.22910
H         -2.47570       -1.14200       -0.38070
H         -1.09160       -0.65730        1.51560
H         -0.54970        0.87610        0.80860
H          0.29720       -0.51860       -1.22840
H         -0.27940       -1.94990       -0.35860
H          1.43600       -1.68880        1.35750
H          2.11400       -1.70810       -0.27720
H          1.76820        0.83180        1.41820
H          3.23470       -0.11160        1.07870
H          3.11310        0.39830       -1.29570
H          3.02510        1.87120       -0.29580
H          1.52160        1.28370       -1.03600
23

C         -3.16280        0.59850       -0.03590
C         -1.72610        0.22850        0.39890
C         -1.19440       -0.84890       -0.48070
C          0.13860       -1.40210       -0.24310
C          1.36220       -0.60320       -0.33790
C          1.58900        0.55970        0.54130
C          3.01600        1.06980        0.16330
H         -3.15490        1.43200       -0.75330
H         -3.66400       -0.26540       -0.50630
H         -3.76150        0.91270        0.84120
H         -1.81360       -0.05500        1.45530
H         -1.20550        1.19910        0.35480
H         -1.29240       -0.56560       -1.57060
H         -1.95940       -1.69660       -0.39410
H          0.29730       -2.27480       -0.98240
H          0.16700       -2.00520        0.74670
H          1.53380       -0.27750       -1.40550
H          2.23040       -1.31280       -0.15590
H          1.61380        0.34610        1.61810
H          0.96200        1.45370        0.29630
H          3.14600        0.95500       -0.92730
H          3.76450        0.41830        0.65810
H          3.11400        2.13360        0.42470
23

C          3.54260        0.23380       -0.07340
C          2.20020        0.22240        0.62710
C          1.10190       -0.20800       -0.35380
C         -0.21370       -0.20420        0.38890
C         -1.29270       -0.62460       -0.56490
C         -2.65860       -0.65740        0.07000
C         -2.94310        0.75810        0.56020
H          3.68250        1.19850       -0.61770
H          3.61970       -0.58290       -0.82090
H          4.36460        0.16240        0.66700
H          1.93850        1.24910        0.93250
H          2.24260       -0.44760        1.49950
H          1.33170       -1.20280       -0.76000
H          1.08130        0.56610       -1.14740
H         -0.39500        0.83170        0.74800
H         -0.18480       -0.84130        1.29270
H         -1.33990        0.17360       -1.36240
H         -1.04310       -1.56190       -1.07080
H         -3.38370       -0.89030       -0.75440
H         -2.75970       -1.40600        0.85740
H         -4.01610        0.92810        0.71320
H         -2.49130        1.44450       -0.19030
H         -2.38390        0.85890        1.53440
