17

C          0.23730        1.47380        0.33610
C          0.04990        0.02570       -0.06410
C         -0.75590       -0.59820        1.08510
C          1.34260       -0.73140       -0.13740
C         -0.79660       -0.12620       -1.30130
H         -0.71700        1.99430        0.12430
H          0.37070        1.54960        1.45130
H          1.10530        1.94980       -0.11370
H         -1.76010       -0.09730        1.02210
H         -0.80140       -1.67450        0.87530
H         -0.21000       -0.33830        2.00570
H          1.69470       -0.92300       -1.15970
H          2.13660       -0.21410        0.45050
H          1.25210       -1.74750        0.34500
H         -1.85140       -0.42200       -1.06550
H         -0.87550        0.82760       -1.88400
H         -0.42120       -0.94820       -1.96970
17

C          0.00750        1.49050       -0.32850
C          0.02570        0.00270        0.01710
C         -1.06410       -0.63530       -0.83310
C          1.38280       -0.56360       -0.30700
C         -0.25640       -0.24300        1.46850
H         -1.07450        1.79130       -0.23050
H          0.28590        1.54080       -1.41460
H          0.67790        2.08030        0.29340
H         -0.72990       -1.60580       -1.25000
H         -1.94990       -0.81370       -0.20410
H         -1.39040        0.02990       -1.65860
H          2.13140        0.21950       -0.01320
H          1.47160       -0.86400       -1.35920
H          1.53190       -1.45330        0.34430
H         -0.65720        0.69650        1.90180
H         -1.02240       -1.05580        1.55040
H          0.63000       -0.61710        2.02330
17

C          0.14940        1.30860       -0.72420
C         -0.04710       -0.04500       -0.04090
C         -0.73980        0.19950        1.26700
C          1.35740       -0.54190        0.26840
C         -0.79620       -0.99910       -0.91090
H          0.64180        1.14090       -1.69320
H         -0.76310        1.90180       -0.75690
H          0.87530        1.85850       -0.05520
H         -0.23850       -0.38730        2.08220
H         -1.80510       -0.09640        1.23070
H         -0.71940        1.28750        1.53450
H          1.92660       -0.72730       -0.64220
H          1.81410        0.25910        0.91600
H          1.24430       -1.42450        0.93000
H         -0.18460       -1.29300       -1.78100
H         -1.70860       -0.53450       -1.28870
H         -1.00670       -1.90680       -0.33560
17

C          1.46040       -0.37790       -0.33600
C          0.03340       -0.04640       -0.04750
C         -0.38930        1.29200       -0.64020
C         -0.92820       -1.07910       -0.55310
C         -0.13980        0.13730        1.46490
H          1.97370       -0.69020        0.62100
H          1.98510        0.50620       -0.72030
H          1.57830       -1.27150       -1.00460
H          0.26400        2.06900       -0.17490
H         -0.39430        1.30140       -1.72490
H         -1.41540        1.50260       -0.22130
H         -1.02040       -1.00730       -1.65460
H         -0.64040       -2.11800       -0.28930
H         -1.93010       -0.91050       -0.12250
H          0.29790       -0.68790        2.03490
H         -1.20580        0.32570        1.65960
H          0.47100        1.05470        1.70870
17

C          0.32030        1.48700        0.00500
C          0.00340        0.02280       -0.03370
C         -0.87440       -0.37060       -1.18870
C          1.31900       -0.73860       -0.13600
C         -0.73860       -0.32350        1.24500
H         -0.60590        2.09400       -0.01750
H          0.77810        1.69020        1.01270
H          1.07500        1.80640       -0.73230
H         -0.63840       -1.45430       -1.39810
H         -0.76310        0.25580       -2.07700
H         -1.94980       -0.38900       -0.86370
H          2.19540       -0.07960        0.01990
H          1.34680       -1.56950        0.59180
H          1.42850       -1.16410       -1.16510
H         -0.94840        0.59030        1.86110
H         -1.74700       -0.75870        1.03490
H         -0.20100       -1.09840        1.84160
