20

C          2.70900        0.21290       -0.23910
C          1.29730        0.26860       -0.76670
C          0.39590       -0.34270        0.26960
C         -1.04900       -0.34820       -0.13790
C         -1.83670       -0.98980        0.99580
C         -1.61140        1.02140       -0.36160
H          2.81020       -0.53620        0.57730
H          3.03750        1.18250        0.18610
H          3.35750       -0.10600       -1.06440
H          0.99640        1.33240       -0.90610
H          1.16640       -0.23780       -1.72500
H          0.68440       -1.40950        0.44530
H          0.53530        0.15980        1.25440
H         -1.13630       -0.91750       -1.07740
H         -1.79990       -0.24350        1.83800
H         -1.23770       -1.86700        1.32350
H         -2.85910       -1.25310        0.71230
H         -1.48010        1.70680        0.48780
H         -2.71990        0.90000       -0.48910
H         -1.25980        1.46680       -1.32280
20

C          2.18850       -0.16200       -0.51210
C          1.54930        0.44080        0.71850
C          0.11700        0.75890        0.60860
C         -0.86140       -0.28940        0.32430
C         -2.26000        0.36220        0.27940
C         -0.73520       -1.04270       -0.94900
H          2.27860       -1.26780       -0.29110
H          1.65820        0.04750       -1.44160
H          3.26540        0.18020       -0.56570
H          2.09040        1.42680        0.86680
H          1.84060       -0.14710        1.61250
H          0.01670        1.60030       -0.14310
H         -0.18460        1.25930        1.57590
H         -0.94400       -1.02100        1.15720
H         -3.04260       -0.35530        0.54540
H         -2.23730        1.21560        0.99120
H         -2.45390        0.74360       -0.75260
H          0.06560       -1.76390       -1.03470
H         -0.66230       -0.36570       -1.83750
H         -1.68880       -1.62030       -1.15230
20

C          2.10360        0.75490        0.07610
C          1.55700       -0.47010       -0.59820
C          0.23420       -0.95170       -0.13710
C         -0.93080       -0.05450       -0.29000
C         -2.13730       -0.85450        0.26000
C         -0.88240        1.25900        0.41460
H          2.08100        0.69090        1.18930
H          1.64760        1.66020       -0.33130
H          3.19540        0.80080       -0.24190
H          2.35680       -1.26300       -0.46360
H          1.55470       -0.21960       -1.69770
H          0.25560       -1.28950        0.94510
H          0.04440       -1.92700       -0.68610
H         -1.19010        0.15840       -1.36400
H         -3.08540       -0.38970       -0.07190
H         -2.02130       -1.86840       -0.18430
H         -2.01860       -0.92830        1.34000
H         -0.65810        2.12550       -0.26150
H         -0.20940        1.26680        1.26770
H         -1.89690        1.49980        0.83500
20

C          2.11450        0.77000       -0.10700
C          1.61960       -0.51510        0.45270
C          0.18260       -0.60460        0.80020
C         -0.80690       -0.41790       -0.28960
C         -0.78280        0.89840       -0.99740
C         -2.22920       -0.52330        0.29340
H          2.24290        0.67310       -1.22160
H          3.14810        1.00670        0.29370
H          1.51650        1.65610        0.07520
H          1.87420       -1.37810       -0.21880
H          2.25070       -0.73170        1.37080
H         -0.05050        0.04850        1.69720
H          0.03480       -1.64150        1.23640
H         -0.75130       -1.23400       -1.06770
H         -1.77950        0.97000       -1.53670
H         -0.83840        1.76130       -0.27190
H         -0.02980        1.02480       -1.76860
H         -2.47420       -1.60820        0.37930
H         -2.28870       -0.09570        1.29820
H         -2.95260       -0.05870       -0.41790
20

C          2.65450       -0.22700       -0.38330
C          1.36580        0.54500       -0.18840
C          0.31260       -0.47410        0.24770
C         -1.00500        0.23030        0.46120
C         -2.02170       -0.80170        0.89030
C         -1.37160        0.91320       -0.81900
H          3.19520        0.16580       -1.26350
H          2.45920       -1.31070       -0.55490
H          3.22890       -0.12830        0.55580
H          0.99280        0.98550       -1.12950
H          1.44970        1.28510        0.62810
H          0.19130       -1.26370       -0.52860
H          0.60800       -0.93820        1.19390
H         -0.89830        0.97260        1.27910
H         -2.89710       -0.85370        0.24120
H         -1.57900       -1.82320        0.92350
H         -2.38830       -0.61370        1.93620
H         -0.81950        1.88030       -0.84680
H         -1.01910        0.35060       -1.72790
H         -2.45860        1.10600       -0.91500
