5

C          0.00690       -0.16000       -0.00000
Cl        -1.45760        0.85790       -0.04720
Cl         1.46270        0.84840       -0.04780
H         -0.00680       -0.85720       -0.86940
H         -0.00510       -0.68910        0.96450
