21

C         -0.48440        2.82560        0.10110
C         -0.19190        1.36440        0.05610
C          1.07480        0.84840        0.03690
C          1.32300       -0.50560       -0.00440
C          0.21920       -1.34180       -0.02620
C         -1.07010       -0.85610       -0.00790
C         -1.27490        0.51480        0.03380
C         -2.24370       -1.79900       -0.03280
C          2.70820       -1.02120       -0.02370
H         -1.22140        3.07730       -0.71710
H          0.44580        3.37300       -0.17090
H         -0.88440        3.10560        1.08950
H          1.91520        1.53440        0.05500
H          0.41000       -2.42140       -0.05910
H         -2.29530        0.87670        0.04760
H         -2.10660       -2.50830       -0.87280
H         -3.16080       -1.20410       -0.26280
H         -2.41190       -2.28150        0.92980
H          3.31310       -0.71240        0.83510
H          3.25960       -0.72860       -0.95930
H          2.67640       -2.14000       -0.04800
21

C         -2.00560       -2.04690        0.07080
C         -0.94890       -0.98980        0.03210
C          0.38690       -1.29750        0.03970
C          1.35970       -0.32440        0.00400
C          1.00090        1.00750       -0.04110
C         -0.33930        1.35310       -0.05000
C         -1.29830        0.35780       -0.01360
C         -0.78600        2.75600       -0.09740
C          2.78490       -0.74400        0.01530
H         -2.92220       -1.62130       -0.42450
H         -2.30330       -2.29070        1.10860
H         -1.68510       -2.95420       -0.48200
H          0.63480       -2.36770        0.07600
H          1.75880        1.80160       -0.07020
H         -2.35190        0.61400       -0.02010
H         -1.81160        2.81260       -0.49900
H         -0.74520        3.18520        0.93440
H         -0.06680        3.32230       -0.74790
H          3.42250        0.00640       -0.49460
H          2.85150       -1.73490       -0.44420
H          3.06410       -0.84520        1.10400
21

C          2.53190       -1.31960        0.13300
C          1.23330       -0.61320        0.05860
C          0.06480       -1.38150       -0.01400
C         -1.14840       -0.74820       -0.08380
C         -1.18030        0.61970       -0.08020
C         -0.04030        1.41270       -0.00910
C          1.17320        0.76500        0.06060
C         -0.12910        2.89740       -0.00810
C         -2.40180       -1.57410       -0.16190
H          3.34410       -0.79180       -0.38880
H          2.86050       -1.47740        1.19520
H          2.43440       -2.31990       -0.32700
H          0.08260       -2.45530       -0.01720
H         -2.14310        1.09830       -0.13570
H          2.09420        1.32860        0.11750
H          0.54850        3.30890        0.78580
H         -1.16130        3.20560        0.32880
H          0.04670        3.34500       -0.98910
H         -2.42530       -2.27110        0.71110
H         -2.48950       -2.11030       -1.10740
H         -3.29500       -0.91890       -0.06840
21

C          2.89600       -0.09480        0.16860
C          1.39670       -0.03650        0.07730
C          0.73300        1.17450        0.04540
C         -0.63190        1.21800       -0.03780
C         -1.37560        0.04880       -0.09170
C         -0.74110       -1.18180       -0.06180
C          0.63450       -1.18290        0.02240
C         -1.53810       -2.45610       -0.11930
C         -1.36390        2.50080       -0.07330
H          3.25060        0.93470        0.37510
H          3.21320       -0.80640        0.97860
H          3.35100       -0.39220       -0.79690
H          1.31780        2.10530        0.08800
H         -2.44740        0.06370       -0.15720
H          1.15480       -2.13290        0.04750
H         -2.22590       -2.41010        0.77270
H         -2.06550       -2.57620       -1.06480
H         -0.83540       -3.29660        0.02920
H         -1.94970        2.56830       -1.01730
H         -2.10160        2.58930        0.75990
H         -0.67150        3.36300        0.05550
21

C          2.78990       -0.62850       -0.40090
C          1.34000       -0.27590       -0.19640
C          0.37660       -1.26530       -0.21350
C         -0.98070       -0.98140       -0.02780
C         -1.35730        0.32420        0.17700
C         -0.39990        1.30550        0.19370
C          0.94590        1.02490        0.00980
C         -0.83010        2.70690        0.41630
C         -1.96180       -2.09620       -0.05860
H          3.37770        0.22380       -0.73840
H          2.83790       -1.50810       -1.08600
H          3.17100       -1.00700        0.59010
H          0.72200       -2.27970       -0.37850
H         -2.38120        0.60070        0.32480
H          1.71040        1.79200        0.02120
H         -1.52790        2.71070        1.30380
H         -1.36620        3.13210       -0.44850
H          0.03180        3.35910        0.68210
H         -1.75000       -2.75220        0.82140
H         -1.76560       -2.66770       -1.00160
H         -2.98270       -1.71780        0.00990
