16

C         -1.23410        0.27190        0.34770
C         -0.74680       -1.06800       -0.15110
C          0.73500       -1.22810       -0.08520
C          1.45090       -0.01500        0.34940
C          0.96330        1.21390        0.22920
C         -0.39550        1.32610       -0.38920
H         -2.28310        0.37590        0.02720
H         -1.08490        0.41950        1.42630
H         -1.02990       -1.10480       -1.24440
H         -1.28530       -1.89340        0.37690
H          0.97650       -2.05120        0.61680
H          1.18070       -1.52480       -1.07460
H          2.43230       -0.14620        0.79150
H          1.45810        2.11080        0.53480
H         -0.81990        2.32770       -0.29970
H         -0.31750        0.98570       -1.45550
16

C          0.37320       -1.19130        0.42400
C         -1.03630       -0.65770        0.45280
C         -1.22280        0.57690       -0.39600
C         -0.13380        1.52830       -0.02700
C          1.10090        1.04300       -0.08160
C          1.26030       -0.38000       -0.49960
H          0.41770       -2.27370        0.19490
H          0.80950       -1.03880        1.45410
H         -1.34290       -0.36790        1.49240
H         -1.73220       -1.46220        0.13960
H         -2.21090        1.01360       -0.23170
H         -1.04420        0.27210       -1.44590
H         -0.37610        2.54480        0.26240
H          1.93680        1.65930        0.16680
H          2.29650       -0.73720       -0.36400
H          0.90430       -0.52920       -1.54120
16

C         -0.15130       -1.28500        0.19700
C         -1.18930       -0.30730       -0.36050
C         -1.03230        0.95670        0.49280
C          0.33830        1.45500        0.18660
C          1.30740        0.64790       -0.17810
C          1.18780       -0.82160       -0.33380
H         -0.11110       -1.18460        1.29800
H         -0.41250       -2.29850       -0.14180
H         -0.88410        0.02060       -1.39130
H         -2.19660       -0.70350       -0.33540
H         -1.81490        1.69820        0.25290
H         -1.06590        0.67670        1.57200
H          0.51730        2.52120        0.27450
H          2.28560        1.11900       -0.38150
H          1.25640       -1.12980       -1.41120
H          1.96500       -1.36490        0.25970
16

C          0.67890       -1.11270        0.16010
C         -0.75340       -0.91070        0.57340
C         -1.35780        0.08320       -0.43010
C         -0.70320        1.37180       -0.13100
C          0.60590        1.38460       -0.02650
C          1.39560        0.13320       -0.20930
H          1.21150       -1.59810        1.02980
H          0.65330       -1.84810       -0.69680
H         -1.33370       -1.83060        0.59630
H         -0.77390       -0.42350        1.58870
H         -1.04440       -0.24160       -1.44580
H         -2.45640        0.10520       -0.31490
H         -1.30220        2.24460       -0.00980
H          1.10430        2.33810        0.20170
H          2.32750        0.26920        0.38920
H          1.74800        0.03550       -1.27520
16

C          0.04380       -0.93130        0.88070
C         -1.14040       -0.65770       -0.05410
C         -1.16430        0.83660       -0.27890
C          0.19090        1.40940       -0.41040
C          1.32010        0.72100       -0.29900
C          1.27180       -0.74130       -0.02100
H          0.00830       -1.92520        1.32010
H          0.08610       -0.16880        1.68780
H         -2.05620       -1.05520        0.37160
H         -0.89410       -1.11180       -1.05500
H         -1.78230        1.04510       -1.20110
H         -1.66350        1.29350        0.62540
H          0.25300        2.48360       -0.61530
H          2.28370        1.17400       -0.40140
H          1.06530       -1.24840       -1.00400
H          2.17790       -1.12340        0.45480
