19

C         -2.32920        0.81410        0.13950
C         -0.94380        0.29370        0.31270
C         -0.80420       -1.14960       -0.14880
C          0.72800       -1.25040       -0.10840
C          1.09640        0.13370       -0.59040
O         -0.01080        0.93230       -0.47650
C          2.23020        0.74270        0.17490
H         -2.53530        0.89200       -0.94530
H         -3.04150        0.16170        0.66600
H         -2.38630        1.80780        0.61920
H         -0.59940        0.31310        1.37300
H         -1.28510       -1.86540        0.51540
H         -1.09250       -1.24370       -1.21860
H          1.10790       -2.05240       -0.73170
H          0.98920       -1.33320        0.97080
H          1.35560        0.01490       -1.68260
H          2.90260       -0.00310        0.60880
H          1.81320        1.35570        1.00220
H          2.80510        1.43600       -0.48030
19

C          2.12460        0.44760        0.29560
C          1.14160       -0.03680       -0.72570
C          0.48400       -1.33400       -0.37450
C         -0.70300       -0.93380        0.46430
C         -0.76180        0.55880        0.23320
O          0.06920        0.84360       -0.83310
C         -2.19320        0.95180       -0.08670
H          1.63240        1.03370        1.10830
H          2.81540        1.17540       -0.20650
H          2.76280       -0.35800        0.70350
H          1.68040       -0.17300       -1.67760
H          0.12100       -1.78780       -1.33180
H          1.13540       -2.06580        0.09880
H         -0.55950       -1.13790        1.54110
H         -1.65030       -1.41440        0.12950
H         -0.45900        1.10110        1.16240
H         -2.44690        0.72340       -1.15270
H         -2.91200        0.37500        0.52380
H         -2.28110        2.03120        0.12810
19

C          2.24230        0.91680       -0.15120
C          0.85690        0.41630       -0.41660
C          0.79720       -1.10190       -0.28060
C         -0.70530       -1.31620       -0.15000
C         -1.17290        0.02090        0.35380
O         -0.05290        0.80160        0.57550
C         -2.08820        0.67890       -0.64060
H          2.96350        0.32230       -0.71970
H          2.28430        1.99370       -0.38000
H          2.46360        0.77130        0.92000
H          0.52460        0.72390       -1.41880
H          1.32410       -1.41420        0.63740
H          1.17910       -1.57130       -1.19900
H         -1.10100       -1.57740       -1.14170
H         -0.85040       -2.12700        0.57530
H         -1.69630       -0.12950        1.30950
H         -2.73360        1.38250       -0.08010
H         -2.69660       -0.07780       -1.16890
H         -1.53850        1.28710       -1.38780
19

C          2.37900        0.58930        0.33880
C          0.98210        0.34620       -0.05180
C          0.72380       -1.09000       -0.52980
C         -0.79200       -0.93000       -0.70750
C         -1.09490       -0.18650        0.58490
O          0.06580        0.44560        0.96970
C         -2.21630        0.78690        0.33280
H          2.40820        1.17550        1.28300
H          2.98050       -0.33570        0.40110
H          2.85660        1.24960       -0.43120
H          0.61110        0.99580       -0.88610
H          1.23360       -1.32230       -1.45500
H          0.94730       -1.73970        0.32640
H         -0.92370       -0.21510       -1.52740
H         -1.30920       -1.87180       -0.79900
H         -1.40640       -0.93020        1.36720
H         -1.79700        1.75290       -0.04340
H         -2.86980        0.32600       -0.45150
H         -2.77890        0.95350        1.27890
19

C          2.31500        0.34630       -0.11880
C          1.03830       -0.26900       -0.68320
C          0.50250       -1.36130        0.21190
C         -0.98700       -0.98880        0.21550
C         -0.83230        0.51040        0.26340
O          0.09410        0.73270       -0.73180
C         -2.11670        1.24310        0.01620
H          2.69990        1.03260       -0.89840
H          3.06010       -0.41570        0.14640
H          2.03760        0.92330        0.77320
H          1.25420       -0.67200       -1.71560
H          0.68100       -2.36780       -0.14980
H          0.86020       -1.18610        1.26160
H         -1.52510       -1.41440        1.05090
H         -1.36990       -1.27170       -0.78390
H         -0.43460        0.82590        1.25170
H         -2.52700        1.03910       -0.98410
H         -1.89910        2.32450        0.07400
H         -2.85130        0.96890        0.80070
