20

C         -2.73540        0.78510       -0.13070
C         -1.70460        0.04890        0.69450
C         -0.45870       -0.08560       -0.18810
C          0.64120       -0.81270        0.54770
C          1.84680       -0.92790       -0.34790
C          2.38250        0.41710       -0.77490
I          2.96300        1.57480        0.91120
H         -2.49910        0.71640       -1.21160
H         -3.73570        0.37780        0.11120
H         -2.63920        1.86910        0.13990
H         -1.48180        0.58150        1.63080
H         -2.09540       -0.95230        0.96580
H         -0.10510        0.90070       -0.51630
H         -0.77640       -0.66050       -1.08170
H          0.33940       -1.79830        0.89800
H          0.89850       -0.21530        1.46240
H          1.49430       -1.44350       -1.28220
H          2.65640       -1.51500        0.10790
H          1.70070        0.93510       -1.45290
H          3.30890        0.20450       -1.38470
20

C         -2.18100        0.68800        0.61440
C         -1.75370       -0.19430       -0.51350
C         -0.71300       -1.19720       -0.13410
C          0.55140       -0.61860        0.37430
C          1.25580        0.28500       -0.60610
C          2.53550        0.82820        0.00080
I          3.78430       -0.84370        0.48150
H         -2.78180        0.14940        1.38630
H         -2.87970        1.45470        0.18890
H         -1.35640        1.23020        1.09170
H         -1.38730        0.42590       -1.34140
H         -2.65960       -0.77190       -0.84260
H         -0.46910       -1.77780       -1.06760
H         -1.08430       -1.93960        0.58570
H          1.24990       -1.44830        0.60590
H          0.42090       -0.04980        1.31850
H          1.50320       -0.29450       -1.49950
H          0.59150        1.15120       -0.85080
H          2.32270        1.42050        0.91920
H          3.05080        1.50270       -0.71160
20

C          2.88120       -0.08430       -0.30370
C          1.71230       -0.34930        0.61600
C          0.43460        0.29580        0.10020
C         -0.66000       -0.02770        1.08400
C         -1.98890        0.55860        0.68510
C         -2.45150        0.03900       -0.66650
I         -2.63730       -2.08680       -0.52550
H          2.91230       -0.95030       -1.02070
H          3.84480       -0.11740        0.25550
H          2.82450        0.88560       -0.80440
H          1.50640       -1.42150        0.74390
H          1.95880        0.05780        1.61790
H          0.20620       -0.07830       -0.90860
H          0.56840        1.39050        0.04820
H         -0.79370       -1.12600        1.17680
H         -0.39920        0.38820        2.07060
H         -2.00260        1.65760        0.73310
H         -2.73500        0.19830        1.42400
H         -3.44430        0.51490       -0.85770
H         -1.73700        0.25530       -1.47230
20

C          3.19210        0.10420        0.09670
C          1.78540        0.37880        0.53910
C          0.74620       -0.22480       -0.36960
C         -0.61190        0.13130        0.19660
C         -1.73780       -0.42690       -0.64160
C         -3.03580        0.01040        0.04830
I         -4.70310       -0.71520       -1.03800
H          3.61340       -0.75750        0.63200
H          3.20880       -0.01510       -1.00200
H          3.80730        0.98610        0.38130
H          1.61380        1.49300        0.50730
H          1.56970        0.02960        1.56690
H          0.81330       -1.34390       -0.31660
H          0.82520        0.10110       -1.41600
H         -0.74630       -0.27020        1.21980
H         -0.77310        1.22770        0.25950
H         -1.70600       -1.50690       -0.77350
H         -1.72290        0.06450       -1.63550
H         -3.08240       -0.37850        1.08300
H         -3.05620        1.11230        0.12390
20

C          2.74810        0.82020        0.19030
C          1.81510       -0.22260       -0.35750
C          0.38480        0.02530        0.12850
C         -0.56000       -1.00080       -0.40480
C         -1.94880       -0.73220        0.08890
C         -2.46230        0.62680       -0.33900
I         -2.50810        0.79460       -2.46500
H          2.12870        1.72920        0.42390
H          3.17690        0.50420        1.16110
H          3.52040        1.14620       -0.50940
H          1.85210       -0.32790       -1.45160
H          2.14210       -1.20900        0.07490
H          0.36130       -0.00290        1.22010
H          0.10750        1.01570       -0.30640
H         -0.28710       -2.02680       -0.06660
H         -0.55150       -1.05390       -1.52240
H         -2.63240       -1.49860       -0.31420
H         -1.95060       -0.84290        1.18360
H         -1.84840        1.45660        0.04490
H         -3.48780        0.79880        0.04850
