26

C          3.55280       -0.56440        0.95590
C          2.60200       -0.39400       -0.18810
C          1.26640        0.09410        0.34300
C          0.32440        0.26070       -0.80890
C         -1.03540        0.74350       -0.39730
C         -1.91810        0.88490       -1.60670
C         -1.68820       -0.23170        0.54830
C         -3.04610        0.22880        0.97270
H          3.63850        0.39300        1.50490
H          3.20620       -1.34390        1.64620
H          4.55260       -0.78670        0.54420
H          2.49070       -1.32110       -0.77470
H          2.98780        0.38510       -0.87590
H          1.47220        1.09020        0.81020
H          0.94580       -0.61760        1.10220
H          0.27680       -0.67570       -1.38950
H          0.78720        1.03020       -1.49010
H         -0.97540        1.71050        0.10580
H         -2.92960        0.46250       -1.42000
H         -1.45070        0.33290       -2.44350
H         -2.00620        1.96360       -1.88960
H         -1.05500       -0.45580        1.44210
H         -1.79130       -1.19200        0.00880
H         -3.35130        1.15780        0.44950
H         -3.05860        0.49960        2.06680
H         -3.79750       -0.54950        0.78370
26

C          3.08430       -0.70360       -0.54020
C          2.52280        0.65360       -0.25750
C          1.30060        0.64070        0.60330
C          0.19560       -0.15630       -0.06270
C         -1.04160       -0.16760        0.81200
C         -1.54870        1.22040        1.05520
C         -2.08780       -1.02700        0.13230
C         -2.45370       -0.49610       -1.22810
H          2.50510       -1.53600       -0.10130
H          4.12390       -0.81630       -0.12420
H          3.18610       -0.89770       -1.62850
H          3.29890        1.24620        0.26320
H          2.24000        1.18580       -1.21240
H          1.48780        0.27830        1.62620
H          0.94700        1.68850        0.70010
H          0.50290       -1.19180       -0.28410
H         -0.07760        0.33100       -1.02180
H         -0.80040       -0.67330        1.77930
H         -1.00920        1.73490        1.87420
H         -2.62790        1.14910        1.30990
H         -1.42480        1.79810        0.11100
H         -2.98010       -1.07800        0.80240
H         -1.62700       -2.05230        0.04360
H         -2.04050       -1.18430       -1.99820
H         -2.11170        0.53570       -1.34630
H         -3.56410       -0.48210       -1.30760
26

C          3.69550       -0.24340        0.21420
C          2.48490        0.63820        0.01330
C          1.28390       -0.25860       -0.09970
C         -0.00190        0.52340       -0.30550
C         -1.11270       -0.49410       -0.40080
C         -1.20320       -1.31380        0.84600
C         -2.42380        0.11570       -0.82150
C         -2.92650        1.16600        0.10990
H          4.27570       -0.31190       -0.72780
H          3.41020       -1.26390        0.49090
H          4.35060        0.15780        1.00350
H          2.38730        1.27010        0.90920
H          2.66040        1.25820       -0.86350
H          1.38770       -0.91320       -1.00110
H          1.19980       -0.89470        0.78090
H          0.04220        1.13410       -1.21060
H         -0.20420        1.17220        0.57770
H         -0.81870       -1.19770       -1.23280
H         -1.08360       -0.68190        1.76060
H         -2.19440       -1.80780        0.89950
H         -0.44000       -2.11980        0.78940
H         -3.16790       -0.70250       -0.85410
H         -2.30310        0.52980       -1.84050
H         -3.45740        0.65680        0.94620
H         -2.12960        1.83220        0.44320
H         -3.71090        1.74860       -0.42690
26

C         -3.72760        0.35610        0.14940
C         -2.58470       -0.62380        0.20240
C         -1.27560        0.13830        0.18340
C         -0.11430       -0.81720        0.23560
C          1.21730       -0.15900        0.22110
C          2.28040       -1.23480        0.27740
C          1.42150        0.78500       -0.92750
C          2.81220        1.38300       -0.82100
H         -3.96600        0.64730       -0.88570
H         -3.46770        1.25350        0.71800
H         -4.62950       -0.14160        0.55790
H         -2.64250       -1.15790        1.17140
H         -2.62480       -1.37370       -0.62000
H         -1.29300        0.86180        0.99370
H         -1.27550        0.71530       -0.78050
H         -0.20250       -1.53100       -0.60260
H         -0.20310       -1.40030        1.17520
H          1.33370        0.44290        1.16190
H          1.96980       -1.93620        1.08840
H          3.28410       -0.84350        0.43180
H          2.23280       -1.76540       -0.71060
H          1.21960        0.34570       -1.91020
H          0.71400        1.64440       -0.76380
H          3.21100        1.22180        0.21070
H          2.85260        2.42920       -1.14230
H          3.45780        0.76010       -1.50250
26

C          3.19290        0.92260        0.36300
C          1.99110        0.49610       -0.45810
C          1.41800       -0.80090        0.08410
C          0.22420       -1.23100       -0.72780
C         -0.89650       -0.23790       -0.73350
C         -2.01210       -0.80180       -1.57890
C         -1.35580        0.09240        0.66690
C         -2.47300        1.08020        0.69970
H          4.09190        0.95590       -0.29810
H          3.01950        1.92590        0.76510
H          3.36160        0.23470        1.21830
H          2.27540        0.35570       -1.51530
H          1.19800        1.29610       -0.40470
H          2.20680       -1.58060       -0.08880
H          1.20210       -0.71390        1.15100
H         -0.11520       -2.23050       -0.41760
H          0.55930       -1.34510       -1.79420
H         -0.56300        0.69190       -1.22820
H         -2.54930       -1.61690       -1.07070
H         -2.69380       -0.01160       -1.93730
H         -1.52250       -1.22970       -2.49750
H         -1.63260       -0.84030        1.20590
H         -0.49980        0.52540        1.22240
H         -3.13700        1.02090       -0.19400
H         -3.13890        0.90640        1.59320
H         -2.15130        2.13600        0.77140
