14

C         -0.50850        1.30970        0.04870
C          0.03970       -0.07360        0.36150
C          1.39670       -0.16960       -0.30190
C         -0.92160       -1.12210       -0.13400
Br         0.32540       -0.26350        2.27810
H         -1.52250        1.21540       -0.42180
H          0.12360        1.85410       -0.68130
H         -0.65480        1.86860        0.99290
H          2.21420        0.01000        0.44390
H          1.52510        0.63150       -1.07460
H          1.59640       -1.16220       -0.73640
H         -1.84410       -0.62810       -0.54550
H         -0.46600       -1.71210       -0.94030
H         -1.30350       -1.75820        0.71060
14

C         -1.13060       -0.86150        0.18910
C          0.05020        0.06270        0.38310
C          1.35090       -0.55440       -0.06010
C         -0.22930        1.29390       -0.48650
Br         0.21210        0.63580        2.21640
H         -1.63770       -0.67530       -0.79280
H         -0.83720       -1.91060        0.32290
H         -1.89860       -0.56260        0.95370
H          2.02270        0.24150       -0.47790
H          1.11790       -1.21640       -0.91910
H          1.86310       -1.08270        0.76740
H          0.23240        1.06210       -1.47120
H          0.21420        2.15920        0.02110
H         -1.33000        1.40820       -0.64590
14

C         -0.13770        1.33840        0.33190
C          0.01020       -0.01600       -0.36910
C         -1.18910       -0.82890        0.03460
C          1.31300       -0.60840        0.04340
Br        -0.03490        0.29520       -2.28900
H         -0.40630        1.16770        1.39360
H          0.84220        1.82930        0.29940
H         -0.91870        1.91780       -0.21930
H         -1.08330       -1.90030       -0.11110
H         -1.45400       -0.57460        1.08440
H         -2.03700       -0.48970       -0.62390
H          2.03020        0.23670        0.24470
H          1.79420       -1.17730       -0.79800
H          1.27140       -1.18980        0.97840
14

C          1.21080       -0.73790        0.21170
C          0.01880       -0.02560       -0.33760
C          0.02920        1.39640        0.22220
C         -1.29190       -0.65900        0.00130
Br         0.20550        0.14790       -2.26850
H          1.05130       -1.82100        0.38790
H          1.63950       -0.22330        1.11300
H          2.03880       -0.68780       -0.55060
H         -0.95090        1.85530        0.01590
H          0.83950        1.92400       -0.31880
H          0.25210        1.29380        1.30430
H         -1.89340       -0.80750       -0.93550
H         -1.93960       -0.02290        0.65260
H         -1.20970       -1.63220        0.50200
14

C         -0.71930        1.19680       -0.26280
C         -0.01090       -0.14970       -0.30160
C         -0.72050       -1.19570        0.48430
C          1.40890        0.09760        0.17920
Br         0.13560       -0.67640       -2.17380
H         -0.49850        1.78840       -1.18700
H         -1.80210        0.98030       -0.15010
H         -0.33220        1.71730        0.64430
H         -0.10630       -1.63150        1.30960
H         -1.62060       -0.73450        0.97010
H         -1.06810       -1.99610       -0.21900
H          1.96840       -0.83390        0.35150
H          1.44600        0.80590        1.02920
H          1.91960        0.63150       -0.67380
