30

C          4.27620       -0.40170       -0.49410
C          2.79100       -0.07360       -0.46420
C          2.33000        0.10010        0.96280
C          0.88730        0.43560        0.99100
C          0.04000       -0.64250        0.36570
C         -1.39820       -0.21140        0.46430
C         -1.66590        1.09200       -0.25100
C         -3.19380        1.12940       -0.09170
C         -3.56300       -0.26640       -0.47000
C         -2.34650       -1.13710       -0.24450
H          4.80200        0.57140       -0.58170
H          4.53300       -1.07660       -1.33630
H          4.51090       -0.89760        0.46160
H          2.54810        0.83010       -1.02740
H          2.27430       -0.94680       -0.95950
H          2.47730       -0.83210        1.55260
H          2.96050        0.89900        1.40040
H          0.73630        1.41440        0.46620
H          0.56590        0.61600        2.05120
H          0.31760       -0.70700       -0.71440
H          0.20640       -1.61140        0.86800
H         -1.73990       -0.08680        1.50400
H         -1.39960        0.98950       -1.32060
H         -1.20400        1.96800        0.23470
H         -3.37410        1.30140        0.98990
H         -3.63910        1.90730       -0.73730
H         -3.90440       -0.26410       -1.51940
H         -4.37310       -0.59740        0.23180
H         -2.55310       -2.01460        0.38940
H         -1.90240       -1.48730       -1.22250
30

C         -3.38060        1.17250        0.15370
C         -3.31360       -0.29550       -0.18510
C         -1.91560       -0.83050       -0.18030
C         -1.01490       -0.14230       -1.17070
C          0.36960       -0.70170       -1.13910
C          1.05430       -0.57540        0.19470
C          1.18470        0.86100        0.62500
C          2.63280        1.16320        0.81260
C          3.41160       -0.06470        0.47670
C          2.45660       -1.11890        0.03170
H         -2.36060        1.51790        0.36480
H         -3.80090        1.74560       -0.72150
H         -4.08440        1.38510        0.99350
H         -3.88220       -0.83330        0.60030
H         -3.80440       -0.46740       -1.17450
H         -1.51020       -0.71160        0.86050
H         -1.96640       -1.90380       -0.45260
H         -1.43090       -0.34040       -2.17980
H         -0.99910        0.95400       -1.04850
H          0.33110       -1.78690       -1.38700
H          1.00850       -0.22940       -1.89130
H          0.47510       -1.15550        0.95310
H          0.68170        1.03450        1.61930
H          0.72670        1.53140       -0.12650
H          2.87120        1.55760        1.82960
H          2.92310        1.98430        0.10720
H          4.18770        0.16040       -0.29420
H          3.93000       -0.45260        1.39780
H          2.68790       -1.39950       -1.01370
H          2.53130       -2.05800        0.63370
30

C         -3.55650       -0.63100       -0.27340
C         -3.35620        0.30790        0.89730
C         -2.13990        1.16900        0.66230
C         -0.87930        0.30490        0.50740
C          0.24890        1.25360        0.28190
C          1.58840        0.62100        0.10200
C          2.03870       -0.19460        1.26860
C          3.08690       -1.13050        0.70460
C          3.03010       -0.99490       -0.79720
C          1.66340       -0.34090       -1.03980
H         -4.60820       -0.61590       -0.60810
H         -3.34010       -1.68690        0.01480
H         -2.93820       -0.34500       -1.15670
H         -4.22780        0.99410        0.92240
H         -3.32830       -0.21390        1.86770
H         -2.27130        1.67540       -0.31670
H         -1.93360        1.85190        1.49590
H         -1.05160       -0.35760       -0.37810
H         -0.73800       -0.33990        1.37370
H          0.01030        1.94070       -0.55170
H          0.31830        1.90130        1.20030
H          2.32920        1.41560       -0.07040
H          2.46870        0.49060        2.03470
H          1.22200       -0.73760        1.75070
H          2.76510       -2.16900        0.94290
H          4.06310       -0.88630        1.13280
H          3.84760       -0.34580       -1.12040
H          3.07800       -1.97610       -1.30970
H          0.89640       -1.11340       -0.97380
H          1.71390        0.15330       -2.03360
30

C          3.19500        1.15070       -0.18680
C          3.10270       -0.23240        0.40680
C          2.27950       -1.16850       -0.41860
C          0.85890       -0.71750       -0.60140
C          0.17230       -0.59090        0.71830
C         -1.23860       -0.14960        0.65380
C         -2.16640       -1.02560       -0.11220
C         -3.33610       -0.11730       -0.45730
C         -2.96570        1.26820        0.02900
C         -1.45110        1.19790        0.03150
H          2.32670        1.44780       -0.77590
H          4.11540        1.25380       -0.81360
H          3.32980        1.90220        0.64570
H          4.13740       -0.62480        0.46570
H          2.75100       -0.12460        1.44710
H          2.74020       -1.21970       -1.42750
H          2.33790       -2.17610        0.03650
H          0.79600        0.18320       -1.23930
H          0.34700       -1.54570       -1.17460
H          0.73140        0.13580        1.34550
H          0.18980       -1.60160        1.19490
H         -1.62410       -0.08600        1.70160
H         -2.50460       -1.88900        0.51460
H         -1.67630       -1.37710       -1.02650
H         -4.27700       -0.46490        0.00560
H         -3.43550       -0.05650       -1.55760
H         -3.34600        2.06620       -0.63410
H         -3.28240        1.38990        1.08480
H         -1.13060        1.14410       -1.05050
H         -0.97680        2.02800        0.56340
30

C          3.54070        1.10700       -0.14870
C          3.37950       -0.37440       -0.27550
C          2.24510       -0.92760        0.54380
C          0.91030       -0.32320        0.14190
C         -0.11350       -0.95160        1.02180
C         -1.51120       -0.50050        0.79880
C         -1.75810        0.95150        0.99450
C         -3.06600        1.17740        0.27460
C         -3.33450       -0.03040       -0.56600
C         -1.96800       -0.69580       -0.64070
H          3.61180        1.44200        0.91050
H          4.52340        1.37140       -0.61870
H          2.76360        1.64220       -0.71060
H          4.30710       -0.85980        0.09200
H          3.28010       -0.61730       -1.34820
H          2.17140       -2.01310        0.30740
H          2.42770       -0.72830        1.60310
H          0.71430       -0.43670       -0.93450
H          0.94380        0.79020        0.32380
H         -0.07490       -2.04820        0.86620
H          0.15400       -0.72840        2.07430
H         -2.21850       -1.07200        1.42430
H         -1.87600        1.22130        2.05590
H         -0.97020        1.59540        0.53690
H         -3.06470        2.07100       -0.36730
H         -3.88840        1.28860        1.02900
H         -3.74130        0.21460       -1.55600
H         -4.03650       -0.73740       -0.03850
H         -1.32940       -0.07530       -1.28780
H         -2.02160       -1.75250       -0.92140
