40

C          4.78150        2.40110        0.98830
C          3.47850        1.76290        0.66050
O          3.15270        0.71120        1.48790
P          1.62530        0.09210        0.96980
S          0.68720        0.04400        2.44680
O          1.90270       -1.45460        0.40870
C          3.26300       -1.71760        0.26420
C          3.40520       -3.12920       -0.24360
S          0.75230        1.39960       -0.35410
C         -0.38940        0.74940       -1.55610
C          0.16870       -0.21530       -2.54100
Cl        -1.14330       -0.72540       -3.63180
N         -1.69090        0.40980       -1.02780
C         -2.08720       -0.68320       -0.21370
O         -1.39690       -1.70660        0.03050
C         -3.43540       -0.48470        0.29180
C         -4.26190       -1.25350        1.12710
C         -5.52590       -0.83310        1.45770
C         -5.99600        0.36180        0.96450
C         -5.17340        1.11820        0.13890
C         -3.90370        0.70450       -0.19840
C         -2.85000        1.27630       -1.01820
O         -2.91430        2.38050       -1.64850
H          5.60310        1.66790        0.86110
H          4.97080        3.19160        0.21410
H          4.77480        2.91380        1.95420
H          2.69050        2.56370        0.72360
H          3.45780        1.41650       -0.38700
H          3.64840       -0.97420       -0.46360
H          3.79980       -1.61970        1.23180
H          3.05510       -3.81020        0.55400
H          4.44860       -3.33710       -0.55090
H          2.69260       -3.24970       -1.10400
H         -0.60850        1.68490       -2.21240
H          0.93460        0.31010       -3.15070
H          0.67890       -1.08410       -2.09000
H         -3.88920       -2.19160        1.51010
H         -6.18740       -1.42360        2.11050
H         -6.99590        0.67180        1.23830
H         -5.52290        2.06150       -0.25890
40

C         -3.66600        3.12680       -0.45740
C         -3.72750        1.94410        0.52910
O         -2.46860        1.34550        0.34340
P         -2.61390       -0.24990        0.02300
S         -3.05250       -0.29390       -1.73020
O         -3.70220       -1.12350        0.90610
C         -4.49700       -1.88120       -0.00450
C         -4.17230       -3.32110        0.24650
S         -0.70210       -1.19690        0.16500
C          0.50600       -0.12210       -0.47940
C          0.48800        1.26890        0.23490
Cl         0.56310        1.15530        1.97120
N          1.85730       -0.67270       -0.41080
C          2.83480       -0.47290       -1.42440
O          2.61910       -0.30340       -2.66000
C          4.18160       -0.49110       -0.82820
C          5.30520        0.30530       -1.11760
C          6.22130        0.66580       -0.16400
C          6.12800        0.06880        1.08790
C          5.05290       -0.73060        1.37130
C          4.02240       -0.95590        0.46650
C          2.57180       -1.07340        0.74490
O          2.06020       -1.46660        1.81820
H         -4.09190        2.62790       -1.42030
H         -4.32970        3.91610       -0.24050
H         -2.63590        3.39900       -0.68460
H         -3.77510        2.38650        1.56850
H         -4.51410        1.24220        0.35770
H         -5.57400       -1.74940        0.39230
H         -4.53100       -1.54840       -1.00990
H         -3.41080       -3.38700        1.08400
H         -3.57280       -3.65500       -0.67010
H         -4.98150       -3.99760        0.45540
H          0.31190        0.19950       -1.53150
H          1.51150        1.68440       -0.08990
H         -0.23200        1.94270       -0.20140
H          5.29330        0.84340       -2.05060
H          6.75930        1.63140       -0.22520
H          6.97140        0.17040        1.77320
H          4.99160       -1.23130        2.32400
40

C         -2.76620       -2.71790        0.16950
C         -3.61670       -1.70040        0.89680
O         -2.74240       -0.74470        1.46560
P         -2.56660        0.54160        0.43940
S         -2.43210        2.07830        1.19170
O         -3.84800        0.71670       -0.64160
C         -4.88120        1.39330        0.07280
C         -5.11810        2.71060       -0.63050
S         -0.89600        0.03280       -0.77690
C          0.64230        0.79240       -0.19310
C          0.66040        1.28160        1.17630
Cl         2.34040        1.83550        1.53770
N          1.80120       -0.05460       -0.45000
C          2.44630       -0.90690        0.51000
O          1.94220       -1.31940        1.57460
C          3.79950       -1.25350        0.00000
C          4.98670       -1.31550        0.75390
C          6.20650       -0.91890        0.24840
C          6.28710       -0.52080       -1.07130
C          5.12990       -0.47430       -1.82220
C          3.87780       -0.80060       -1.28700
C          2.61880       -0.08560       -1.60230
O          2.30930        0.35430       -2.73450
H         -2.99520       -2.60490       -0.92210
H         -1.68140       -2.43550        0.23630
H         -2.93080       -3.71250        0.50980
H         -4.39550       -1.23320        0.34190
H         -4.02810       -2.22220        1.82200
H         -5.84130        0.78050       -0.10210
H         -4.67330        1.47180        1.09260
H         -4.23140        2.92090       -1.33070
H         -6.04150        2.87860       -1.12560
H         -4.95840        3.55810        0.12490
H          0.75610        1.63200       -0.96020
H          0.08990        2.23270        1.34660
H          0.37220        0.51430        1.93560
H          4.91280       -1.51930        1.80480
H          7.07420       -0.90830        0.87900
H          7.22430       -0.12250       -1.43270
H          5.16630       -0.15430       -2.84080
40

C         -4.59610        2.86610        0.62210
C         -3.79290        1.82180       -0.15230
O         -3.27650        0.94990        0.80270
P         -2.34920       -0.28230        0.12510
S         -2.51570       -0.35790       -1.59270
O         -2.77610       -1.80670        0.71840
C         -4.12950       -2.04750        0.67410
C         -4.33370       -3.45590        1.24010
S         -0.32000        0.02720        0.62100
C          0.68230        0.49130       -0.79570
C          0.26290        1.84290       -1.29470
Cl         0.40430        3.14860       -0.12250
N          2.07090        0.34410       -0.49170
C          2.92020       -0.54770       -1.23450
O          2.62490       -1.20150       -2.27790
C          4.24130       -0.63150       -0.63000
C          5.39150       -1.33020       -0.95460
C          6.50360       -1.17930       -0.15160
C          6.47760       -0.35020        0.95500
C          5.32610        0.34930        1.28210
C          4.20810        0.19420        0.46990
C          2.86550        0.80630        0.57510
O          2.47670        1.60160        1.47180
H         -5.53490        2.36760        0.94620
H         -4.78290        3.76160       -0.01190
H         -3.96520        3.12200        1.52130
H         -4.51340        1.31690       -0.84380
H         -3.03500        2.28850       -0.77950
H         -4.58070       -1.94070       -0.31180
H         -4.67270       -1.36220        1.37120
H         -4.26730       -3.47870        2.33540
H         -3.54260       -4.14810        0.85920
H         -5.31780       -3.86820        0.93820
H          0.38680       -0.20920       -1.65180
H         -0.82360        1.75870       -1.55170
H          0.74730        2.09780       -2.27320
H          5.41970       -1.99250       -1.82870
H          7.43620       -1.71330       -0.37170
H          7.37780       -0.26100        1.55380
H          5.30200        1.00790        2.15710
40

C         -4.29270       -1.76640       -3.19250
C         -3.45030       -1.49430       -1.96110
O         -3.47220       -0.13830       -1.72180
P         -2.57250        0.31820       -0.37310
S         -2.77590        2.01590       -0.16910
O         -3.10430       -0.45260        1.03340
C         -3.91310        0.42830        1.76490
C         -4.41510       -0.21530        3.03540
S         -0.52410       -0.07150       -0.62740
C          0.47780        0.83490        0.56290
C          0.23460        0.35940        1.97560
Cl         1.27760        1.32440        3.07150
N          1.87530        0.63190        0.19140
C          2.77840        1.66810       -0.16300
O          2.52270        2.91070       -0.21610
C          4.09450        1.10460       -0.47250
C          5.30770        1.62270       -0.85910
C          6.41700        0.84490       -1.08700
C          6.31390       -0.53690       -0.91970
C          5.09860       -1.05760       -0.53270
C          3.98580       -0.27460       -0.30420
C          2.60520       -0.57100        0.10880
O          2.14360       -1.69960        0.34970
H         -5.27010       -1.27160       -3.02100
H         -3.83030       -1.23360       -4.05930
H         -4.37260       -2.83450       -3.40130
H         -3.89050       -2.07260       -1.11770
H         -2.39590       -1.80660       -2.15730
H         -4.78720        0.70360        1.15310
H         -3.29160        1.31990        1.98080
H         -3.57790       -0.40080        3.75870
H         -5.09260        0.50720        3.52540
H         -4.86750       -1.20460        2.84820
H          0.21040        1.91100        0.53320
H         -0.80700        0.64470        2.23690
H          0.37820       -0.71660        2.10830
H          5.39090        2.68420       -0.98720
H          7.37630        1.24060       -1.39120
H          7.19910       -1.14260       -1.10000
H          5.01570       -2.11360       -0.40400
