24

C          3.87060        0.45880        0.52180
O          2.55540        0.70830        0.01210
C          1.57350       -0.27050        0.00800
O          1.88000       -1.39420        0.47120
C          0.20130       -0.06070       -0.50750
C         -0.57330       -1.31440       -0.35490
C         -2.05050       -1.17290       -0.58340
C         -2.53580        0.23860       -0.57860
C         -1.83150        0.95800        0.56300
C         -0.38400        1.11130        0.24610
H          4.50790       -0.04400       -0.23590
H          3.80200       -0.12100        1.46280
H          4.35600        1.42880        0.76200
H          0.22570        0.21390       -1.60320
H         -0.34720       -1.77820        0.64860
H         -0.19680       -2.05070       -1.09760
H         -2.56940       -1.71070        0.24930
H         -2.39160       -1.68760       -1.51470
H         -3.61590        0.27370       -0.37520
H         -2.27770        0.69460       -1.55430
H         -2.28570        1.93000        0.78810
H         -1.91710        0.30390        1.46820
H          0.15640        1.24580        1.22510
H         -0.15210        2.03920       -0.33470
24

C          3.89640        0.15510       -0.04420
O          2.52650        0.44900        0.14240
C          1.54490       -0.51960       -0.09440
O          1.90680       -1.64430       -0.47270
C          0.13060       -0.12070        0.12840
C         -0.17620        1.03830       -0.79860
C         -1.58060        0.88560       -1.34100
C         -2.55160        0.46050       -0.27100
C         -2.18280       -0.81840        0.40450
C         -0.81580       -1.24760       -0.13420
H          4.34720       -0.37990        0.81060
H          4.06590       -0.50230       -0.93610
H          4.40450        1.13860       -0.21600
H          0.02290        0.22370        1.17950
H          0.52530        1.00200       -1.66080
H         -0.13500        2.01300       -0.27440
H         -1.93540        1.87410       -1.71960
H         -1.56560        0.20980       -2.21270
H         -3.56350        0.44970       -0.73130
H         -2.57410        1.28460        0.47890
H         -2.92800       -1.61710        0.31140
H         -2.02180       -0.68320        1.51400
H         -0.87410       -1.48630       -1.21270
H         -0.46640       -2.16440        0.39460
24

C          3.86770        0.67700        0.53450
O          2.48020        0.78580        0.35030
C          1.67540       -0.20060       -0.14590
O          2.18310       -1.30160       -0.47210
C          0.21920        0.02500       -0.29780
C         -0.44350        0.34590        1.04260
C         -1.79060        0.92410        0.67330
C         -2.60770        0.04750       -0.19010
C         -1.90270       -0.86590       -1.10690
C         -0.49980       -1.20580       -0.78520
H          4.14740        0.33470        1.55200
H          4.36930        0.07870       -0.26680
H          4.29170        1.71130        0.44270
H         -0.00810        0.84380       -1.02640
H          0.12520        1.05340        1.63470
H         -0.65390       -0.61520        1.57970
H         -2.33700        1.19420        1.59640
H         -1.57670        1.90110        0.14730
H         -3.33680       -0.50170        0.47660
H         -3.27760        0.71070       -0.81440
H         -2.48300       -1.83520       -1.14300
H         -1.93020       -0.50170       -2.17590
H         -0.48630       -1.93720        0.06120
H         -0.02530       -1.66830       -1.66680
24

C         -3.92940        0.06030       -0.53800
O         -2.64620       -0.17290       -0.02380
C         -1.52370        0.54330       -0.41900
O         -1.67450        1.44560       -1.28290
C         -0.17740        0.26760        0.14890
C          0.19320       -1.15950       -0.15440
C          1.56560       -1.38730        0.49180
C          2.52800       -0.56050       -0.34650
C          2.22560        0.88450       -0.29600
C          0.80170        1.27230       -0.33380
H         -3.90620        0.32830       -1.62160
H         -4.50000       -0.90190       -0.43050
H         -4.50910        0.80480        0.04560
H         -0.28410        0.33980        1.26010
H         -0.56950       -1.81570        0.30560
H          0.28310       -1.35600       -1.22770
H          1.53090       -0.93700        1.50930
H          1.84560       -2.43840        0.50730
H          2.51200       -1.00420       -1.37530
H          3.57170       -0.71750        0.02210
H          2.75430        1.33220        0.59650
H          2.73990        1.37460       -1.17510
H          0.67500        2.19690        0.29380
H          0.49350        1.60070       -1.36800
24

C          3.57050       -0.66810        0.02700
O          2.50130        0.07960       -0.51980
C          1.33750        0.21450        0.22340
O          1.30270       -0.34160        1.34970
C          0.15640        0.95760       -0.21950
C         -0.44270        0.41700       -1.49190
C         -1.26160       -0.84990       -1.21470
C         -2.35640       -0.41810       -0.25780
C         -1.68310       -0.15700        1.06530
C         -0.82750        1.09810        0.89010
H          4.01430       -0.15130        0.90580
H          3.16670       -1.63350        0.42350
H          4.37580       -0.84450       -0.69860
H          0.51060        2.00010       -0.47120
H         -1.19390        1.17040       -1.83720
H          0.32770        0.26430       -2.23990
H         -1.63400       -1.20130       -2.17580
H         -0.61190       -1.56440       -0.68350
H         -2.80040        0.55590       -0.58620
H         -3.17060       -1.16190       -0.18840
H         -2.40820        0.04710        1.87470
H         -1.06870       -1.03390        1.30290
H         -0.27190        1.31090        1.82310
H         -1.53280        1.91000        0.62790
