16

C         -2.48630       -0.08200        0.00900
C         -1.00000       -0.04810        0.02700
C         -0.25490       -1.06810       -0.52810
C          1.12440       -1.03940       -0.51290
C          1.83050        0.00120        0.05310
C          1.08280        1.02070        0.60790
C         -0.29870        0.99610        0.59490
O          3.21770        0.05340        0.08110
H         -2.88640       -0.88400        0.66960
H         -2.86640       -0.23550       -1.00640
H         -2.85070        0.88000        0.45120
H         -0.81020       -1.88930       -0.97460
H          1.70990       -1.84330       -0.95030
H          1.59280        1.86710        1.06820
H         -0.89680        1.80570        1.03560
H          3.79230        0.46560       -0.62520
16

C          2.47110       -0.26120       -0.01200
C          0.99590       -0.07060       -0.00720
C          0.26630       -0.29650        1.14120
C         -1.10130       -0.12520        1.16450
C         -1.80690        0.27800        0.04890
C         -1.07590        0.50400       -1.10080
C          0.29530        0.33270       -1.12560
O         -3.19000        0.44870        0.08150
H          2.83640       -0.17490       -1.06510
H          2.93730        0.54610        0.59120
H          2.76590       -1.26540        0.35160
H          0.84000       -0.61560        2.01740
H         -1.64760       -0.30710        2.06960
H         -1.62670        0.82100       -1.97930
H          0.87320        0.51170       -2.03550
H         -3.83280       -0.32590       -0.14060
16

C          2.48500       -0.01380        0.21020
C          0.99890       -0.00320        0.05290
C          0.27040       -1.16800       -0.06720
C         -1.10130       -1.16470       -0.21270
C         -1.82030        0.01360       -0.24580
C         -1.08600        1.17520       -0.12520
C          0.28390        1.17400        0.02020
O         -3.20450        0.02840       -0.39220
H          2.78220        0.40970        1.20810
H          2.84310       -1.04790        0.08830
H          2.92990        0.58110       -0.60300
H          0.84150       -2.10910       -0.04110
H         -1.66510       -2.08580       -0.30640
H         -1.64100        2.11320       -0.14970
H          0.86540        2.09650        0.11580
H         -3.78210        0.00080        0.44790
16

C          2.43270       -0.38560       -0.28570
C          0.98240       -0.14100       -0.07940
C          0.20340       -0.93920        0.73340
C         -1.14320       -0.69240        0.91000
C         -1.77890        0.36060        0.28600
C         -0.99940        1.15800       -0.52650
C          0.34790        0.91400       -0.70530
O         -3.14090        0.60490        0.46850
H          2.77430        0.02260       -1.25930
H          3.05220       -0.00110        0.55470
H          2.65350       -1.48740       -0.33600
H          0.69230       -1.77650        1.23380
H         -1.75380       -1.31830        1.54730
H         -1.48630        1.98480       -1.01960
H          0.96920        1.54110       -1.34660
H         -3.80550        0.15560       -0.17540
16

C         -2.47000       -0.01200        0.14660
C         -0.98200        0.00390        0.09500
C         -0.31490        1.11590       -0.36330
C          1.07470        1.12100       -0.40770
C          1.83330        0.03980       -0.00500
C          1.16070       -1.07590        0.45480
C         -0.23770       -1.07450        0.49700
O          3.22230        0.09370       -0.06860
H         -2.85030       -0.60230        1.01620
H         -2.87690       -0.48780       -0.79280
H         -2.89800        0.99510        0.17890
H         -0.90380        1.97530       -0.68390
H          1.58790        2.00660       -0.77210
H          1.72920       -1.94340        0.77920
H         -0.77080       -1.93880        0.85370
H          3.69620       -0.21640       -0.92800
