22

C         -3.70810        0.15080        0.36200
C         -3.55530       -0.33360       -0.92510
C         -2.28170       -0.53470       -1.44650
C         -1.13490       -0.26960       -0.72920
C         -1.28810        0.21630        0.56190
C         -2.55560        0.41300        1.07180
O         -0.13280        0.48460        1.28780
C          1.14430        0.29400        0.79420
C          2.29300        0.55690        1.50540
C          3.56100        0.36580        1.01050
C          3.70640       -0.11890       -0.27710
C          2.55840       -0.39300       -1.01830
C          1.29190       -0.18820       -0.48710
O          0.14410       -0.46510       -1.23560
Cl         2.63050       -1.00840       -2.65310
H         -4.70550        0.30120        0.75160
H         -4.43920       -0.55270       -1.51710
H         -2.14110       -0.91350       -2.45330
H         -2.69480        0.79040        2.07470
H          2.18250        0.93400        2.50700
H          4.46750        0.56600        1.55220
H          4.65710       -0.29530       -0.73660
