18

C          2.42220        0.39730        0.22340
C          1.02190        0.42480       -0.29300
C          0.39550       -0.93990       -0.10340
C         -1.02970       -0.97300       -0.61030
C         -1.82280        0.00920        0.12460
C         -2.42230        0.99560       -0.51090
H          2.64200       -0.57610        0.70840
H          3.19070        0.53950       -0.56150
H          2.53640        1.22840        0.94760
H          0.97830        0.68910       -1.37870
H          0.37710        1.13430        0.30540
H          1.00660       -1.69140       -0.65370
H          0.39020       -1.24210        0.95280
H         -1.00370       -0.71030       -1.67360
H         -1.43800       -1.99890       -0.43220
H         -1.91000       -0.08560        1.19570
H         -2.32410        1.07500       -1.58440
H         -3.01050        1.72410        0.03690
18

C         -2.12410       -0.83590        0.50270
C         -1.74100        0.51770        0.01400
C         -0.30000        0.86010        0.26960
C          0.65820       -0.09260       -0.39470
C          2.04650        0.34010       -0.07570
C          2.88950       -0.45470        0.56920
H         -3.22390       -0.82740        0.70330
H         -1.95180       -1.56670       -0.30510
H         -1.63730       -1.10940        1.44920
H         -1.92530        0.58400       -1.08870
H         -2.38070        1.26540        0.48850
H         -0.07600        1.88330       -0.08810
H         -0.09060        0.82200        1.36290
H          0.48310       -1.14060       -0.15260
H          0.52490        0.01720       -1.50100
H          2.37230        1.32840       -0.37930
H          2.59390       -1.44940        0.88650
H          3.88210       -0.14170        0.79560
18

C         -2.80450       -0.01020        0.05440
C         -1.45790        0.61310       -0.06900
C         -0.33130       -0.40730       -0.06040
C          0.96170        0.38790       -0.19310
C          2.14460       -0.48760       -0.19830
C          3.07080       -0.35530        0.72870
H         -3.15090        0.04680        1.09900
H         -2.86210       -1.04940       -0.32750
H         -3.52470        0.57660       -0.56790
H         -1.28530        1.27740        0.80320
H         -1.32440        1.21470       -0.98870
H         -0.26940       -0.95080        0.89720
H         -0.41950       -1.12540       -0.87330
H          0.96920        0.94000       -1.17450
H          1.06630        1.14400        0.58020
H          2.25000       -1.23530       -0.96100
H          3.96810       -0.97430        0.77610
H          2.99930        0.39520        1.52350
18

C         -2.64240        0.10520       -0.24580
C         -1.39620       -0.65100        0.07700
C         -0.13310        0.16380       -0.13300
C          1.03110       -0.71760        0.22790
C          2.33460       -0.04080        0.06690
C          2.48960        1.20650       -0.34860
H         -3.48080       -0.38490        0.31670
H         -2.57260        1.18540       -0.01490
H         -2.92250        0.02420       -1.31440
H         -1.33290       -1.55050       -0.54390
H         -1.42560       -0.97180        1.13290
H         -0.15360        1.10960        0.43920
H         -0.07810        0.40470       -1.21400
H          1.02200       -1.56710       -0.51280
H          0.90880       -1.20000        1.21800
H          3.22430       -0.60510        0.30580
H          3.47070        1.63600       -0.44260
H          1.65660        1.85330       -0.61240
18

C          2.19470       -0.02240       -0.82770
C          1.50850       -0.67790        0.35130
C          0.01650       -0.59510        0.26620
C         -0.47710        0.83620        0.22640
C         -1.94520        0.91660        0.14260
C         -2.71440       -0.16870        0.10800
H          1.66720       -0.22910       -1.78270
H          3.22530       -0.41230       -0.95930
H          2.21610        1.08480       -0.69760
H          1.81500       -1.73880        0.37260
H          1.91330       -0.17240        1.26300
H         -0.42520       -1.09290        1.13550
H         -0.29040       -1.08190       -0.68240
H         -0.06160        1.38160       -0.65340
H         -0.10930        1.39150        1.12110
H         -2.44400        1.87510        0.10670
H         -2.29500       -1.17910        0.14010
H         -3.79430       -0.11520        0.04610
