21

C         -2.99800        0.34550        0.66300
C         -1.93550        0.63020       -0.39970
C         -0.77560       -0.33170       -0.16100
O          0.16960       -0.06940       -1.11660
C          1.29980       -0.84140       -1.07540
C          2.00260       -0.67290        0.23460
C          2.40010        0.78400        0.43710
H         -3.13080       -0.74350        0.73240
H         -2.60620        0.70950        1.63280
H         -3.94480        0.83650        0.39790
H         -1.60600        1.68030       -0.29260
H         -2.33040        0.41680       -1.39920
H         -1.11520       -1.36260       -0.08710
H         -0.37090       -0.01440        0.84390
H          2.01190       -0.55390       -1.87420
H          1.10300       -1.92840       -1.21870
H          1.37720       -1.01490        1.07530
H          2.97560       -1.23720        0.22690
H          3.09820        1.05250       -0.39840
H          2.87180        0.91190        1.42230
H          1.50350        1.40300        0.35670
21

C          2.35630        1.28760        0.32480
C          2.45450       -0.02640       -0.41540
C          1.21600       -0.84130       -0.11440
O          0.05130       -0.18780       -0.51530
C         -1.00750       -1.03440       -0.18580
C         -2.34090       -0.44420       -0.56880
C         -2.58440        0.86690        0.13330
H          2.60140        2.11480       -0.39250
H          1.33630        1.41850        0.74260
H          3.04920        1.33190        1.18800
H          3.31270       -0.60350        0.01820
H          2.64260        0.08580       -1.48370
H          1.11890       -1.03350        0.97250
H          1.26320       -1.84170       -0.59710
H         -0.86420       -1.96770       -0.76780
H         -1.04010       -1.22050        0.91110
H         -2.47250       -0.33090       -1.65460
H         -3.11880       -1.15380       -0.19900
H         -2.92000        0.63760        1.18130
H         -1.67830        1.49250        0.21240
H         -3.37550        1.45010       -0.37440
21

C          2.87720       -0.84360       -0.31140
C          2.34670        0.18910        0.64190
C          0.84620        0.33440        0.56560
O          0.41110        0.71140       -0.68640
C         -0.93400        0.86010       -0.81170
C         -1.73980       -0.37910       -0.52360
C         -3.23040       -0.05770       -0.70710
H          2.11130       -1.54020       -0.68650
H          3.74450       -1.42100        0.12190
H          3.32570       -0.28390       -1.17860
H          2.60380       -0.15360        1.66850
H          2.84470        1.18400        0.53130
H          0.40160       -0.66770        0.77380
H          0.55080        1.10270        1.29660
H         -1.14350        1.16540       -1.86960
H         -1.28410        1.70080       -0.18730
H         -1.61920       -0.65640        0.54470
H         -1.52020       -1.21720       -1.17890
H         -3.41370       -0.16400       -1.80160
H         -3.41190        0.96800       -0.33500
H         -3.76700       -0.83150       -0.11720
21

C         -2.77140        0.51850        0.63290
C         -1.61610       -0.45650        0.45240
C         -1.09730       -0.22520       -0.95090
O         -0.05820       -1.08370       -1.17310
C          1.02230       -0.99280       -0.33630
C          1.61160        0.39580       -0.43340
C          2.82110        0.54030        0.46870
H         -2.33570        1.52890        0.58930
H         -3.52450        0.34080       -0.14110
H         -3.21450        0.39460        1.63710
H         -1.92240       -1.50620        0.53440
H         -0.80410       -0.19090        1.19160
H         -1.94970       -0.53160       -1.63540
H         -0.88190        0.84950       -1.15380
H          0.83060       -1.26710        0.72290
H          1.78720       -1.72640       -0.73050
H          0.83460        1.15770       -0.18360
H          1.95200        0.57280       -1.47320
H          2.50910        0.28340        1.47980
H          3.59600       -0.15800        0.13450
H          3.21130        1.55600        0.36760
21

C         -3.14620        0.08040        0.24080
C         -2.22370       -1.00160       -0.23820
C         -0.86420       -0.42260       -0.65770
O         -0.30650        0.19730        0.42450
C          0.90990        0.77850        0.24200
C          1.96370       -0.21460       -0.18810
C          3.26020        0.56440       -0.35130
H         -2.66070        1.07680        0.27680
H         -4.03460        0.19650       -0.41680
H         -3.50410       -0.20180        1.25600
H         -2.04860       -1.79420        0.52820
H         -2.72170       -1.50980       -1.08930
H         -0.22640       -1.31580       -0.92580
H         -0.97680        0.19710       -1.55660
H          1.24880        1.16860        1.23700
H          0.90590        1.66000       -0.42940
H          2.09230       -0.98820        0.58990
H          1.70530       -0.72650       -1.14660
H          3.03350        1.48880       -0.90140
H          3.62360        0.82970        0.65030
H          3.97060       -0.06280       -0.93010
