14

C          1.93490       -0.27970        0.09370
C          0.62470        0.38370       -0.23970
C         -0.55030       -0.32550        0.38580
C         -1.85570        0.32430        0.06140
Cl        -3.14140       -0.62970        0.87210
H          2.09550       -1.22600       -0.45590
H          1.98400       -0.44640        1.19280
H          2.73840        0.43110       -0.15570
H          0.55290        0.46550       -1.32750
H          0.67500        1.41660        0.16180
H         -0.60560       -1.39050        0.08820
H         -0.43580       -0.31970        1.48880
H         -1.94430        1.35600        0.41490
H         -2.07210        0.24020       -1.03540
14

C          1.56860        0.30980       -0.13340
C          0.54230       -0.53140        0.58220
C         -0.68880       -0.71140       -0.27710
C         -1.35390        0.57820       -0.63180
Cl        -1.88990        1.48800        0.78300
H          1.15540        0.54210       -1.14830
H          2.47630       -0.27830       -0.30770
H          1.76820        1.24980        0.43750
H          1.02160       -1.49740        0.82920
H          0.24760       -0.06450        1.56660
H         -1.37950       -1.36780        0.27360
H         -0.42360       -1.22700       -1.22040
H         -2.28120        0.30330       -1.21430
H         -0.76300        1.20670       -1.32850
14

C         -1.41730       -0.72270        0.02680
C         -0.70260        0.47060       -0.49530
C          0.54490        0.86630        0.21670
C          1.60680       -0.17360        0.21010
Cl         1.09720       -1.66380        0.99080
H         -2.50730       -0.59900       -0.25710
H         -1.41900       -0.77680        1.12570
H         -1.13110       -1.67690       -0.47750
H         -0.37880        0.20050       -1.54680
H         -1.40780        1.31940       -0.61640
H          0.31300        1.16010        1.26360
H          0.95390        1.75560       -0.33980
H          1.91270       -0.32860       -0.85150
H          2.53550        0.16890        0.75070
14

C          1.40080        0.61210        0.23170
C          0.58500       -0.60790        0.50400
C         -0.52830       -0.81730       -0.49880
C         -1.43600        0.41650       -0.42120
Cl        -2.06480        0.52810        1.23030
H          0.86420        1.54970        0.47630
H          2.29450        0.57580        0.88830
H          1.76650        0.69270       -0.80450
H          1.23920       -1.49010        0.49270
H          0.17680       -0.50280        1.52970
H         -0.15390       -0.84490       -1.53390
H         -1.08420       -1.74010       -0.23520
H         -0.80100        1.27550       -0.70440
H         -2.25870        0.35260       -1.15490
14

C          1.33260        0.64420        0.55550
C          0.83680       -0.54680       -0.19600
C         -0.61580       -0.82760        0.00420
C         -1.52430        0.26180       -0.45140
Cl        -1.31300        1.80790        0.37500
H          0.83080        0.80130        1.52560
H          2.43360        0.52560        0.75830
H          1.28140        1.58920       -0.02040
H          0.95720       -0.37010       -1.31180
H          1.44870       -1.44030        0.09550
H         -0.79890       -1.02270        1.09100
H         -0.82950       -1.79950       -0.52370
H         -1.43860        0.45520       -1.55620
H         -2.60100       -0.07840       -0.34560
