16

C         -2.24330        0.50770       -0.20590
C         -1.12120       -0.51080       -0.17110
C          0.15330        0.24160        0.11680
C          1.35850       -0.67810        0.17720
C          2.53860        0.18530        0.46530
O          2.46580        1.39350        0.61140
H         -2.19140        1.07390        0.74330
H         -2.11580        1.20980       -1.03100
H         -3.22500       -0.01190       -0.25770
H         -1.00180       -0.96830       -1.19080
H         -1.32110       -1.32250        0.52440
H          0.36180        0.96220       -0.70010
H          0.11480        0.78490        1.07500
H          1.48130       -1.29040       -0.71970
H          1.21780       -1.32850        1.07840
H          3.52770       -0.24840        0.55630
16

C          1.98510        0.21360        0.31960
C          1.04560       -0.92840        0.06000
C         -0.32660       -0.46090       -0.35160
C         -0.99450        0.40670        0.70390
C         -2.33750        0.75990        0.10980
O         -3.23010       -0.04680        0.08020
H          2.92450       -0.22070        0.73240
H          2.23460        0.70680       -0.65220
H          1.55960        1.01830        0.95230
H          1.01840       -1.59310        0.93890
H          1.45720       -1.50880       -0.78990
H         -0.99510       -1.32760       -0.52010
H         -0.23470        0.12550       -1.30020
H         -1.18390       -0.22520        1.61790
H         -0.45240        1.32300        0.93230
H         -2.47010        1.75770       -0.28810
16

C         -1.92510        0.08830        0.35460
C         -1.07930       -0.37880       -0.78180
C          0.30780        0.20150       -0.78230
C          0.99460       -0.21270        0.52660
C          2.37290        0.32930        0.59070
O          2.81150        1.00010       -0.31920
H         -2.99950        0.24410        0.07180
H         -1.85980       -0.66700        1.16920
H         -1.57060        1.04290        0.80320
H         -1.03730       -1.47580       -0.76790
H         -1.59770       -0.09470       -1.73060
H          0.28600        1.28350       -0.90260
H          0.90920       -0.26290       -1.58950
H          0.35120        0.10720        1.35640
H          1.07690       -1.31700        0.54710
H          2.95920        0.11190        1.45430
16

C          1.96420        0.37080       -0.25580
C          1.12900       -0.66950        0.40070
C         -0.28040       -0.27790        0.71040
C         -1.05490        0.09930       -0.54620
C         -2.44800        0.48490       -0.22460
O         -3.30500       -0.34500       -0.01100
H          2.84620       -0.16930       -0.71500
H          1.49250        0.90450       -1.09510
H          2.42290        1.09560        0.44760
H          1.09080       -1.58840       -0.22860
H          1.61430       -0.93340        1.36770
H         -0.78850       -1.19230        1.10250
H         -0.35850        0.49080        1.48790
H         -1.07560       -0.75300       -1.26850
H         -0.53370        0.95590       -0.99230
H         -2.71530        1.52700       -0.17970
16

C         -2.06690        0.00020        0.26120
C         -1.02500       -0.54830       -0.66700
C          0.35130       -0.60830       -0.07620
C          1.00260        0.74290        0.07130
C          2.45890        0.52780        0.34820
O          2.94670       -0.59160        0.43790
H         -2.59950        0.88120       -0.17510
H         -1.68820        0.29010        1.25120
H         -2.86740       -0.75880        0.45590
H         -1.30470       -1.59740       -0.93900
H         -1.05400        0.02750       -1.60470
H          0.32570       -1.09480        0.90860
H          0.97810       -1.23140       -0.75770
H          0.87080        1.38030       -0.83870
H          0.51450        1.23020        0.95120
H          3.15700        1.35040        0.23480
