16

C         -2.35410       -0.47490        0.55160
C         -1.49380        0.65470        0.11560
O         -1.98810        1.81460       -0.07530
C         -0.08170        0.43490       -0.09400
C          0.43880       -0.82680        0.11670
C          1.80670       -0.97880       -0.10090
C          2.60040        0.07330       -0.50530
N          2.03880        1.28700       -0.69670
C          0.72330        1.49390       -0.50220
H         -3.28490       -0.03070        0.97920
H         -1.87460       -1.06960        1.36740
H         -2.55120       -1.11290       -0.33050
H         -0.16340       -1.67300        0.43510
H          2.23870       -1.95950        0.05760
H          3.67680       -0.09600       -0.66430
H          0.26800        2.46390       -0.65400
16

C          2.41740        0.28600        0.45180
C          1.54530       -0.26410       -0.60520
O          2.05930       -0.76780       -1.63030
C          0.10280       -0.20740       -0.42970
C         -0.46360        0.34790        0.70020
C         -1.83760        0.40520        0.87540
C         -2.68300       -0.10020       -0.09250
N         -2.10860       -0.63630       -1.18470
C         -0.77810       -0.70180       -1.37420
H          2.38300        1.40320        0.48880
H          3.44570       -0.10430        0.32320
H          2.09830       -0.04700        1.48280
H          0.21960        0.74720        1.46280
H         -2.27470        0.84400        1.76910
H         -3.77740       -0.06610        0.02460
H         -0.34830       -1.13840       -2.26210
16

C          2.42040        0.37920       -0.47750
C          1.53640       -0.38030        0.45810
O          2.06840       -1.11710        1.32540
C          0.08180       -0.28190        0.38260
C         -0.53570        0.52830       -0.56890
C         -1.90860        0.59160       -0.60770
C         -2.65620       -0.14150        0.28850
N         -2.01920       -0.91550        1.19630
C         -0.67970       -1.01020        1.27340
H          2.44990        1.46640       -0.17780
H          1.99080        0.35850       -1.52210
H          3.42120       -0.07710       -0.46860
H          0.10490        1.07940       -1.24290
H         -2.37350        1.22190       -1.34830
H         -3.73450       -0.06970        0.23170
H         -0.16640       -1.63180        2.00250
16

C         -2.57930        0.05970        0.11700
C         -1.39120       -0.17940       -0.74350
O         -1.57580       -0.47680       -1.95230
C         -0.05340       -0.06410       -0.16890
C          1.09950       -0.26950       -0.89700
C          2.35670       -0.15880       -0.34750
C          2.47370        0.17130        0.98730
N          1.35430        0.37370        1.70560
C          0.10760        0.26410        1.16170
H         -2.45630        0.98260        0.73840
H         -2.81680       -0.82220        0.76210
H         -3.47230        0.27940       -0.53380
H          1.00560       -0.52760       -1.94130
H          3.25820       -0.32610       -0.94260
H          3.46930        0.26100        1.43080
H         -0.77990        0.43270        1.76390
16

C         -2.37500        0.00010       -0.82040
C         -1.56620       -0.14330        0.41780
O         -2.17040       -0.33020        1.49170
C         -0.10030       -0.06670        0.37430
C          0.55320        0.13960       -0.81010
C          1.94350        0.21100       -0.85500
C          2.59760        0.06250        0.35010
N          1.94280       -0.13980        1.50780
C          0.60100       -0.20900        1.55350
H         -2.46670        1.07980       -1.05350
H         -1.86670       -0.48820       -1.70250
H         -3.35920       -0.48470       -0.67690
H          0.03080        0.25480       -1.74260
H          2.46930        0.37360       -1.78470
H          3.67850        0.11550        0.33220
H          0.08780       -0.37510        2.51130
