23

C         -3.19850        0.70020       -0.25590
C         -2.07790       -0.21920       -0.64490
C         -0.89220       -0.09680        0.30360
C          0.22250       -1.03190       -0.10880
C          1.40980       -0.95160        0.78830
C          2.02400        0.43090        0.82820
C          2.48810        0.87880       -0.53320
I          3.95970       -0.43380       -1.33720
H         -3.34550        0.72820        0.86110
H         -4.13900        0.26790       -0.66430
H         -3.05270        1.73680       -0.61280
H         -2.46820       -1.24780       -0.68520
H         -1.70630        0.07890       -1.64690
H         -0.54140        0.95530        0.23490
H         -1.27240       -0.30180        1.30860
H          0.51030       -0.82440       -1.15050
H         -0.18480       -2.05350       -0.08140
H          2.19610       -1.62110        0.35080
H          1.18620       -1.31860        1.80420
H          2.93320        0.35720        1.46800
H          1.34280        1.17310        1.24310
H          2.96210        1.87690       -0.44090
H          1.64390        0.91620       -1.26780
23

C         -2.79410        0.03810       -0.56050
C         -1.77630        0.37590        0.50150
C         -0.86530       -0.77570        0.79630
C         -0.07490       -1.24490       -0.38590
C          0.81780       -0.19900       -0.97530
C          1.82910        0.28160        0.06970
C          2.69720        1.33730       -0.59690
I          3.69410        0.47160       -2.26770
H         -3.26350        0.96350       -0.95860
H         -3.62720       -0.50420       -0.03490
H         -2.36480       -0.60010       -1.33640
H         -2.32990        0.60770        1.43560
H         -1.22240        1.30640        0.23980
H         -0.18360       -0.56730        1.61590
H         -1.51010       -1.62920        1.11640
H          0.61220       -2.05440        0.00070
H         -0.67410       -1.72580       -1.17040
H          0.30970        0.63990       -1.44520
H          1.43100       -0.69450       -1.76370
H          1.30070        0.69350        0.94500
H          2.45120       -0.55920        0.42500
H          3.45740        1.65020        0.16810
H          2.08570        2.18860       -0.91040
23

C         -3.00990        0.61680        0.02280
C         -1.85850       -0.30270        0.29940
C         -0.78650       -0.15030       -0.75880
C          0.38500       -1.06790       -0.50290
C          1.05240       -0.81930        0.80590
C          1.60340        0.56120        0.95940
C          2.64160        0.91190       -0.07410
I          4.31990       -0.36720       -0.03200
H         -3.59440        0.81500        0.95340
H         -2.70320        1.56440       -0.45240
H         -3.73400        0.12940       -0.67960
H         -2.24590       -1.36010        0.32050
H         -1.50000       -0.08610        1.31880
H         -0.43660        0.89870       -0.71780
H         -1.26790       -0.38810       -1.72900
H          1.07270       -1.09120       -1.35710
H         -0.05430       -2.10770       -0.44680
H          1.82130       -1.61450        0.96230
H          0.30750       -0.97460        1.61360
H          2.05870        0.69860        1.96090
H          0.76890        1.28450        0.88620
H          3.00080        1.95250        0.05800
H          2.15890        0.89670       -1.09520
23

C          3.11310        0.37260        0.01890
C          2.28900       -0.53520        0.90800
C          0.94650       -0.75380        0.23430
C          0.30160        0.58690        0.08100
C         -1.04780        0.53730       -0.57620
C         -2.02920       -0.31110        0.21390
C         -3.35500       -0.32980       -0.47900
I         -4.16680        1.63350       -0.66550
H          4.20960        0.23550        0.22300
H          2.89210        0.10360       -1.02980
H          2.84550        1.42990        0.21770
H          2.84630       -1.48210        1.04910
H          2.14340        0.00070        1.86550
H          0.33050       -1.48850        0.78100
H          1.13910       -1.16770       -0.79250
H          0.16540        1.01050        1.10090
H          0.96020        1.21660       -0.53360
H         -1.45690        1.57600       -0.55440
H         -1.03210        0.21780       -1.61740
H         -2.15350        0.18760        1.19250
H         -1.66810       -1.35030        0.28640
H         -4.07050       -0.95750        0.09610
H         -3.20230       -0.73250       -1.50800
23

C          2.73550       -0.90160       -0.24300
C          1.95430        0.16400        0.41810
C          0.99080        0.89300       -0.49590
C         -0.02260       -0.00830       -1.10080
C         -0.93070       -0.76000       -0.26250
C         -1.85690       -0.04520        0.65990
C         -2.78680        0.88250       -0.13800
I         -3.94890       -0.22560       -1.53110
H          3.11860       -1.59410        0.56390
H          3.67710       -0.53300       -0.74130
H          2.21490       -1.52730       -0.95850
H          1.38910       -0.24270        1.26440
H          2.68120        0.95200        0.77410
H          0.59700        1.74880        0.06680
H          1.63020        1.33920       -1.29030
H          0.52860       -0.71210       -1.76480
H         -0.61380        0.61670       -1.83540
H         -0.35670       -1.49360        0.38450
H         -1.54770       -1.43850       -0.89330
H         -2.54050       -0.75270        1.17730
H         -1.40450        0.57160        1.42180
H         -3.39220        1.51280        0.50880
H         -2.11590        1.55410       -0.74420
