21

C          3.40780        0.61090        0.49300
C          2.62510       -0.54400        0.00750
O          3.23560       -1.59650       -0.30040
C          1.16970       -0.51470       -0.13040
C          0.50600        0.64470        0.20670
C         -0.87070        0.65140        0.07520
C         -1.57570       -0.44550       -0.37350
C         -0.91770       -1.61140       -0.71370
C          0.45510       -1.60580       -0.57810
O         -2.96700       -0.44410       -0.50820
C         -3.64880        0.75500       -0.15880
H          2.89270        1.17630        1.30610
H          4.39030        0.24030        0.84630
H          3.56150        1.34010       -0.35380
H          1.03460        1.53400        0.56180
H         -1.44710        1.54340        0.32830
H         -1.41750       -2.50090       -1.07060
H          1.00900       -2.51940       -0.84100
H         -3.32460        1.58480       -0.82240
H         -3.38410        1.05190        0.88550
H         -4.73410        0.64940       -0.21370
21

C         -3.37010        0.80960        0.00590
C         -2.68750       -0.50380       -0.11390
O         -3.29890       -1.57650       -0.24730
C         -1.21920       -0.54440       -0.07360
C         -0.52550       -1.73130       -0.17950
C          0.85450       -1.70490       -0.13470
C          1.56750       -0.53480        0.01220
C          0.88340        0.65670        0.11890
C         -0.48850        0.62310        0.07360
O          2.95620       -0.51790        0.05630
C          3.65940        0.69940        0.20790
H         -3.15720        1.20990        1.02710
H         -2.90780        1.49060       -0.75310
H         -4.46070        0.66950       -0.16660
H         -1.05660       -2.66600       -0.29560
H          1.42580       -2.63060       -0.21640
H          1.44150        1.59080        0.23580
H         -1.03640        1.55900        0.15700
H          4.74470        0.49970        0.21040
H          3.30590        1.23790        1.11320
H          3.36950        1.36400       -0.65630
21

C         -3.65260        0.23170        0.22370
C         -2.61190       -0.58200       -0.44370
O         -2.89430       -1.52630       -1.19620
C         -1.20800       -0.26820       -0.21290
C         -0.84840        0.77240        0.61570
C          0.47730        1.03430        0.80600
C          1.50610        0.32380        0.22150
C          1.13070       -0.71560       -0.60590
C         -0.19820       -1.00930       -0.82160
O          2.79530        0.68070        0.48850
C          3.95560        0.10150        0.00720
H         -4.66860       -0.10250       -0.10070
H         -3.60830        0.04110        1.33000
H         -3.51620        1.31960        0.05350
H         -1.64680        1.35260        1.09230
H          0.73190        1.85930        1.46340
H          1.87580       -1.29960       -1.08510
H         -0.51830       -1.81610       -1.46340
H          4.47840        0.84360       -0.66090
H          4.62590       -0.11700        0.89010
H          3.79470       -0.80040       -0.60160
21

C         -3.61360       -0.01030       -0.53630
C         -2.60590        0.48560        0.42630
O         -2.93170        1.12230        1.45390
C         -1.20220        0.22760        0.17370
C         -0.24630        0.68200        1.06000
C          1.07940        0.42200        0.79380
C          1.48150       -0.27670       -0.32830
C          0.51700       -0.72980       -1.21340
C         -0.81370       -0.47930       -0.96390
O          2.80170       -0.54920       -0.61610
C          3.89510       -0.17320        0.15610
H         -3.43740       -1.06860       -0.83360
H         -3.51440        0.58980       -1.47340
H         -4.61470        0.11240       -0.06990
H         -0.52880        1.24260        1.96560
H          1.89020        0.75270        1.45370
H          0.78680       -1.28880       -2.11780
H         -1.58710       -0.83450       -1.66000
H          4.13750        0.89940       -0.06040
H          4.75400       -0.82610       -0.12310
H          3.75270       -0.29980        1.24430
21

C         -3.41510        0.51620        0.66830
C         -2.66160        0.13860       -0.55110
O         -3.29260       -0.05700       -1.59560
C         -1.20910        0.00090       -0.51980
C         -0.47500        0.21100        0.62460
C          0.89370        0.08660        0.67570
C          1.57780       -0.26520       -0.46770
C          0.84950       -0.48150       -1.63440
C         -0.53160       -0.35180       -1.66870
O          2.96400       -0.39930       -0.44890
C          3.66520       -0.17610        0.73490
H         -4.48020        0.19000        0.61600
H         -3.37040        1.60230        0.88620
H         -2.97750       -0.01430        1.54090
H         -1.00070        0.48860        1.53150
H          1.47810        0.25010        1.57100
H          1.39520       -0.76010       -2.53770
H         -1.04340       -0.53430       -2.61180
H          4.75090       -0.22330        0.50840
H          3.42560        0.78380        1.23250
H          3.45720       -1.00520        1.44570
