30

C         -4.35840       -0.70340       -0.98650
C         -3.67670        0.54460       -0.53610
C         -2.18830        0.49860       -0.61300
C         -1.62440       -0.61650        0.25060
C         -0.13510       -0.68560        0.19230
C          0.54960        0.56020        0.65310
C          2.01970        0.34150        0.53820
C          2.69520        0.66230       -0.62950
C          4.04640        0.47410       -0.76860
C          4.78570       -0.04450        0.25560
C          4.15150       -0.37190        1.42130
C          2.78100       -0.18140        1.56330
H         -5.29740       -0.48680       -1.56570
H         -4.70990       -1.26510       -0.08530
H         -3.72480       -1.38800       -1.55640
H         -3.95330        0.80460        0.52380
H         -4.04490        1.38310       -1.15450
H         -1.86930        0.39900       -1.65710
H         -1.80070        1.46680       -0.22420
H         -2.01300       -1.56940       -0.20610
H         -2.02580       -0.58170        1.26480
H          0.14420       -0.83760       -0.88750
H          0.19060       -1.54700        0.80790
H          0.21990        1.42230        0.04730
H          0.25400        0.77420        1.71360
H          2.13430        1.07900       -1.46880
H          4.51120        0.74970       -1.71700
H          5.86630       -0.18240        0.11130
H          4.75750       -0.78190        2.22030
H          2.31480       -0.44960        2.49270
30

C          4.13120        0.57460        0.70340
C          3.66230       -0.84290        0.52750
C          2.16250       -0.95280        0.42850
C          1.67040       -0.16650       -0.74360
C          0.19150       -0.20700       -0.93670
C         -0.51570        0.35090        0.27720
C         -1.99750        0.31730        0.09730
C         -2.71830       -0.78100        0.49210
C         -4.08940       -0.80130        0.32040
C         -4.73260        0.26450       -0.23980
C         -3.99580        1.37010       -0.63570
C         -2.62600        1.41300       -0.47430
H          3.52780        1.04460        1.50000
H          4.04710        1.17930       -0.21720
H          5.20650        0.54960        0.97820
H          4.03680       -1.41610        1.41270
H          4.17460       -1.27400       -0.35510
H          1.73610       -0.62560        1.39520
H          1.93140       -2.03510        0.29200
H          2.14590       -0.59230       -1.65440
H          1.95990        0.89780       -0.58770
H         -0.19060       -1.21140       -1.21340
H         -0.05780        0.46280       -1.78570
H         -0.25540       -0.28040        1.14070
H         -0.18420        1.39380        0.39840
H         -2.19680       -1.62330        0.93640
H         -4.59720       -1.69950        0.65430
H         -5.80010        0.21580       -0.35890
H         -4.53730        2.19200       -1.07380
H         -2.08930        2.28310       -0.79170
30

C         -4.16290       -0.95250        0.16510
C         -4.00480        0.53740       -0.02860
C         -2.63580        0.91420        0.53740
C         -1.61960        0.11870       -0.25880
C         -0.21010        0.43330        0.24110
C          0.73910       -0.38060       -0.58280
C          2.14990       -0.20460       -0.23940
C          2.98440        0.73440       -0.80140
C          4.31120        0.85460       -0.43620
C          4.84260        0.01450        0.52470
C          4.03520       -0.92620        1.09790
C          2.70020       -1.03400        0.71840
H         -3.54740       -1.32440        1.03120
H         -3.86260       -1.48010       -0.78180
H         -5.21100       -1.13880        0.43700
H         -3.93220        0.75110       -1.12860
H         -4.81860        1.10520        0.45250
H         -2.44050        1.98580        0.48470
H         -2.63220        0.58190        1.58650
H         -1.64230        0.49030       -1.31560
H         -1.83610       -0.96400       -0.23210
H         -0.08230        1.52030        0.12480
H         -0.20080        0.18650        1.31490
H          0.47320       -1.44960       -0.45140
H          0.56840       -0.11060       -1.64810
H          2.60210        1.39140       -1.54100
H          4.94970        1.60570       -0.89610
H          5.89630        0.10950        0.81510
H          4.47720       -1.57540        1.85150
H          2.10970       -1.79410        1.20390
30

C          3.79410        0.28780        0.05900
C          3.32880       -1.11880       -0.09290
C          1.95590       -1.29840       -0.63230
C          0.80640       -0.79170        0.13170
C          0.70240        0.65030        0.43780
C         -0.57350        0.99590        1.19950
C         -1.80890        0.65950        0.47360
C         -2.45970       -0.54440        0.61950
C         -3.61720       -0.85930       -0.06060
C         -4.12960        0.08800       -0.92060
C         -3.50730        1.30540       -1.09410
C         -2.35000        1.60170       -0.40470
H          3.84180        0.57830        1.11800
H          3.17780        0.98030       -0.57250
H          4.81710        0.36480       -0.42290
H          3.37480       -1.59250        0.92520
H          4.08710       -1.70940       -0.69650
H          1.93470       -0.93250       -1.70820
H          1.81520       -2.42480       -0.77410
H          0.68560       -1.38960        1.08120
H         -0.13030       -1.05630       -0.46720
H          0.72670        1.30550       -0.45010
H          1.53670        0.99520        1.10640
H         -0.50220        0.48320        2.17660
H         -0.54960        2.11410        1.33290
H         -2.05920       -1.27460        1.28630
H         -4.11180       -1.83260        0.08030
H         -5.02780       -0.16190       -1.44570
H         -3.92460        2.03790       -1.77450
H         -1.83330        2.53860       -0.51100
30

C          3.81200        0.70960        1.19520
C          2.99480       -0.11520        0.19350
C          1.65690       -0.48640        0.79320
C          0.86100       -1.30490       -0.18210
C          0.61820       -0.51420       -1.43210
C         -0.19160        0.73960       -1.18450
C         -1.54510        0.42860       -0.66290
C         -2.55330        0.18690       -1.60460
C         -3.87870       -0.02070       -1.22910
C         -4.20750        0.01270        0.10770
C         -3.22880        0.25020        1.04030
C         -1.89690        0.46020        0.65790
H          3.54640        0.32280        2.19970
H          4.87500        0.53750        0.93000
H          3.58860        1.76860        1.06040
H          2.89350        0.53440       -0.69370
H          3.52000       -1.04100       -0.07380
H          1.18810        0.44190        1.11900
H          1.80050       -1.14500        1.69150
H         -0.11740       -1.61430        0.24710
H          1.41120       -2.23160       -0.47930
H          1.54880       -0.22040       -1.95800
H          0.06500       -1.19820       -2.12630
H         -0.26100        1.32260       -2.15060
H          0.30990        1.39670       -0.43940
H         -2.28960        0.16160       -2.65660
H         -4.65070       -0.20690       -1.96710
H         -5.21620       -0.14320        0.44440
H         -3.49180        0.27530        2.08510
H         -1.16140        0.69270        1.40380
