13

C          0.49850       -0.95600        0.23810
C         -0.67830       -0.49880       -0.63800
C         -0.95280        0.86340       -0.05590
O          0.03080        1.12910        0.87630
C          1.15610        0.38270        0.47190
H          1.12500       -1.68900       -0.25330
H          0.03310       -1.29410        1.18940
H         -0.26960       -0.41150       -1.66620
H         -1.47920       -1.21680       -0.51790
H         -1.92620        0.85700        0.48830
H         -0.91530        1.63980       -0.84370
H          1.92820        0.38310        1.22420
H          1.44970        0.81100       -0.51320
13

C          1.05670        0.12550       -0.05580
C         -0.16840        1.04680       -0.05850
C         -1.17060        0.09420        0.57190
O         -0.84580       -1.17350        0.17830
C          0.35310       -1.17130       -0.47380
H          1.82130        0.43620       -0.75520
H          1.37500       -0.01960        0.98350
H         -0.01500        1.94410        0.54150
H         -0.39420        1.26090       -1.11340
H         -0.95280        0.16160        1.68020
H         -2.21220        0.39110        0.38180
H          0.16260       -1.04550       -1.57860
H          0.99040       -2.05050       -0.30200
13

C         -0.83870       -0.40020        0.47440
C          0.23030       -0.96320       -0.47420
C          1.29620        0.08500       -0.15720
O          0.56830        1.25470       -0.37910
C         -0.69870        1.06430        0.10690
H         -1.82390       -0.81270        0.27820
H         -0.52760       -0.53280        1.52870
H          0.52320       -1.96860       -0.23380
H         -0.12190       -0.76470       -1.48450
H          2.14310       -0.01240       -0.83710
H          1.56620        0.07270        0.91810
H         -0.89900        1.73230        0.97970
H         -1.41750        1.24550       -0.72030
13

C          0.32930       -0.99310        0.22590
C         -0.96920       -0.32390       -0.24950
C         -0.67600        1.08840        0.24000
O          0.68210        1.23800        0.28630
C          1.29110        0.11980       -0.21970
H          0.52030       -1.93550       -0.27610
H          0.29200       -1.04430        1.33210
H         -0.94780       -0.34260       -1.35020
H         -1.84980       -0.76510        0.21050
H         -1.20270        1.85070       -0.33620
H         -1.04740        1.11360        1.30430
H          2.29110       -0.07530        0.15910
H          1.28710        0.06930       -1.32650
13

C         -0.55050        0.89210       -0.02840
C          0.94870        0.56170        0.03390
C          0.87160       -0.90700       -0.39590
O         -0.20090       -1.38990        0.31550
C         -1.14220       -0.41180        0.44820
H         -0.81110        1.75230        0.58630
H         -0.80680        0.98910       -1.10110
H          1.51780        1.17380       -0.66170
H          1.29460        0.61800        1.09060
H          0.62410       -0.89270       -1.49590
H          1.79140       -1.45310       -0.18550
H         -1.47070       -0.24230        1.50080
H         -2.06590       -0.69020       -0.10690
