15

C         -0.70050       -1.19380       -0.50270
C         -0.00940       -0.06540        0.26290
C          1.45090       -0.01700       -0.14930
C         -0.74200        1.20430       -0.08290
O         -0.10090       -0.39180        1.61040
H         -1.77220       -0.95180       -0.62250
H         -0.21930       -1.23670       -1.48580
H         -0.62560       -2.12930        0.08220
H          2.12100        0.04390        0.74840
H          1.70540       -0.96750       -0.65010
H          1.66210        0.83830       -0.82800
H         -1.68810        1.21730        0.51350
H         -0.13810        2.11320        0.03920
H         -1.07960        1.19070       -1.15050
H          0.13630        0.34550        2.21530
15

C         -1.15870       -0.91850       -0.08280
C         -0.03760        0.01130        0.30540
C          1.31740       -0.55260       -0.10030
C         -0.24880        1.30400       -0.48320
O         -0.08570        0.22080        1.66970
H         -1.79540       -1.15860        0.78990
H         -0.70320       -1.82260       -0.54630
H         -1.82940       -0.49070       -0.85800
H          1.88530        0.16390       -0.74050
H          1.94760       -0.78390        0.79520
H          1.15910       -1.46130       -0.69580
H          0.50260        2.06250       -0.26040
H         -0.26280        0.98770       -1.55780
H         -1.29520        1.61940       -0.25070
H          0.60490        0.81850        2.01570
15

C          1.16990       -0.81800       -0.12090
C          0.00780        0.04910        0.23700
C         -1.32820       -0.57400       -0.16350
C          0.07590        1.38990       -0.47240
O         -0.08330        0.31990        1.59950
H          1.45660       -1.41500        0.77490
H          0.84470       -1.55030       -0.88740
H          2.06400       -0.23730       -0.47440
H         -1.27440       -0.95190       -1.20640
H         -2.06600        0.27690       -0.09700
H         -1.64000       -1.36370        0.53260
H         -0.93440        1.84950       -0.35050
H          0.87140        1.97020        0.03510
H          0.29270        1.28780       -1.54400
H          0.54330       -0.23320        2.13750
15

C          1.38600       -0.45520        0.35930
C         -0.03260        0.06030        0.24620
C         -0.09350        1.41250       -0.42640
C         -0.90010       -0.90290       -0.51770
O         -0.49000        0.24860        1.56280
H          1.73180       -0.54680        1.40000
H          1.40630       -1.49060       -0.06710
H          2.02970        0.21540       -0.22780
H         -0.00920        2.20790        0.32850
H         -1.08340        1.55150       -0.92240
H          0.67480        1.53170       -1.22030
H         -1.54840       -0.36330       -1.24440
H         -0.26420       -1.62310       -1.10440
H         -1.53420       -1.53550        0.12830
H         -1.27320       -0.31060        1.70520
15

C         -0.25060       -0.69460        1.14220
C          0.26490        0.10790       -0.00940
C          0.30100       -0.76250       -1.25620
C         -0.66380        1.30030       -0.20510
O          1.53570        0.63300        0.21210
H         -1.17310       -0.24740        1.58820
H         -0.56470       -1.71250        0.79830
H          0.49160       -0.85510        1.93410
H          1.34590       -0.84360       -1.62630
H         -0.04820       -1.79840       -1.00270
H         -0.36220       -0.36860       -2.04970
H         -0.10600        2.22010       -0.42230
H         -1.43610        1.06220       -0.96850
H         -1.21750        1.49070        0.75570
H          1.88320        0.46860        1.10950
