8

C         -1.04640       -0.14560       -0.00700
O          0.24560       -0.68730       -0.20650
C          1.39980        0.04480       -0.01590
O          1.26710        1.23220        0.34770
H         -1.17030        0.28690        0.99940
H         -1.27180        0.66650       -0.75470
H         -1.76180       -0.98580       -0.18310
H          2.33780       -0.41170       -0.17990
8

C         -1.05160       -0.14720        0.27130
O          0.22560       -0.58080       -0.15120
C          1.37580        0.06530        0.28190
O          1.24760        1.04690        1.06060
H         -1.42860       -0.93460        0.97660
H         -1.00280        0.78330        0.88830
H         -1.73870        0.03490       -0.57030
H          2.37280       -0.26770       -0.04350
8

C         -1.04750       -0.06730        0.00080
O          0.20540       -0.70820        0.03270
C          1.42040       -0.04140        0.01000
O          1.40010        1.20220       -0.04190
H         -1.58200       -0.22530        0.94640
H         -1.70290       -0.51560       -0.80170
H         -0.99910        1.00820       -0.18550
H          2.30570       -0.65270        0.03920
8

C         -1.04380       -0.10590       -0.00250
O          0.22220       -0.68960        0.09810
C          1.41110        0.01100        0.00960
O          1.36180        1.24670       -0.17200
H         -1.32130        0.40790        0.94380
H         -1.16270        0.59570       -0.83870
H         -1.79250       -0.91620       -0.14100
H          2.32500       -0.54960        0.10270
