14

C         -1.82000       -0.61670        0.41280
C         -1.27840        0.73230        0.12520
O          0.12710        0.81430        0.34530
C          0.93320       -0.02770       -0.40170
O          0.47600       -0.82780       -1.23310
C          2.39800        0.04240       -0.18730
H         -1.05400       -1.39450        0.61380
H         -2.45440       -0.57250        1.32240
H         -2.43560       -0.95260       -0.44790
H         -1.46190        1.07470       -0.93110
H         -1.75670        1.49230        0.76440
H          2.72720        1.11860       -0.11200
H          2.97000       -0.40610       -1.04100
H          2.62940       -0.47660        0.77010
14

C          1.93880        0.57970        0.11410
C          1.25240       -0.74660       -0.00280
O         -0.12000       -0.65280       -0.26710
C         -1.04260       -0.02400        0.54820
O         -0.63310        0.50230        1.59980
C         -2.48490        0.05710        0.23980
H          1.53180        1.31860       -0.58680
H          1.95250        0.93420        1.16450
H          3.00710        0.43060       -0.16740
H          1.71350       -1.27550       -0.87450
H          1.50230       -1.36130        0.88080
H         -2.70180        0.99680       -0.30370
H         -2.83280       -0.81140       -0.37270
H         -3.08310        0.05240        1.17190
14

C         -2.29110       -0.41490        0.40450
C         -1.16800        0.33960       -0.28140
O          0.03360       -0.10650        0.28620
C          1.28580        0.32330       -0.05140
O          1.35860        1.21010       -0.96600
C          2.48600       -0.21490        0.61160
H         -3.21260        0.20150        0.35790
H         -2.39010       -1.38850       -0.11870
H         -1.97990       -0.56240        1.45860
H         -1.20040        0.21340       -1.38490
H         -1.27730        1.42030       -0.02550
H          2.96900        0.61430        1.18940
H          2.17850       -0.96700        1.35580
H          3.20790       -0.66830       -0.11640
14

C         -1.90760        0.06260        0.65220
C         -1.12230        0.93210       -0.27800
O          0.28510        0.80370       -0.06810
C          0.92260       -0.42070       -0.21690
O          0.19940       -1.39860       -0.54300
C          2.39060       -0.53290        0.00660
H         -1.24390       -0.58920        1.28640
H         -2.56250        0.66130        1.29470
H         -2.50900       -0.63840        0.00790
H         -1.37410        0.76450       -1.35510
H         -1.38250        1.98660       -0.07220
H          2.58490       -0.63520        1.10160
H          2.88060        0.39090       -0.32040
H          2.83870       -1.38660       -0.52540
14

C          1.96780        0.55830       -0.20260
C          1.24000       -0.74350       -0.33270
O         -0.11590       -0.64140       -0.63330
C         -1.07430       -0.00510        0.13870
O         -0.67430        0.52450        1.20520
C         -2.51010        0.07210       -0.23480
H          2.31720        0.86610       -1.23000
H          2.87280        0.35480        0.44070
H          1.37750        1.39670        0.17010
H          1.71750       -1.29910       -1.18860
H          1.43680       -1.41440        0.55290
H         -3.09750       -0.51190        0.48520
H         -2.64270       -0.31620       -1.27570
H         -2.81490        1.15920       -0.23370
