# 
# SCF energies in dmso, in eV
#                conf1            conf2            conf3            conf4            conf5
# 
000    -11582.65751018  -11582.68551657  -11582.26744901  -11582.55230345  -11582.76923993
001     -6358.69851064   -6358.61130109   -6358.47370444   -6358.71816069   -6358.67017505
002    -87644.96206082  -87644.95785040              nan              nan              nan
003     -7924.21583160   -7924.63693956   -7924.32513647   -7924.67398457   -7924.56680026
004    -11451.07048015  -11450.97345154              nan              nan              nan
005     -8373.00129595   -8373.33237284   -8373.27368493   -8373.22448517   -8373.21734991
006    -31332.81224583              nan              nan              nan              nan
007                nan              nan              nan              nan              nan
008     -8590.31311756   -8590.61729935   -8590.54877787   -8590.66134740   -8590.47501515
009     -6358.43158943   -6358.46135145   -6358.28799841   -6358.38454661   -6358.53425570
010    -12678.21771360  -12678.45526545  -12678.20943750  -12678.24426606  -12678.64424839
011    -20873.50670566  -20873.40600044              nan              nan              nan
012    -18225.38047943  -18225.30522806  -18225.39082678  -18225.37614098  -18225.36343912
013                nan              nan              nan              nan              nan
014    -15748.52646532  -15748.39801991  -15748.48876210  -15748.45716903  -15748.34742886
015    -10946.30064747  -10946.45514583  -10946.09824108  -10946.36030101  -10946.45726948
016     -9534.73190724   -9534.58358758   -9534.62854101   -9534.94714314   -9534.43975068
017     -5381.39593149   -5381.43915100   -5381.65713485   -5381.61887306   -5381.35908333
018    -77208.31296129  -77208.49966051  -77208.37597334  -77208.45812288  -77208.39321420
019    -10637.35462238  -10637.86565339  -10637.67355641  -10637.63446533  -10637.44733573
020    -23946.44517691  -23946.43057541  -23946.88516234  -23946.68015943  -23946.11309371
021    -39690.99081472  -39690.99502786  -39690.94188457  -39691.04031550  -39691.05090807
022    -18086.03206178  -18085.89362475  -18085.95361051  -18086.02946997  -18085.85731260
023    -25086.57379308  -25086.32703428  -25086.77439310  -25086.85196408  -25086.77271647
024     -8896.32286182   -8896.26584371   -8896.40284740   -8896.47631425   -8896.42808993
025    -74414.23235958  -74414.25106115  -74414.74525827  -74414.77230503              nan
026    -63449.30857858  -63449.41246267  -63449.57540444  -63449.34110789  -63449.78661622
027     -8460.04880004   -8460.06331995   -8460.05417943   -8460.00463367   -8459.98805405
028    -10599.45610689  -10599.52838212  -10599.55956419  -10599.45603843  -10599.50346855
029    -41681.14213169              nan              nan              nan              nan
030    -11675.22632865  -11675.07873616  -11674.94990990  -11675.00793813  -11674.81831635
031     -7826.49340975   -7826.45926659   -7826.44598243   -7826.49985061   -7826.56282907
032    -22578.94689928  -22578.94475331  -22578.84786954  -22578.72464019  -22579.00291740
033    -15146.72330136  -15147.02332046  -15147.17149491  -15147.01006824  -15146.68411783
034    -10506.87098058  -10506.83866094  -10506.81607328  -10506.81599358  -10506.72851807
035    -12652.42894441  -12652.47688385  -12652.47712832  -12652.33171873  -12652.22465415
036     -8497.71461326   -8497.85666562   -8497.64927666   -8497.98981969   -8497.95541209
037     -3149.21338824   -3149.18755201   -3149.17564869   -3149.16547400              nan
038     -6358.77169610   -6358.60071668   -6358.72409939   -6358.53769593   -6358.37992598
039     -7831.32911519   -7831.31338797   -7831.32339846   -7830.80310263   -7830.95018700
040     -4278.30140225   -4278.39596801   -4278.44262455   -4278.35500318   -4278.35342184
041     -6384.11043932   -6383.61011430   -6383.89253136   -6383.98920830              nan
042    -17100.59175117  -17100.63331732  -17100.95947356  -17100.85870860  -17100.93855266
043     -6233.37280799   -6233.27811795   -6233.37930517   -6233.39584447              nan
044    -10513.02537951  -10512.80788598  -10512.75271942  -10512.77299791  -10512.95169900
045    -25880.77461093  -25880.67006623  -25880.81556880  -25880.89815826              nan
046    -10910.89603063  -10910.64834980  -10910.52575487  -10910.93424407              nan
047    -16668.76818946              nan              nan              nan              nan
048    -78334.89445720  -78334.88585759              nan              nan              nan
049    -10512.40931702  -10512.89136902  -10512.58911594  -10512.46359527  -10513.04165088
050    -16714.06378492  -16713.87354205  -16713.71069959  -16713.64575535  -16714.00666588
051    -10507.00476764  -10507.04556678  -10506.89333324  -10507.07626079  -10506.94295377
052    -19896.39321336  -19896.47300332  -19896.42956851  -19896.38114933              nan
053    -52135.03485027  -52135.43467042  -52135.43397272  -52135.28557271  -52135.21314934
054    -10512.67987729  -10512.70323617  -10512.95321391  -10512.63251769  -10512.70780112
055   -142108.23938317 -142108.17889335 -142108.10857859 -142108.19724688              nan
056    -13007.46563655  -13007.49610751  -13007.58938337  -13007.60701230  -13007.52476722
057     -5381.47384204   -5381.59476668   -5381.51059711   -5381.55239975   -5381.64113009
058    -10970.38318126  -10970.33664008  -10970.36508616  -10970.33944348  -10970.46058859
059     -8465.24417735   -8465.35332333   -8465.32156868   -8465.45909801   -8465.34977298
060    -47791.68509727  -47791.55510114  -47791.78460849  -47791.73775892  -47791.74523144
061    -70079.96442267  -70080.16453356  -70080.21168681  -70080.68607214  -70080.10154954
062    -56344.99746511              nan              nan              nan              nan
063    -27184.94011807  -27185.00655176              nan              nan              nan
064    -10506.67072106  -10506.70038011  -10506.62664299  -10506.61826864  -10506.62805780
065    -14077.40346188  -14077.32570026  -14077.21549877  -14077.32723522  -14077.17165832
066     -7390.18550713   -7390.12203418   -7390.16284435   -7390.14381730   -7390.13132042
067     -7395.96118889   -7395.88960901   -7395.82716669   -7396.06334560   -7395.59159286
068     -7395.93163531   -7395.87886060   -7395.86397570   -7395.85017776   -7395.97606386
069    -52196.96364502  -52196.83454278  -52196.93651145  -52196.77558251              nan
070    -18957.48919025  -18957.87715935  -18957.90387940  -18957.99917487  -18957.90731242
071    -15582.99071031  -15582.68090513  -15582.59871047  -15582.18476753  -15582.99311795
072     -6418.11164748   -6418.03584097   -6417.93615739   -6418.08268899   -6418.02198226
073     -6358.65976802   -6358.46831514   -6358.50075582   -6358.86241224   -6358.71624955
074    -77358.08315547  -77358.07857389              nan              nan              nan
075    -40306.34949938  -40306.75743968  -40306.40291179  -40306.46466286  -40306.42873512
076     -4311.86988424   -4311.74183658   -4311.76693105   -4311.94187912   -4311.91372551
077    -10867.93042386              nan              nan              nan              nan
078    -86604.94235576  -86605.09996302  -86605.15331502  -86605.14350722  -86604.53734477
079    -21508.50378476  -21508.31292144  -21508.73046526  -21508.65563450  -21508.54584401
080     -6667.14603600   -6667.13262234   -6666.94776463   -6667.03773170              nan
081     -6763.15365898   -6763.20956352   -6763.20377212   -6763.14245804   -6763.22994234
082     -4186.20329994   -4186.25612171   -4186.29738227   -4186.25686977   -4186.15614147
083     -7362.32691874   -7362.22914715   -7362.32300466   -7362.33108913   -7362.32477185
084    -11674.80172756  -11674.72290581  -11674.16466484  -11674.66319967  -11674.44137546
085    -15748.53651179  -15748.46086001  -15748.49733322  -15748.57937879  -15748.36209109
086     -9529.96492396   -9529.95084095   -9530.00262762   -9529.97547349   -9529.93594315
087    -12607.93727517  -12607.85177515  -12607.85342214              nan              nan
088     -2172.27755328   -2172.32669535   -2172.37931822   -2172.34954447   -2172.27380265
089    -31297.59362038  -31297.76599716  -31297.74024186  -31297.59428978              nan
090    -10572.43792316  -10571.80768569  -10571.95430964  -10572.44382836  -10572.16023326
091    -14077.33508342  -14077.49455866  -14077.38146477  -14077.28194522  -14077.32387328
092     -8367.04252301   -8367.02871274              nan              nan              nan
093     -3242.00337187   -3242.05441317   -3242.12793610   -3242.10537753   -3241.92646668
094    -17869.96430646  -17869.89557540  -17870.39243083  -17869.92007637  -17870.02555474
095    -22961.89824788  -22962.06064962  -22962.11188849  -22961.43494730  -22962.60330798
096                nan              nan              nan              nan              nan
097    -10877.25743309  -10877.35913303              nan              nan              nan
098    -10506.76421252  -10506.71091423  -10506.68716065  -10506.77219430  -10506.70872393
099     -5348.07186381   -5348.11242755   -5348.15610036   -5348.21572575   -5348.08641997
100     -3115.97823820              nan              nan              nan              nan
101    -17887.99144613  -17888.03205366  -17888.13937150  -17888.11121286  -17888.02065211
102    -10599.46225517  -10599.26412627  -10599.28808954  -10599.20039397  -10599.32191239
103    -10730.66044500  -10730.53106828  -10730.37773455  -10730.56887670  -10730.39737458
104    -14678.73887076  -14678.68151131  -14678.55166824  -14678.64277256  -14678.72155444
105     -6451.40398749   -6451.41098207   -6451.13744044   -6451.43735355   -6451.29965695
106     -6358.55770264   -6358.47649663   -6358.49140531   -6358.53244976   -6358.71461630
107    -12607.60938048  -12607.63891178  -12607.68690169              nan              nan
108    -20888.46981514  -20888.08044912  -20888.14104659  -20888.06398786  -20888.42803706
109    -10451.63258622  -10451.66558846  -10451.70061188  -10451.85795080  -10451.76999000
110     -7303.00672639   -7303.33275171   -7303.28496591   -7303.17854142   -7303.07417819
111    -14568.34482430  -14568.32072644  -14568.20232171  -14568.43475442  -14568.08160038
112     -4218.91755444   -4219.13024464   -4219.08908644   -4218.95134630   -4219.01492989
113    -24435.83934008  -24435.61925865  -24435.67495937  -24435.84481112  -24435.79044759
114    -10697.39812428  -10697.21573783  -10697.46586159  -10697.47027794  -10697.55760316
115    -10512.71220330  -10512.92557887  -10512.85995148  -10512.81799749  -10512.81668857
116    -10506.72843605  -10506.76595848  -10506.75116569  -10506.67902426  -10506.61442100
117    -10512.89281669  -10512.89474238  -10512.91626226  -10512.72380098  -10513.00469246
118     -8896.36678364   -8896.26606137   -8896.39912600   -8896.31887990   -8896.35782369
119     -9535.47094775   -9535.16599460   -9535.42059204   -9535.41575032   -9535.38946091
120    -15643.58260576  -15644.12830780  -15643.78022047  -15643.62337130  -15643.72695320
121     -3678.46699712   -3678.36563849   -3678.33000654   -3678.29809880   -3678.43263817
122     -6358.22950947   -6358.34707125   -6358.38968858   -6358.56781602   -6358.52573397
123    -21754.98769684  -21754.68578821  -21754.60348343  -21754.76074074              nan
124     -8830.52376612              nan              nan              nan              nan
125    -11483.53353457  -11483.49215413  -11483.53533098  -11483.62385756  -11483.41631595
126    -44184.69110292  -44184.49293601              nan              nan              nan
127    -19896.40934694  -19896.41688123  -19896.46208078  -19896.37289438              nan
128     -8465.55909985   -8465.64022183   -8465.66396690   -8465.68283024   -8465.54480808
129    -31332.73184136              nan              nan              nan              nan
130    -64702.66311109  -64702.70331483  -64702.70698700  -64702.71321487              nan
131    -27151.23246535  -27151.14897457              nan              nan              nan
132    -35577.77426058  -35580.03521293  -35578.83341150  -35578.30241860  -35575.11293570
133    -77489.25079511  -77489.29068074  -77489.34335790  -77488.80413628  -77489.33330493
134    -67957.35418924  -67955.64421601  -67955.84804207  -67957.56571422  -67957.68340618
135    -29538.88632966  -29538.98235048  -29538.87318194  -29539.63591543  -29538.86192976
136     -7520.86408512   -7520.73647148   -7520.89707601   -7520.91006602   -7521.09306403
137    -16756.34937537              nan              nan              nan              nan
138    -12652.47840911  -12652.66963554  -12652.56304149  -12652.53168777  -12652.52331856
139     -7520.76407261   -7521.11371279   -7520.81527709   -7520.95528361   -7520.93361600
140    -12552.99976646  -12553.09516568  -12553.09582684  -12552.92742964  -12553.09015797
141    -18462.62876877  -18461.02243614  -18461.45847225  -18460.95259246  -18460.75194902
142    -14119.79975618  -14119.98692556  -14120.10087650  -14119.95956527  -14119.84820287
143    -10877.23642141  -10877.27386359              nan              nan              nan
144    -43839.04950330              nan              nan              nan              nan
145     -6418.20095674   -6418.48766871   -6418.49211442   -6418.16918652   -6418.70062642
146    -11471.92476450  -11471.91882096  -11472.01191509  -11472.22684516  -11471.80702775
147    -41370.63617232  -41370.30716790  -41370.01204736  -41370.80161101  -41370.79369440
148     -9939.48549178   -9939.48410512   -9939.23672489   -9939.47463055   -9939.42250047
149                nan              nan              nan              nan              nan
150    -13931.72519720  -13931.72014453  -13931.75237506              nan              nan
151    -10506.58870126  -10506.60637174  -10506.71676272  -10506.32788746  -10506.65728462
152     -8359.99109027   -8360.25428186   -8359.99619126   -8360.53964964   -8360.33514852
153    -13962.76284052              nan              nan              nan              nan
154     -3208.24238797   -3208.23105685   -3208.25232954   -3208.23427503   -3208.22515410
155    -19262.84463836              nan              nan              nan              nan
156     -8432.15709493   -8431.88327357   -8432.05635259   -8432.10923462   -8432.14090446
157    -74279.95632452  -74280.01868185  -74279.87013681  -74279.85577682  -74279.89421643
158    -10501.13837485              nan              nan              nan              nan
159     -5719.35669299              nan              nan              nan              nan
160    -66693.31427617              nan              nan              nan              nan
161    -66693.51213233              nan              nan              nan              nan
162    -11450.83883363  -11451.12492758  -11450.88943247              nan              nan
163     -8426.39499057   -8426.43815974   -8426.45411824              nan              nan
164     -7428.30441955   -7428.69050624   -7428.42962319   -7428.53105836   -7428.39486551
165    -11920.49081951  -11921.31361405  -11920.82758720  -11921.28478761  -11921.70719552
166    -17652.28892607  -17652.21598969  -17652.18694934  -17652.25521566  -17652.45687115
167    -10506.63541916  -10506.80280969  -10506.65538644  -10506.62731990  -10506.58593335
168     -9436.86876974   -9436.85779065   -9436.91835656   -9436.91852097   -9436.92675628
169     -9442.85439060   -9443.09171505   -9442.53614401   -9443.11277938   -9443.00071133
170     -7956.87730390   -7957.24808879   -7957.52352137   -7957.32286048   -7957.35218891
171    -91705.55756672              nan              nan              nan              nan
172     -6756.48356615              nan              nan              nan              nan
173    -14714.80197017  -14714.84238585  -14714.84057940  -14714.74043633  -14714.82987158
174    -15047.94270268              nan              nan              nan              nan
175     -4278.54523460   -4278.47675445   -4278.37754572   -4278.54047701   -4278.52693502
176    -38620.94597543              nan              nan              nan              nan
177    -12320.80223704  -12320.85770127  -12320.89063619  -12320.92156019              nan
178     -3208.65771643   -3208.49614121   -3208.52773306   -3208.49102169   -3208.58197843
179     -6233.66804126   -6233.68419925   -6233.59454726   -6233.83645146              nan
180     -9529.71691012   -9529.47784030   -9529.51477486   -9529.60070986   -9529.68487995
181    -27896.59364059  -27897.03753801  -27896.59859334  -27896.46677159  -27896.47288980
182     -6320.26068920              nan              nan              nan              nan
183     -9660.64683050   -9660.65335320   -9660.56210233   -9660.08710091   -9659.34976168
184     -7335.35812714   -7335.17307230   -7335.15861587   -7335.21548533   -7335.38261874
185    -29142.67345558  -29142.61244302  -29142.75230274  -29142.69381704  -29142.70013443
186     -5288.92682484   -5288.90878769   -5288.82327191   -5288.80380788   -5288.96612221
187    -10507.04070327  -10506.95575528  -10506.99450195  -10507.06167225  -10506.94455962
188    -12777.33970011  -12777.41935132  -12777.35348931  -12777.26095779  -12777.39185252
189     -8590.85735419   -8590.98116487   -8590.94601274   -8590.85422662   -8591.06268618
190    -20332.60313783  -20332.57081084  -20332.48336877  -20332.51276463              nan
191     -9529.83161225   -9529.82200919   -9529.87430556   -9529.74909917   -9529.77842499
192     -8895.97625596   -8896.07809792   -8896.15037832   -8896.14639490   -8896.01856188
193    -21755.75415045  -21755.11948432  -21755.96011277  -21756.02876900  -21756.13864272
194    -18461.59200630  -18462.03228893  -18461.96849007  -18462.40996007  -18460.87073254
195     -6385.02057900   -6385.05458703   -6385.12387990   -6384.98458076   -6385.06383324
196     -8460.00615825   -8460.08104798   -8460.13906306   -8460.08149299   -8460.06594180
197     -9382.45650568   -9382.30056491   -9382.55908765   -9382.45539290   -9382.44324030
198    -12007.49869076  -12007.07573786              nan              nan              nan
199    -30188.36093213  -30188.25704723  -30188.01641069  -30186.45277974  -30189.08514301
200    -19137.35219259  -19136.89143750  -19136.93777571  -19137.26878991  -19137.35493726
201     -6358.41255156   -6358.31899928   -6358.23600763   -6358.49825515   -6358.22171376
202   -100151.04444496 -100151.12785902 -100151.01351977 -100151.05457005              nan
203    -23775.22835845  -23775.39063526  -23775.39577774  -23774.01838685              nan
204    -11674.92412151  -11674.89016461  -11674.28603842  -11675.22379418  -11674.57522102
205    -19205.55979576  -19205.98598075  -19205.74519618  -19206.00286176  -19205.66744357
206    -16739.29912928  -16738.44941085  -16738.25028566  -16739.22861419  -16739.38171682
207    -14692.90465955  -14692.96134081  -14693.03009688  -14692.90069845  -14692.99118637
208     -7573.27417835   -7573.31258488   -7573.23631501   -7573.36400210              nan
209    -13988.27759223              nan              nan              nan              nan
210    -11707.66904808  -11707.35156028  -11707.55242036  -11707.57615421  -11707.17885566
211     -7394.93349156   -7395.41429741   -7395.12464111   -7394.93372723   -7395.19929985
212                nan              nan              nan              nan              nan
213     -8498.25756633   -8498.23461717   -8498.35295951   -8498.18578854   -8498.35025168
214    -16309.05143545              nan              nan              nan              nan
215     -9529.79933291   -9529.67054192   -9529.73264624   -9529.83936132   -9529.66068851
216    -11544.21513281  -11544.20683903  -11544.19851237  -11544.16954104  -11544.03002429
217    -11483.51579046  -11483.62021989  -11483.51685598  -11483.57262895  -11483.55422401
218    -14574.46780445  -14574.13599619  -14574.35341889  -14574.56601349  -14574.51082524
219    -11668.96250488  -11669.05603574  -11669.18830533  -11669.18072680  -11668.98674777
220     -8498.25164390   -8498.25171370   -8498.29460943   -8498.28392483   -8498.36067900
221    -12652.35343277  -12651.84468047  -12652.28054046  -12652.53104063  -12652.37890074
222     -9535.55181032   -9535.48427553   -9535.68781778   -9535.54664060   -9535.53420213
223    -24027.50019062  -24027.45312655  -24027.37097709  -24027.59267464  -24027.49125846
224    -10636.65720000  -10637.83160446  -10637.85759158  -10637.21194120  -10637.84641094
225    -16818.46176655  -16818.13122085  -16817.87880546  -16818.21799621  -16817.96588899
226    -12547.89595796  -12547.82228626  -12547.95237470              nan              nan
227     -8432.68956310   -8432.92099117   -8432.81004659   -8432.33250945   -8432.85330380
228    -10544.52867594  -10538.28301851  -10544.79107391  -10544.93737358  -10544.66751828
229    -11582.68515653  -11582.87819190  -11582.23923823  -11582.32703683  -11582.30471688
230     -9627.35268109   -9627.19092641   -9627.26578765   -9627.28914882   -9627.27435107
231    -12640.79301074  -12640.77105573  -12640.89843824  -12640.77516919  -12640.72829709
232    -10380.35622312              nan              nan              nan              nan
233    -75349.75758164  -75349.65177970  -75349.68368940  -75349.50438596  -75349.60678268
234     -9496.31340278   -9496.28145490   -9496.15024298   -9496.27585498   -9496.30902531
235    -39690.83796320  -39690.83820566  -39690.72433363  -39690.87200573  -39690.91910048
236    -26115.00682184              nan              nan              nan              nan
237     -6789.10660822   -6789.08331478   -6789.05591659   -6789.01257737   -6788.99615457
238    -13390.95184093  -13390.95420530  -13391.05948933  -13391.29078575  -13390.99337919
239    -14061.49345786  -14061.56741498  -14060.72293988  -14060.33161575  -14061.65977448
240    -12007.04093842  -12007.03255685  -12007.31703547  -12007.23648580              nan
241     -5256.45505325   -5256.37472818   -5256.37504958   -5256.34063321   -5256.42674236
242     -7362.99010477   -7362.88756672   -7362.77379581   -7362.94315887   -7362.82074576
243    -12521.29073435  -12521.44561704  -12521.34604277  -12521.44525259  -12521.30285256
244     -9404.12643957   -9404.13386172              nan              nan              nan
245    -13591.26353150  -13591.07238309  -13591.20757586  -13591.20993019  -13591.15867863
246    -79199.41925801              nan              nan              nan              nan
247    -43838.87293978              nan              nan              nan              nan
248     -7303.64713937   -7303.65676782   -7303.54155882   -7303.52670695   -7303.58761504
249    -27184.77058404  -27184.89707706  -27184.88014258  -27184.79648716  -27184.88086515
250     -9535.25438390   -9534.91355520   -9535.31797650   -9535.35651756   -9535.09993719
251     -9437.04404644   -9437.01834828   -9437.01162282   -9437.18190405   -9437.10916453
252    -81256.03064330              nan              nan              nan              nan
253     -5348.14543630   -5348.11810632   -5348.18720308   -5348.18287848   -5348.27545812
254     -7521.05443929   -7521.30885815   -7520.78170137   -7521.16884466   -7520.65983265
255     -9429.88530435   -9429.37670027   -9429.28511308   -9430.25481495   -9430.30389512
256    -41681.17915060              nan              nan              nan              nan
257     -8590.34492544   -8590.65015394   -8590.40884076   -8590.29912255   -8590.45781304
258    -13049.99336778  -13050.02369903  -13049.97120114  -13050.00309063  -13049.65753741
259    -11884.92102273  -11884.98821842              nan              nan              nan
260    -10942.81410237  -10942.94263355  -10942.71536776  -10942.90619595  -10942.62128298
261    -56344.92351572              nan              nan              nan              nan
262    -10599.44780227  -10599.36739652  -10599.45521806  -10599.36905892  -10599.30063306
263     -7826.56448782   -7826.49164773   -7826.55220822   -7826.52635069              nan
264    -19262.82915677              nan              nan              nan              nan
265     -5314.15798441   -5314.11054011   -5314.19084496   -5314.10293616   -5314.25513088
266     -4682.49903828   -4682.48989846   -4682.55421897   -4682.61101955   -4682.52176084
267    -23794.48558302              nan              nan              nan              nan
268                nan              nan              nan              nan              nan
269    -22295.71623247  -22295.66908524  -22295.65830811  -22295.54918708              nan
270     -9660.53981721   -9660.42730346   -9660.65240007   -9660.76336652   -9660.54948803
271    -21943.25759914  -21943.34193223  -21943.22704525  -21943.14901353  -21943.23771562
272    -13608.90283885              nan              nan              nan              nan
273    -14574.53879280  -14574.85088178  -14574.59639364  -14574.64538372  -14574.72739907
274    -27151.26895166              nan              nan              nan              nan
275    -14713.87283977  -14713.85493669  -14713.80974029  -14713.88135437  -14713.89165987
276     -9020.66047233              nan              nan              nan              nan
277    -77358.07475314  -77358.16335041  -77358.10479859  -77358.10858805  -77358.11763175
278    -92747.90577966  -92747.92260881  -92747.97398363              nan              nan
279    -31332.78978501              nan              nan              nan              nan
280     -6451.21633493   -6451.29046366   -6451.17480739   -6451.18027821   -6451.14821560
281     -8896.59379764   -8896.57751029   -8896.63939924   -8896.57903078   -8896.64195713
282    -18732.12834216  -18732.03729771  -18732.05097103  -18732.28482015  -18732.15555360
283    -31371.16483507  -31371.00895410  -31371.05040711  -31371.06061165  -31371.19717906
284    -15637.96355467  -15637.95743684  -15638.21940874  -15637.92022269  -15638.20847479
285    -13513.27024460  -13513.29069912  -13513.23720785              nan              nan
286     -9409.40212682   -9409.35012875   -9409.46194972   -9409.33130147   -9409.40952495
287     -8404.66226290   -8404.64942204   -8404.95554176   -8404.78149750   -8404.89754380
288     -6265.77464634   -6265.80209558   -6265.83352068   -6265.96887569   -6265.88611503
289    -24662.46439540  -24662.86986577  -24662.65031915  -24663.13285216  -24662.40276964
290    -11576.52882739  -11576.44987253  -11576.43408252  -11576.59428286  -11576.46559276
291     -9475.09403606   -9474.90871801   -9474.96379565   -9475.17133139   -9475.09874929
292    -98107.48839187  -98107.46649949  -98107.67339255  -98107.33876653              nan
293    -10544.25405344  -10543.61537622  -10544.57044678  -10544.26724041  -10544.47675667
294    -10604.80621926  -10604.92583692  -10604.91020371  -10604.84542932  -10605.04065727
295    -28254.80049319  -28254.72785784  -28254.78347573  -28254.54125903  -28254.77705167
296     -8557.65997679   -8558.00197516   -8557.78549338   -8557.64761558   -8557.90463234
297                nan              nan              nan              nan              nan
298     -7487.79329780   -7487.72549928   -7487.67771805   -7487.83376056   -7487.73497948
299    -10507.01747174  -10506.94533808  -10506.98265003  -10506.92429982  -10506.86440683
300     -9443.15995690   -9442.98526098   -9442.82482668   -9442.80660303   -9442.98783322
301    -81356.94495484              nan              nan              nan              nan
302    -28537.33207279  -28537.18463443  -28537.02078135  -28536.89233980  -28537.32213165
303    -14599.86710802  -14599.93690683  -14599.82642583  -14599.92522547  -14599.98124794
304     -7826.49843755   -7826.33635201   -7826.52864077   -7826.59970219              nan
305     -8896.21121119   -8896.14908181   -8896.17441288   -8896.23981967   -8896.28944278
306     -6821.94753097   -6822.21957340   -6822.22279781   -6821.93316821   -6821.86723434
307    -10512.46751395  -10512.20804327  -10512.57204347  -10512.33454745  -10512.46849459
308     -7453.29510994   -7453.76542420   -7453.74428740   -7453.35880660   -7453.78761623
309    -17809.45271450  -17809.06400544  -17809.40141883  -17809.23937634  -17809.25739569
310    -21384.30361085  -21384.52786295  -21384.38375434  -21384.74751768  -21384.27379316
311    -12866.03740158  -12863.66938114  -12866.13333595  -12865.89505842  -12865.67985903
312    -15147.12362600  -15147.25960252  -15147.19439103  -15147.23963780  -15147.26653894
313    -20249.53935531  -20249.82344332  -20250.07625316  -20249.59870802              nan
314    -12644.89644013  -12644.96626873  -12645.16146364  -12644.93079526  -12644.85166521
315     -9266.71867456              nan              nan              nan              nan
316    -17286.71541938  -17286.86585703  -17286.70014261  -17286.65176027  -17286.65717526
317     -7395.23168436   -7395.43478062   -7395.35661763   -7395.39760695   -7395.34121596
318    -13931.56397565  -13931.94044042  -13931.69881239  -13931.62922651              nan
319    -10942.52089477  -10942.81856471  -10942.81978312  -10942.65768763  -10942.80044639
320    -33910.49517951  -33910.63411459  -33910.92152695  -33910.90294484  -33910.72921620
321     -9567.84792363   -9567.91248860   -9567.49252985   -9567.94684515   -9567.92749900
322     -9496.83552357   -9496.81471578   -9496.73814719   -9496.81922724   -9496.65618348
323    -12640.87098919  -12640.79190863  -12640.78982361  -12640.92277308  -12640.98919487
324     -4245.03317603   -4245.07951275   -4245.05051777              nan              nan
325     -8498.14602283   -8497.97483764   -8498.23069936   -8498.16917999   -8498.20072033
326     -4311.78977781   -4311.94308883   -4311.68808125   -4311.69283769   -4311.78673844
327    -25394.94054841  -25395.55281568  -25394.77524847  -25395.49226166  -25395.43242573
328     -9332.40269524   -9332.45734291   -9332.43757613   -9332.56486788   -9332.46309409
329    -11937.83406633  -11937.76993369  -11937.77263309  -11937.76353915              nan
330    -12640.57778942  -12640.48880199  -12640.52232394  -12640.55419968              nan
331    -17392.56777517  -17391.65962551  -17389.74652383  -17390.99761077  -17390.96191101
332    -22604.09284004  -22604.62352090  -22603.88478220  -22603.44729708  -22603.74744478
333    -29324.84587372  -29324.67908235  -29324.56809309  -29324.73367410  -29324.76055596
334     -6417.85198444   -6418.03655410   -6417.97640017   -6418.01569148   -6418.02358915
335     -9436.79243770   -9436.77166423   -9436.84628576   -9436.78583020   -9436.73756782
336     -9965.41367292   -9965.33571007   -9965.38585919   -9965.37765694   -9965.38112440
337     -8465.65576212   -8465.69415420   -8465.58683391   -8465.59045066   -8465.63010472
338    -35702.40293092  -35702.33807857  -35702.31830542  -35702.28806269  -35701.88489010
339    -29174.90520375              nan              nan              nan              nan
340     -9443.07938315   -9442.89549832   -9442.87229087   -9442.81215624   -9443.10544262
341    -42033.75327778  -42032.47349777  -42031.42333532  -42032.06165074  -42034.25011604
342     -9529.49464099   -9529.47989340   -9529.48810386   -9529.54162626   -9529.64191725
343     -5381.66050931   -5381.69819125   -5381.64828584   -5381.67652846   -5381.70098412
344   -137669.10644732 -137669.14110538              nan              nan              nan
345    -12645.56353148  -12645.64290396  -12645.69702223  -12645.33383307  -12645.68541505
346    -11582.42267663  -11582.65939729  -11582.76174320  -11582.00366721  -11582.42689173
347    -12640.71221715  -12640.83987411  -12640.90046010  -12640.79057016  -12640.75229693
348    -19410.73102838  -19410.68584817  -19410.67450168              nan              nan
349     -7225.82176718   -7225.88049133   -7225.84032676   -7225.76828753              nan
350    -11521.96250472  -11521.76196000  -11521.92847601  -11521.66214363  -11521.99278413
351    -66693.11317859              nan              nan              nan              nan
352     -8896.12385593   -8896.23403621   -8896.14228040   -8896.45024245   -8896.31699088
353    -17155.50029462  -17155.46630395              nan              nan              nan
354    -50126.48951186  -50126.43752587  -50126.52062944  -50126.23406144  -50126.47351129
355    -75139.00861238  -75139.01975218              nan              nan              nan
356     -9965.91105040   -9966.30201212   -9966.00710245   -9966.01553934   -9965.96840512
357    -16166.33025481  -16166.60987373  -16166.52307404  -16166.38856288  -16166.38404386
358    -12711.31165960  -12711.37850826  -12711.54281574  -12711.70827454  -12711.92311569
359     -6325.71669427   -6325.79232266   -6325.86516481   -6325.74736822   -6325.72444767
360     -1539.11876079              nan              nan              nan              nan
361    -12640.84943981  -12640.88479779  -12640.84590726  -12640.82606134  -12640.87505149
362     -6384.46216639   -6384.34370750   -6384.43502847   -6384.46156825   -6384.48565645
363     -3678.20453743   -3678.14645037   -3678.01863608              nan              nan
364    -39579.61810040  -39579.84351516  -39580.03084378  -39579.57870294  -39579.86663967
365     -7226.05688236   -7226.01267276   -7226.05617682   -7226.12305874              nan
366    -12953.58361055  -12954.84580703  -12953.38417823  -12952.79366900  -12953.58605789
367    -14636.83113772  -14638.04031368  -14637.12329787  -14637.79157917  -14637.67354603
368     -7428.42371867   -7428.43856512   -7428.46271288   -7428.56125910   -7428.51497463
369    -21193.52476265  -21193.45131975  -21193.64896866  -21193.56182208  -21193.60479054
370     -7335.47753233   -7335.38086530   -7335.41264678   -7335.40167577   -7335.25317549
371     -6418.16629850   -6418.36866233   -6418.36651543   -6418.18626727   -6418.37712129
372    -10937.56678554              nan              nan              nan              nan
373    -10544.60516954  -10544.54548090  -10544.76647463  -10545.09704670  -10544.73690772
374    -12738.95522316  -12739.06772961  -12738.80511125  -12738.63737813  -12738.87291269
375    -10512.89176317  -10512.87411727  -10512.68721598  -10512.82536851  -10512.99723747
376    -25982.56544763  -25982.77571419  -25982.69604473  -25982.87970370  -25982.88879725
377    -12553.42130910  -12553.39599130  -12553.48975520  -12553.28063489  -12553.50606924
378     -6451.21690223   -6451.34309609   -6451.22610983   -6451.23398072   -6451.34901960
379    -13390.74479932  -13390.37861463  -13389.47790578  -13390.73588139  -13390.58703547
380    -52163.14501295  -52163.28915002              nan              nan              nan
381     -7428.39093341   -7428.33190258   -7428.55827682   -7428.26419018   -7428.34997949
382     -7826.53154205   -7826.36624717   -7826.47492038   -7826.49646135   -7826.48025816
383     -9876.48271083   -9876.54431670   -9876.47754407   -9876.16117049   -9876.56168208
384    -25186.60512394  -25186.68592227  -25186.55454573  -25186.63862975  -25186.50641007
385     -7957.56337663   -7957.57444059   -7957.48800172   -7957.60147567   -7957.29343079
386    -10571.67966799  -10571.73477861  -10571.66228310  -10571.80750797  -10571.71543387
387    -13391.35437337  -13391.34082436  -13391.34356525  -13391.14347703              nan
388     -2138.70094076   -2138.67308080              nan              nan              nan
389    -14654.46287681  -14654.41578876  -14654.46237381  -14654.49668217  -14654.35473281
390    -20736.91348568  -20736.72508928  -20736.99966264  -20736.99344737  -20736.85613314
391    -10474.07034986  -10474.15435807  -10474.13051986  -10474.09057940  -10474.08763556
392    -52196.81958821  -52197.00282016  -52196.97421800  -52196.93851530              nan
393    -42695.41152892  -42695.26674639  -42695.44656739  -42695.46933570  -42695.43003729
394    -21845.50533678  -21845.43664599  -21845.19948677  -21845.08855523  -21844.63892693
395    -16707.64853403  -16707.82684869  -16708.01094049  -16707.23450059  -16707.87279051
396     -9840.34625543   -9840.32515183              nan              nan              nan
397    -16818.34358764  -16818.19551841  -16818.27560895  -16818.26292395  -16818.35049397
398    -13773.04403386              nan              nan              nan              nan
399    -10097.09840727  -10096.79184841  -10096.82995561  -10097.17853438  -10097.23227774
400                nan              nan              nan              nan              nan
401    -20332.84117737  -20332.70903066  -20332.94638273  -20332.48748789              nan
402     -4714.07610605   -4713.59100415   -4713.57217983   -4714.05334424              nan
403    -74279.94941609  -74279.72471481  -74279.85548321  -74279.88020910  -74279.92993682
404    -13390.60086040  -13390.66030381  -13390.72275780  -13390.63160116  -13390.85159424
405    -62632.81971879  -62632.71163517              nan              nan              nan
406     -8896.15152114   -8896.35271921   -8896.12834831   -8896.31841153              nan
407     -6854.85031634   -6854.49522249   -6854.61206289   -6854.21962697   -6854.30943041
408    -13590.75561451  -13590.73165467  -13590.64449105  -13590.76043729  -13590.80578871
409    -59323.66225750  -59324.26840797  -59324.31577728  -59324.15538440  -59324.27921661
410    -28966.25498821  -28966.21733717  -28966.29924698  -28966.15169433  -28966.28785303
411    -10910.37728607  -10910.40557333  -10910.42522613  -10910.40852585  -10910.49380239
412    -24662.73596312  -24662.71799454  -24662.67685134  -24662.76328278  -24662.61862167
413    -51126.73601161  -51126.74364549              nan              nan              nan
414    -37620.33221504  -37620.35059742  -37620.33909136              nan              nan
415     -7923.75347555   -7923.72862876   -7924.03053915   -7924.18191639   -7923.83384424
416    -14681.80282828              nan              nan              nan              nan
417     -8557.89323237   -8557.94852193   -8557.78025552   -8557.85445854   -8557.81993622
418     -9529.68423175   -9529.69099516   -9529.75865790   -9529.58525376   -9529.64783483
419    -12651.75289448  -12651.85675391  -12652.55630785  -12652.22250543  -12652.63722961
420     -5784.81244302   -5784.79072521   -5784.82890305   -5784.88094695              nan
421    -14645.01937478  -14645.06242254              nan              nan              nan
422     -6292.57701633   -6292.62185963   -6292.54530859   -6292.51624738              nan
423    -67718.22509342  -67718.25350701  -67718.29150172  -67718.73391884  -67718.32033273
424     -7454.82445520   -7455.04932295   -7454.79662772   -7454.82652114   -7455.13481503
425    -11582.57472822  -11582.88173242  -11582.72531306  -11582.94626341  -11582.67932119
426    -20320.93011058  -20320.68644795  -20320.80191111  -20320.82561922  -20321.10323502
427     -5256.10136005   -5256.02940885   -5255.89481867   -5256.08443538   -5255.98288475
428                nan              nan              nan              nan              nan
429   -100150.96709606 -100150.86952147 -100150.82631551 -100150.91161368              nan
430    -39612.07398930  -39612.01592347  -39612.19512269  -39612.23348856  -39612.01542713
431     -2608.42731668   -2608.49677263   -2608.36214234   -2608.50750470              nan
432    -11829.16530405  -11828.37634452  -11828.65955344  -11829.17477486  -11828.22284439
433   -110644.72455986 -110644.73181932 -110644.75254868 -110644.75435796              nan
434     -8371.90333316   -8372.16014681   -8372.08963656   -8372.27683864   -8372.07127312
435    -10506.78435507  -10506.69921029  -10506.69711743  -10506.72744931  -10506.74594943
436    -11904.72172024  -11904.70893233              nan              nan              nan
437    -10910.31973839  -10910.35106186  -10910.43484585  -10910.27651795  -10910.35815404
438    -56345.08087862              nan              nan              nan              nan
439     -6451.16682991   -6451.45253527   -6451.50385075   -6451.44220825   -6451.60777201
440    -18607.75888971  -18607.88212517  -18607.90067972  -18607.89672841  -18607.74998070
441     -8372.84286405   -8372.67186047   -8372.97892819   -8372.98979821   -8373.17109760
442    -14557.00337349  -14556.81121978  -14556.83060411  -14556.81705983  -14556.85667583
443     -8590.90648483   -8590.78914996   -8590.91611012   -8590.98897122   -8590.95980089
444     -5288.46755603   -5288.66273160   -5288.51245873   -5288.53632094   -5288.62563358
445     -6794.71924687   -6794.66750371   -6794.67092464   -6794.72232826   -6794.74105777
446    -19809.61168916  -19809.57437226  -19809.34837204  -19809.63292762  -19809.51510853
447    -16864.50262778  -16864.44787140  -16864.63284256  -16864.54064083  -16864.71584270
448     -8373.40695740   -8373.35021701   -8373.35897828   -8373.30126615   -8373.15857914
449    -12619.26377811  -12619.52876065  -12619.23773080  -12619.35110113  -12619.48951122
450     -9443.23339412   -9443.38091868   -9443.15085420   -9443.41177884   -9443.06191074
451     -8896.14462289   -8896.30620628   -8896.22093867   -8896.20270576   -8896.20313760
452    -10506.79828449  -10506.87914908  -10506.75367526  -10506.87124834  -10506.75380068
453     -8465.32486188   -8465.27497109   -8465.41592690   -8465.22941678   -8465.08708551
454     -4218.77814099   -4218.80005489   -4218.80248092   -4218.73945481              nan
455    -14681.95440163              nan              nan              nan              nan
456    -12547.85372135  -12548.07359192              nan              nan              nan
457    -16818.30130975  -16818.17846743  -16817.96194448  -16818.20852834  -16818.13060179
458    -20873.28177785  -20873.37558924  -20873.24364077              nan              nan
459    -15714.89944209  -15714.82526851  -15714.86035106  -15714.98880912  -15714.91823174
460     -6451.45991168   -6451.11948049   -6451.16763871   -6451.07816392   -6451.22218641
461     -6887.62151667   -6887.74758756   -6887.70948449   -6887.77957158   -6887.61189807
462   -146256.03778315              nan              nan              nan              nan
463    -20027.29522678  -20027.67366727  -20027.71294897  -20027.61307002  -20027.57173739
464    -34542.62170359  -34543.02798644  -34543.09201374  -34544.60938343  -34543.50044520
465    -13931.88474114  -13931.79289246              nan              nan              nan
466     -9027.32344111   -9027.28682169   -9027.38053993   -9027.17271167   -9027.23441552
467    -11067.52850599  -11067.50505307              nan              nan              nan
468     -9971.59573609   -9972.25147675   -9972.55259780   -9971.96221298   -9971.72307176
469     -7428.45940852   -7428.43196018   -7428.66192188   -7428.60580303   -7428.56915109
470    -29174.75909712              nan              nan              nan              nan
471     -3044.12989019   -3043.99751780   -3044.20387830   -3044.06256634   -3043.83452375
472     -9436.60004194   -9436.65118008   -9436.75706965   -9436.68692158   -9436.65428068
473    -12954.93842190  -12954.98246859  -12955.03540877  -12955.08605553  -12954.94169766
474    -74836.72687780  -74835.14898455  -74836.63216613  -74835.25876480  -74835.58810120
475     -5288.83123271   -5288.96642178   -5288.83522856   -5288.66679972   -5288.79586961
476    -19622.72017031  -19622.88489639  -19623.07859927  -19622.70350848  -19622.73774206
477    -11608.58838007  -11608.96624254  -11608.49717116  -11609.02823056  -11609.08792720
478    -13814.20386830  -13814.63980323  -13814.69927889  -13814.50424292  -13814.26342450
479    -18514.40075394  -18514.53925134  -18514.61764451  -18514.50517765  -18514.53668019
480    -15637.86795566  -15637.95877123  -15637.91975212  -15637.99673286  -15637.96233152
481    -18614.55920866  -18614.72206621  -18614.61991519  -18614.60040509  -18614.64701251
482    -12559.27830351  -12559.53908667  -12559.49063620  -12559.49704862  -12559.28774572
483     -9442.90482905   -9442.37864318   -9442.92732400   -9442.49972886   -9442.88363174
484    -38063.01718967  -38063.21846630  -38063.12301148  -38063.13672793  -38063.19847355
485    -11576.42143910  -11576.30990973  -11576.43960047  -11576.42473756  -11576.50567916
486    -10474.21989380  -10474.20629173  -10474.17334215  -10474.18055085  -10474.12881735
487     -3612.83326158              nan              nan              nan              nan
488     -8498.09515632   -8498.12894916   -8497.94125008   -8497.91610034   -8497.97611981
489    -10942.70570503  -10942.87545675  -10942.59074160  -10942.77455029  -10942.86786771
490     -9443.25901228   -9443.22197083   -9443.27681984   -9443.34497021   -9443.05885638
491   -211005.82109977              nan              nan              nan              nan
492    -76288.18135500              nan              nan              nan              nan
493    -13721.59522542  -13722.16335971  -13722.24600779  -13722.18860412  -13721.71620917
494    -18826.49799141              nan              nan              nan              nan
495     -8498.25440537   -8498.01459631   -8498.32393568   -8498.21423571   -8498.29453182
496    -39657.24198231  -39657.28195311              nan              nan              nan
497    -12678.66216178  -12678.83217625  -12678.75395990  -12678.45657974  -12678.63037665
498    -11450.82614153  -11450.95062040  -11451.02753123  -11450.94619218              nan
499    -23843.33282125  -23843.06291290  -23843.29949046  -23843.26143076  -23843.17671209
500    -73210.01966680  -73210.03577758  -73209.97531959  -73210.01578564  -73210.20006849
501    -79171.71786721  -79171.71083089              nan              nan              nan
502     -6156.12718543              nan              nan              nan              nan
503    -79801.34001595  -79800.90178857  -79800.81150446  -79801.33105660  -79800.81763627
504     -7303.51988631   -7303.25249073   -7303.29868766   -7303.24384836   -7303.58947502
505    -84646.42302437  -84646.58351304  -84646.65898980  -84646.67156282              nan
506    -74279.44277030  -74279.77360605  -74279.81258255  -74279.65511108  -74279.70146704
507     -8896.14684680   -8896.19118892   -8896.09001988   -8896.19355416   -8896.19319837
508     -5348.28688336   -5348.23574955   -5348.42779257   -5348.28437814   -5348.25889591
509    -20459.83860577  -20459.72700842  -20459.79855328  -20459.78508345              nan
510    -43838.95769154              nan              nan              nan              nan
511    -34542.87095824  -34543.34151438  -34543.73164891  -34544.11381403  -34539.99810864
512     -9535.23105520   -9535.14745083   -9535.15467485   -9535.14279254   -9534.94902783
513    -10096.80126162  -10097.10653665  -10096.62395452  -10096.73572612  -10096.80536741
514    -11921.62805290  -11921.85978538  -11921.90765505  -11921.91202356  -11922.07120491
515    -10598.45289687  -10599.09871980  -10599.09979919  -10598.75024128  -10598.96389598
516    -17777.68694021  -17777.59808298  -17777.85215027  -17777.71588221  -17777.69040427
517    -11613.77382874  -11614.51242116  -11614.75538419  -11614.60714358  -11614.75305367
518     -9443.23160081   -9443.19265745   -9443.06442733   -9443.08572950   -9442.87809846
519     -8498.21485256   -8498.19029276   -8498.28152293   -8498.16405666   -8498.27057593
520     -7428.38445985   -7428.34930179   -7428.41761545   -7428.41675367   -7428.36160305
521    -11450.86393083  -11450.91210336  -11450.92641054              nan              nan
522     -5348.65721975   -5348.47235706   -5348.57583730   -5348.57762338   -5348.46260064
523     -6762.52494640   -6762.69911687   -6762.76921832   -6762.77443445   -6762.68192358
524     -5693.41511362   -5692.58229231   -5692.46492919   -5692.89723712   -5692.86759658
525    -20249.05545229  -20249.13904207              nan              nan              nan
526    -20873.27606118  -20873.46782639  -20873.27714160              nan              nan
527    -89750.50313636  -89751.09102881  -89751.15318614  -89751.18361392  -89751.18650050
528     -5255.25956976   -5255.24056024   -5255.32168364   -5255.35262888   -5255.27444410
529    -32951.66522850  -32951.31422041  -32951.54281673  -32951.54292285  -32951.07016313
530     -8459.80827556   -8459.65008734   -8459.99500667   -8459.97725970   -8459.84484850
531    -12710.14626055  -12710.26588147  -12710.49182865  -12710.51907628  -12710.18825427
532    -22780.25453514  -22780.28664469  -22780.30511950  -22780.34429078  -22780.16401628
533    -27427.91295281  -27428.21392270  -27428.20463355  -27427.97459557  -27427.97439448
534     -8373.31048087   -8373.05630820   -8373.06647105   -8373.07914217   -8373.27567286
535   -112657.01135025 -112657.01810167 -112657.10156606              nan              nan
536     -5752.41213523   -5752.39631957   -5752.43937162   -5752.34054137   -5752.21824638
537     -3174.65125690   -3174.65001473              nan              nan              nan
538    -87642.67396538  -87644.76330696  -87645.00466487  -87644.86235994  -87644.96355309
539    -19009.57772235  -19009.63256717              nan              nan              nan
540     -7736.85485644   -7737.05789166   -7736.91440523   -7736.85858173   -7737.02258428
541    -12744.13138444  -12744.35167854  -12744.22422158  -12744.21296845  -12743.89972350
542     -8465.57358020   -8465.82700734   -8465.73682149   -8465.66766816   -8465.59045553
543     -5817.65132283   -5817.65314322   -5817.80048285   -5817.85716801   -5817.74056815
544     -6763.09536305   -6762.46926763   -6762.47010629   -6762.95314429   -6762.95717833
545     -7520.94561726   -7521.28645602   -7521.06722186   -7520.87583510   -7521.03847159
546     -7956.68916376   -7956.77064370   -7956.82045009   -7956.82563916   -7956.62486924
547     -7487.77599272   -7487.80374602   -7487.84234654   -7487.91818965   -7487.71860525
548     -7395.69858558   -7395.65335789   -7395.60837426   -7395.61241112   -7395.50736386
549    -11582.58622277  -11582.71929417  -11582.55164915  -11582.87539506  -11582.83354098
550     -8522.98924004   -8523.54259400   -8523.51394085   -8523.66721344   -8523.62792041
551                nan              nan              nan              nan              nan
552    -11067.33893393  -11067.34827791              nan              nan              nan
553     -8900.91435327   -8900.53496264   -8900.98666328   -8901.19143170   -8900.45572603
554     -6325.82892975   -6325.82125538   -6325.85458829   -6325.89668248   -6325.76683291
555    -15053.69221275  -15053.72184603  -15053.42861777  -15053.36900789  -15053.38812024
556    -10512.95588585  -10512.99940526  -10513.17350319  -10513.06219940  -10512.75387277
557     -7521.08455930   -7521.28633803   -7521.36265701   -7520.77107394   -7521.24172695
558     -7520.73182405   -7521.01601314   -7520.70843243   -7521.08357650   -7521.20505273
559    -82942.05519174  -82942.02682550  -82942.09228304  -82942.05332994              nan
560     -9436.90783484   -9436.80749667   -9436.89337436   -9437.16421776   -9436.97115851
561     -7957.33444586   -7957.36045910   -7956.93209285   -7956.45324529   -7957.27747605
562    -25085.88530991  -25086.36229618  -25086.78991167  -25086.66453284  -25086.81665986
563    -20332.71956068  -20332.79456601  -20332.79982115  -20332.89193803  -20332.49308663
564     -7395.84835334   -7395.95382132   -7395.83914308   -7395.84368115   -7395.82290164
565     -8896.45909146   -8896.36757214   -8896.41572241   -8896.30070960   -8896.39899729
566     -8372.87843361   -8373.02830129   -8373.13238116   -8373.03328367              nan
567     -9266.83039854              nan              nan              nan              nan
568     -5314.94429913   -5314.94117221   -5314.98673585   -5314.95534330   -5314.98686938
569                nan              nan              nan              nan              nan
570     -8465.32317107   -8465.28729025   -8465.35482338   -8465.03307804   -8465.44246962
571                nan              nan              nan              nan              nan
572    -14031.95772988  -14031.95722400  -14031.62799279  -14031.93472747  -14031.45625573
573     -9840.36256596   -9840.39017529              nan              nan              nan
574    -10599.48139742  -10599.37042373  -10599.26465602  -10599.44562044  -10599.36022956
575    -15490.78713848  -15490.87529664  -15490.67682110  -15491.19038954  -15490.59340158
576    -75138.95827622  -75138.95187093  -75138.93393536              nan              nan
577    -54187.24362176              nan              nan              nan              nan
578     -8896.51755686   -8896.56714588   -8896.53122095   -8896.53997422              nan
579     -6325.42980695   -6325.45103899   -6325.38665106   -6325.41549502   -6325.51838524
580    -10473.96139000  -10473.97099665  -10473.85910425  -10473.87767496              nan
581     -5315.19694862   -5315.28958603   -5315.16586198   -5315.31219945   -5315.06971341
582     -7395.32139986   -7395.59332813   -7395.45873700   -7395.36469187   -7395.51515556
583    -53923.21142473  -53923.14664177  -53922.89080441  -53922.77269639  -53923.40318363
584     -8262.79423913   -8262.79418425   -8262.87133350   -8262.79240361              nan
585    -71070.48969892              nan              nan              nan              nan
586     -6384.86308870   -6384.81871926   -6384.78433332   -6384.85694100   -6379.92031237
587    -18208.58651289  -18208.52965653  -18208.62719391  -18208.81682744  -18208.46795814
588    -78559.01491904  -78559.07159627  -78559.18442637  -78557.74074511  -78558.86887499
589    -15404.47771986  -15404.53008692  -15404.52118798  -15404.60768693  -15404.49269689
590    -11922.15904631  -11922.20171537  -11921.87965151  -11922.11958825  -11921.55419684
591     -3802.69318637   -3802.67606417              nan              nan              nan
592     -1102.69886331   -1102.68156420              nan              nan              nan
593    -13007.62182381  -13007.62154954  -13007.66736176  -13007.65811462              nan
594     -7487.72083936   -7488.22987131   -7488.24684816   -7488.07444790   -7487.92243673
595     -5348.13678117   -5348.10494600   -5348.01657031   -5347.59625076   -5348.22456368
596     -9813.49930852   -9813.46153013   -9813.39039819   -9813.50245372   -9813.37748334
597     -4244.36324937   -4244.34229271   -4244.37862832   -4244.31898918   -4244.37617216
598     -8557.69151813   -8557.42894922   -8557.75902887   -8557.39378468   -8557.34328813
599     -4748.13614447   -4748.14564853   -4748.06309888   -4748.30405458   -4748.12755217
600     -8557.64751321   -8557.06049623   -8557.53726767   -8557.50219057   -8557.48826427
601    -19147.17521807  -19146.86019739  -19147.55087527  -19147.54359029  -19147.15984592
602     -4747.56393843   -4747.71639783   -4747.71128857   -4747.69126518   -4747.76334239
603     -5314.64889783   -5314.50306407   -5314.52133050   -5314.64671724   -5314.59027384
604   -141038.19015767 -141038.19990207              nan              nan              nan
605    -33379.47858827  -33379.63431494  -33379.49622478              nan              nan
606    -42446.45324272  -42446.22697597  -42445.09315837  -42446.63136355  -42444.04677205
607    -76419.47943840  -76419.32443364  -76419.44793768  -76419.48487088  -76419.01090025
608    -10605.34798159  -10605.34573863  -10604.65967431  -10605.07883440  -10605.35886418
609    -11570.99011664  -11570.97696701  -11570.98521489  -11570.94558044  -11570.90756889
610    -73210.16465015  -73210.01133141  -73210.12690361  -73210.00940267  -73209.91214346
611    -53427.12406830  -53426.60896984  -53426.23051472  -53426.43215734  -53426.73551829
612     -8459.90815612   -8460.00280980   -8460.01609794   -8459.88999491   -8459.79926949
613     -8896.49482705   -8896.45214970   -8896.47839467   -8896.42486163   -8896.50218373
614    -62632.44928939  -62632.45863623  -62632.43691039              nan              nan
615     -7290.48965640   -7290.30559680   -7290.86023549   -7290.80626174   -7290.88652664
616    -18699.00785628  -18699.40179177  -18699.17965419  -18699.39499072  -18699.55444541
617    -23794.50155702              nan              nan              nan              nan
618    -13645.06758399  -13645.09163665              nan              nan              nan
619   -101539.46170620 -101539.27577353 -101539.34838901 -101538.54924234 -101538.86790888
620    -12745.03698407  -12744.72800293  -12744.81725559  -12744.72967267  -12744.92379940
621    -28254.82872282  -28254.88274368  -28254.65207630  -28254.85051207  -28254.79985372
622     -8405.00902765   -8405.17974845   -8405.11863951   -8405.09425134   -8405.14090166
623    -12677.62596266  -12677.64339351  -12677.64418511  -12677.54626144  -12677.41970996
624     -8806.69447519   -8806.78137862   -8806.83109074   -8806.70750052   -8806.81720015
625     -8806.82766064   -8806.66106277   -8806.81171017   -8806.85637632   -8806.77484293
626    -16117.94597454  -16117.99122928  -16117.95664652  -16117.94546839              nan
627    -25114.00296742  -25114.11429292  -25113.98401289              nan              nan
628     -7388.44963663   -7388.51238402   -7388.35661367              nan              nan
629     -5818.01791086   -5817.96495930   -5817.97977638   -5817.88885556   -5817.95144449
630    -33842.88295121              nan              nan              nan              nan
631    -19530.84136358  -19529.59175060  -19530.10051708  -19532.34595875  -19532.27539835
632     -7427.91604100   -7428.15275668   -7428.13059341   -7428.10733704   -7428.08346612
633   -116717.55695863              nan              nan              nan              nan
634     -7428.58471170   -7428.50076664   -7428.22459446   -7428.47234843   -7428.50789507
635     -7520.93008094   -7521.22105669   -7521.24880654   -7520.84743415   -7520.99365001
636    -12710.10051157  -12710.14050643  -12710.62140477  -12710.13186845  -12710.44844510
637    -27151.25723435              nan              nan              nan              nan
638     -9529.67310289   -9529.77502879   -9529.66210108   -9529.59484648   -9529.75735108
639    -72140.34127425  -72140.33321152  -72140.20860732  -72140.30910740  -72140.32015468
640    -17286.65832331  -17286.65530701  -17286.32743292  -17286.40118628  -17286.70010247
641    -13390.70373049  -13390.88285283  -13390.73957052  -13390.62803541  -13390.84540107
