26

C         -3.04560        1.29750        0.73820
C         -2.36170       -0.00390        0.36950
C         -1.68800        0.08810       -0.98240
C         -1.02100       -1.20390       -1.33040
C          0.02120       -1.54980       -0.30880
O          1.03000       -0.56800       -0.20940
C          2.05980       -0.75830        0.69760
O          2.06470       -1.79780        1.40350
C          3.17970        0.18970        0.90400
C          3.09330        1.40060        0.02130
H         -2.57230        1.77510        1.59920
H         -4.12740        1.14630        0.92590
H         -2.96380        1.97220       -0.13200
H         -3.06350       -0.84500        0.39990
H         -1.55740       -0.17680        1.11870
H         -0.94340        0.89660       -0.98150
H         -2.42870        0.35940       -1.78340
H         -0.61070       -1.22390       -2.35470
H         -1.77160       -2.04900       -1.30110
H          0.53290       -2.48130       -0.68970
H         -0.44980       -1.81460        0.64410
H          3.18080        0.46200        1.99000
H          4.12270       -0.33330        0.69870
H          4.01150        1.51810       -0.62170
H          2.23240        1.40410       -0.65940
H          3.07590        2.29590        0.67670
26

C         -3.76310       -0.30490       -0.47600
C         -2.91990       -0.73150        0.68220
C         -1.44690       -0.62960        0.21390
C         -1.21780        0.78080       -0.15540
C          0.08980        1.16990       -0.69720
O          1.25740        0.98840       -0.00590
C          1.94850       -0.12850        0.30820
O          1.51840       -1.24370       -0.08090
C          3.23920       -0.08230        1.12070
C          4.40530       -0.14780        0.12010
H         -4.77950       -0.77650       -0.38120
H         -3.95930        0.78600       -0.45380
H         -3.31110       -0.54210       -1.46180
H         -3.11290       -1.75500        1.03150
H         -2.98710       -0.03340        1.54790
H         -1.31590       -1.32850       -0.60810
H         -0.88690       -0.90170        1.15520
H         -1.53740        1.44770        0.72100
H         -1.99760        1.03100       -0.95720
H          0.13780        0.72390       -1.74500
H          0.04940        2.30210       -0.90750
H          3.23910        0.85790        1.67000
H          3.33430       -0.97050        1.74880
H          4.34550       -1.12170       -0.41190
H          4.33070        0.71930       -0.59920
H          5.33990       -0.10920        0.71130
26

C          4.37230        0.40000        0.74500
C          2.91180        0.28020        1.15530
C          2.12930        0.03880       -0.09620
C          0.62900       -0.10870        0.16200
C         -0.00700       -0.33360       -1.16380
O         -1.38010       -0.51630       -1.17200
C         -2.34870        0.35770       -0.71880
O         -1.93250        1.44650       -0.23640
C         -3.80170        0.05760       -0.79110
C         -4.41920       -0.37340        0.48930
H          5.07020        0.01640        1.51750
H          4.57010        1.42620        0.41320
H          4.52700       -0.25860       -0.14490
H          2.54400        1.25100        1.58580
H          2.75550       -0.48350        1.92580
H          2.36190        0.80120       -0.83910
H          2.46220       -0.93980       -0.51270
H          0.47990       -0.93370        0.88240
H          0.33290        0.87380        0.62430
H          0.47650       -1.23570       -1.61580
H          0.32840        0.50480       -1.83610
H         -4.02320       -0.69410       -1.58610
H         -4.29670        1.00370       -1.14840
H         -3.83460       -1.22300        0.90690
H         -4.43970        0.50310        1.18860
H         -5.46760       -0.68070        0.26530
26

C          3.39700        0.35740        0.42830
C          2.23140        0.77670       -0.42400
C          1.70400       -0.39850       -1.15860
C          1.21280       -1.53100       -0.32910
C          0.09200       -1.20510        0.60290
O         -1.04350       -0.73090       -0.13080
C         -2.21700       -0.35500        0.50310
O         -2.26050       -0.44060        1.75470
C         -3.42280        0.14280       -0.19710
C         -3.43170        1.65800       -0.11420
H          4.22820        0.04070       -0.26880
H          3.19450       -0.49380        1.08090
H          3.82040        1.23530        0.99150
H          1.47220        1.35580        0.13270
H          2.63930        1.48720       -1.18940
H          0.90870       -0.03940       -1.85560
H          2.52520       -0.76470       -1.82910
H          0.86670       -2.33850       -1.00840
H          2.05160       -1.96250        0.25750
H          0.31580       -0.47650        1.37340
H         -0.25420       -2.12960        1.10490
H         -3.48240       -0.17250       -1.24840
H         -4.36640       -0.19220        0.29910
H         -2.43280        2.06620       -0.45480
H         -4.18970        2.10270       -0.77470
H         -3.55860        2.00800        0.92460
26

C         -4.37250        0.09180        0.47020
C         -3.03390        0.28520       -0.25700
C         -2.04490       -0.68850        0.33180
C         -0.67930       -0.58640       -0.31700
C         -0.09030        0.78710       -0.14970
O          1.16740        0.93090       -0.73520
C          2.31820        0.26330       -0.44020
O          2.28050       -0.59320        0.46830
C          3.61240        0.51100       -1.15240
C          4.64400       -0.41110       -0.54950
H         -4.45450       -1.01640        0.61480
H         -5.20220        0.41620       -0.16750
H         -4.28870        0.62880        1.42200
H         -3.25390        0.06160       -1.32100
H         -2.70800        1.33590       -0.20650
H         -1.99610       -0.60090        1.43450
H         -2.42750       -1.71180        0.11950
H          0.00320       -1.31200        0.16170
H         -0.76890       -0.88310       -1.37680
H         -0.08880        1.04060        0.94550
H         -0.74150        1.56750       -0.64780
H          3.93430        1.56360       -1.04850
H          3.49200        0.20730       -2.21360
H          4.46930       -0.48630        0.55540
H          4.56500       -1.41790       -1.00310
H          5.66480        0.01710       -0.67250
