15

C          1.98070       -0.11730       -0.09090
C          0.67970       -0.73140        0.20120
C         -0.48860       -0.11570        0.07800
C         -0.45390        1.30070       -0.39210
C         -1.76890       -0.76710        0.38090
H          1.92400        0.71180       -0.82630
H          2.49430        0.22750        0.85020
H          2.63250       -0.90020       -0.54040
H          0.66840       -1.76490        0.54270
H          0.15280        1.93680        0.29030
H         -1.47790        1.73350       -0.45210
H         -0.05990        1.29870       -1.42280
H         -2.58860       -0.04960        0.42560
H         -1.70580       -1.27030        1.38240
H         -1.98880       -1.49260       -0.42660
15

C          1.89590       -0.33280        0.35600
C          0.72490        0.58680        0.32850
C         -0.47820        0.18710       -0.06060
C         -1.56690        1.20060       -0.04350
C         -0.65060       -1.22490       -0.48010
H          1.72300       -1.25350       -0.25230
H          2.74530        0.21670       -0.08770
H          2.13800       -0.55910        1.40740
H          0.92970        1.60850        0.65070
H         -2.55720        0.77310       -0.26410
H         -1.26150        2.00450       -0.74290
H         -1.60080        1.63930        0.97760
H         -0.04210       -1.41440       -1.39190
H         -1.69560       -1.48520       -0.69600
H         -0.30380       -1.94690        0.29890
15

C          1.89360       -0.60500        0.12470
C          0.88180        0.44730       -0.13760
C         -0.42780        0.27190       -0.05340
C         -1.34770        1.40760       -0.34120
C         -0.92490       -1.07120        0.33050
H          2.10090       -1.10600       -0.84750
H          1.51590       -1.39720        0.80740
H          2.84530       -0.16440        0.48220
H          1.25950        1.41920       -0.41560
H         -2.14160        1.44220        0.43530
H         -1.76340        1.33740       -1.36090
H         -0.81160        2.37160       -0.27650
H         -0.47230       -1.40970        1.28460
H         -2.01080       -1.13630        0.41000
H         -0.59670       -1.80740       -0.44200
15

C          1.80960       -0.75760        0.01150
C          0.90300        0.30090       -0.46460
C         -0.35850        0.28790       -0.10580
C         -0.85590       -0.81620        0.79100
C         -1.30190        1.34540       -0.57090
H          1.64790       -0.94130        1.10420
H          2.84470       -0.42200       -0.11320
H          1.59580       -1.69560       -0.55860
H          1.25390        1.08540       -1.10110
H         -0.79300       -0.52570        1.85170
H         -1.92140       -0.96590        0.51310
H         -0.27560       -1.76300        0.58560
H         -2.19370        0.88890       -1.05660
H         -0.76260        2.04060       -1.22510
H         -1.59240        1.93820        0.33880
15

C          1.93670        0.38020       -0.10410
C          0.81670       -0.59490        0.03470
C         -0.45900       -0.19120        0.04140
C         -0.77400        1.24260       -0.09020
C         -1.51110       -1.23920        0.18490
H          2.25800        0.33680       -1.16950
H          2.83220        0.04540        0.48350
H          1.67190        1.39080        0.22430
H          1.09560       -1.63700        0.12850
H         -1.86390        1.36510        0.10390
H         -0.26010        1.88450        0.65420
H         -0.55470        1.65880       -1.09500
H         -1.25890       -2.05630       -0.55220
H         -1.41250       -1.72180        1.18110
H         -2.51680       -0.86370       -0.02550
