22

C          1.25080        0.66200       -0.01380
C          1.16070       -0.70800       -0.09760
C          2.32830       -1.46430       -0.17950
C          3.54650       -0.82580       -0.17470
C          3.65420        0.54740       -0.09120
C          2.48780        1.28210       -0.01080
Cl         2.62100        3.02520        0.09520
Cl         5.21820        1.36090       -0.08440
Cl         5.02490       -1.75160       -0.27620
Cl         2.20040       -3.21580       -0.28580
O         -0.05970       -1.37300       -0.10370
C         -1.24930       -0.62730       -0.02160
C         -1.16700        0.74370        0.06250
C         -2.35990        1.45680        0.14260
C         -3.59170        0.84030        0.13990
C         -3.63710       -0.54440        0.05380
C         -2.46020       -1.28780       -0.02770
Cl        -2.50880       -3.03910       -0.13550
Cl        -5.14190       -1.43110        0.04190
Cl        -5.09210        1.74120        0.24120
Cl        -2.29410        3.20500        0.25240
O          0.06920        1.40330        0.06770
