15

C          0.38650        1.01980        0.61200
C         -0.98320        1.04860        0.45280
C         -1.62990        0.05110       -0.24320
C         -0.86590       -0.96910       -0.77100
C          0.50070       -0.97940       -0.60080
C          1.16970        0.00910        0.09260
C          2.61850       -0.01700        0.26370
O          3.21420        0.88990        0.89750
O         -3.00520        0.03300       -0.43190
H          0.90690        1.81370        1.16680
H         -1.59330        1.84490        0.86300
H         -1.37410       -1.76300       -1.32410
H          1.10130       -1.77820       -1.01380
H          3.21700       -0.80540       -0.14320
H         -3.66330       -0.39790        0.17940
15

C         -0.34130        1.10320        0.55290
C          1.03260        1.00390        0.49090
C          1.63980       -0.07300       -0.12050
C          0.83830       -1.04710       -0.66780
C         -0.53570       -0.94260       -0.60280
C         -1.15490        0.12750        0.00480
C         -2.60670        0.22080        0.06370
O         -3.28410       -0.70000       -0.45400
O          3.04290       -0.16850       -0.18050
H         -0.79410        1.97370        1.04700
H          1.67820        1.76830        0.92030
H          1.31540       -1.89840       -1.15070
H         -1.14370       -1.73640       -1.04900
H         -3.14150        1.02910        0.52290
H          3.45470       -0.66040        0.62280
15

C          0.28610       -1.25120       -0.19120
C         -1.09320       -1.07880       -0.04440
C         -1.60400        0.18150        0.15260
C         -0.74810        1.28510        0.20590
C          0.62660        1.10450        0.05850
C          1.12780       -0.16220       -0.13840
C          2.55750       -0.33790       -0.28960
O          3.37480        0.61560       -0.25070
O         -2.96820        0.35780        0.29840
H          0.65730       -2.25820       -0.34530
H         -1.73730       -1.94110       -0.08830
H         -1.15160        2.28200        0.36170
H          1.22930        2.00050        0.11010
H          3.00010       -1.32590       -0.44740
H         -3.55700        0.52820       -0.52570
