21

C          3.15360       -0.07110        0.03490
C          1.67010        0.17960        0.03080
C          1.15180        1.45480        0.10810
C         -0.22290        1.64520        0.10120
C         -1.09170        0.57660        0.01800
C         -0.54720       -0.68580       -0.05800
C          0.82460       -0.89850       -0.05270
C         -1.47780       -1.83540       -0.14780
C         -2.57300        0.80030        0.01200
H          3.34650       -0.64660        0.98050
H          3.47530       -0.66400       -0.82990
H          3.70500        0.88190        0.03820
H          1.85260        2.26900        0.17200
H         -0.60150        2.67360        0.16410
H          1.23030       -1.90740       -0.11390
H         -0.92090       -2.69770       -0.59170
H         -1.82240       -2.04650        0.88640
H         -2.33050       -1.64180       -0.83390
H         -2.84710        1.59830        0.75470
H         -3.08980       -0.13400        0.32170
H         -2.88510        1.14930       -0.99470
21

C          3.09580       -0.62360       -0.07950
C          1.68260       -0.14650       -0.06460
C          1.36780        1.19300       -0.17150
C          0.06410        1.64780       -0.15890
C         -0.99260        0.76720       -0.03710
C         -0.66840       -0.56890        0.06910
C          0.63020       -1.03000        0.05720
C         -1.76380       -1.55390        0.20250
C         -2.40350        1.23760       -0.02180
H          3.71390        0.22580       -0.48590
H          3.22420       -1.54320       -0.67420
H          3.41740       -0.75070        0.97980
H          2.20720        1.87290       -0.26650
H         -0.17090        2.70720       -0.24390
H          0.86220       -2.09680        0.14300
H         -1.52440       -2.39980       -0.48460
H         -2.74790       -1.15820       -0.03970
H         -1.71120       -1.98690        1.23700
H         -2.38920        2.34070       -0.20910
H         -2.85380        1.13780        1.00630
H         -3.03980        0.72860       -0.75760
21

C          3.15660        0.05330        0.35300
C          1.68160       -0.14680        0.23990
C          1.10310       -1.36560        0.51290
C         -0.25790       -1.57840        0.41630
C         -1.10940       -0.56430        0.03650
C         -0.53650        0.65810       -0.23810
C          0.83240        0.87260       -0.14100
C         -1.45100        1.75440       -0.64850
C         -2.57690       -0.74820       -0.08070
H          3.50290        0.83880       -0.35520
H          3.45260        0.29680        1.39920
H          3.72140       -0.86680        0.08320
H          1.76140       -2.16620        0.81100
H         -0.68140       -2.55290        0.63900
H          1.27400        1.85250       -0.36310
H         -2.24750        1.93400        0.09380
H         -0.85860        2.69130       -0.70420
H         -1.92000        1.58030       -1.63280
H         -2.77960       -1.58610       -0.81080
H         -3.03070       -1.10110        0.87490
H         -3.03650        0.14430       -0.48540
21

C          3.10950        0.04070        0.20990
C          1.65100       -0.15050        0.07580
C          1.17140       -1.39930       -0.21700
C         -0.18780       -1.55410       -0.33700
C         -1.08700       -0.51420       -0.17680
C         -0.59610        0.72700        0.11520
C          0.77210        0.89950        0.23950
C         -1.51040        1.85140        0.29170
C         -2.51530       -0.82390       -0.33440
H          3.62680       -0.60230       -0.53720
H          3.46620       -0.24560        1.22590
H          3.36070        1.09090       -0.05120
H          1.84390       -2.25880       -0.35390
H         -0.53710       -2.56970       -0.57250
H          1.20120        1.87800        0.47240
H         -0.98230        2.63080        0.88800
H         -2.43160        1.62010        0.85400
H         -1.74560        2.34870       -0.68770
H         -3.20410       -0.08500        0.04430
H         -2.70300       -1.77200        0.24770
H         -2.70250       -1.11170       -1.39650
21

C          3.06070        0.27250        0.57990
C          1.63540       -0.03470        0.26640
C          1.26020       -1.32550       -0.00040
C         -0.04650       -1.61160       -0.28910
C         -1.00090       -0.61550       -0.31650
C         -0.64370        0.66880       -0.05410
C          0.67210        0.96130        0.23730
C         -1.62820        1.75360       -0.07380
C         -2.39300       -1.01510       -0.63850
H          3.09430        1.28790        0.98800
H          3.61220        0.21530       -0.39780
H          3.48270       -0.45440        1.28540
H          1.97280       -2.13260        0.01050
H         -0.31650       -2.64440       -0.49690
H          0.98350        1.98210        0.45130
H         -2.65160        1.43970        0.20270
H         -1.30070        2.52280        0.65590
H         -1.60510        2.27110       -1.07410
H         -2.35240       -1.85760       -1.38950
H         -3.02530       -0.19200       -0.96600
H         -2.81010       -1.49170        0.28330
