16

C          2.28400       -0.11990       -0.19550
O          1.70140        0.29830        0.97210
C          0.34850        0.49600        0.94390
C         -0.43120       -0.74500        0.59180
O         -1.78800       -0.59280        0.55640
C         -2.25650        0.33310       -0.35930
H          2.13830        0.58730       -1.03700
H          3.39530       -0.17320        0.01810
H          2.00050       -1.13350       -0.48060
H          0.03800        1.35590        0.31100
H          0.03930        0.76960        1.98850
H         -0.01300       -1.21130       -0.32810
H         -0.22080       -1.49580        1.40630
H         -1.91550        0.00350       -1.37110
H         -1.93250        1.33410       -0.06560
H         -3.38780        0.29380       -0.40650
16

C         -2.05070       -0.04250        0.99540
O         -0.79270        0.26660        0.52670
C         -0.60050       -0.03540       -0.78830
C          0.77440        0.30580       -1.28890
O          1.79750       -0.31440       -0.68270
C          2.04930       -0.17820        0.62870
H         -2.06550        0.25830        2.08450
H         -2.24960       -1.15120        0.91770
H         -2.85910        0.54830        0.52700
H         -0.73890       -1.12290       -0.99210
H         -1.39640        0.45760       -1.42260
H          0.83720        1.42440       -1.28980
H          0.73180        0.05970       -2.40120
H          1.27010       -0.52220        1.33210
H          2.95340       -0.80930        0.90480
H          2.33980        0.85540        0.94860
16

C         -2.89680       -0.00320       -0.18280
O         -1.65620        0.42170        0.27570
C         -0.65870       -0.33160       -0.38250
C          0.66250        0.17330        0.15490
O          1.74440       -0.48730       -0.41230
C          2.89590        0.07880        0.17430
H         -3.66740        0.59590        0.34170
H         -2.92810        0.16710       -1.26690
H         -3.00940       -1.09310       -0.01680
H         -0.85380       -1.38800       -0.11300
H         -0.71080       -0.22290       -1.46250
H          0.74230        1.23780       -0.16540
H          0.72720        0.11120        1.24020
H          2.94050        1.17690       -0.04270
H          2.85050       -0.00730        1.28030
H          3.81800       -0.42930       -0.15450
16

C          2.10920       -0.36980       -0.51430
O          1.66840       -0.64710        0.76930
C          0.76260        0.32460        1.15480
C         -0.45420        0.43560        0.29960
O         -1.20230       -0.73390        0.25430
C         -2.30620       -0.47580       -0.58270
H          1.29600       -0.36430       -1.22970
H          2.95940       -1.03840       -0.81360
H          2.55520        0.65560       -0.49110
H          0.50200        0.12290        2.22800
H          1.23680        1.34910        1.17020
H         -0.20640        0.86290       -0.66970
H         -1.11670        1.19380        0.81910
H         -1.91970       -0.20640       -1.56680
H         -2.96590        0.28830       -0.12180
H         -2.91810       -1.39700       -0.70570
16

C          2.62110        0.21160        0.27710
O          1.57190       -0.64370        0.01920
C          0.38490        0.04200       -0.25610
C         -0.71390       -0.94750       -0.52710
O         -1.92630       -0.38390       -0.81440
C         -2.40750        0.39910        0.20740
H          2.45020        0.86950        1.13720
H          2.85420        0.85740       -0.59590
H          3.50930       -0.41290        0.50280
H          0.16610        0.66230        0.65080
H          0.47410        0.74050       -1.09790
H         -0.86680       -1.64240        0.34300
H         -0.39980       -1.63560       -1.35850
H         -1.73340        1.23690        0.43230
H         -2.58880       -0.20360        1.13940
H         -3.39530        0.85030       -0.08200
