14

C          0.61610        0.42940        0.00980
C         -0.60760       -0.38850        0.37650
C         -1.87360        0.42600        0.22920
Cl        -3.29830       -0.54580        0.66260
C          1.86490       -0.42290        0.17080
Cl         3.30410        0.52330       -0.25550
H          0.57970        0.71670       -1.06040
H          0.66180        1.32410        0.62340
H         -0.66090       -1.22780       -0.34710
H         -0.51430       -0.79710        1.40300
H         -2.00390        0.71390       -0.83420
H         -1.88290        1.31850        0.87090
H          1.83460       -1.29320       -0.49810
H          1.98030       -0.77640        1.21500
14

C          0.53800       -0.50290       -0.44000
C         -0.51250        0.41910        0.15680
C         -1.89950        0.04020       -0.26250
Cl        -3.02520        1.19390        0.50220
C          1.89940       -0.01170        0.06190
Cl         3.20760       -1.00960       -0.56780
H          0.37760       -1.55160       -0.13430
H          0.56360       -0.38420       -1.54230
H         -0.47090        0.35880        1.26400
H         -0.32510        1.45000       -0.20190
H         -2.02810        0.01620       -1.36560
H         -2.19470       -0.97250        0.10310
H          2.01820        1.06400       -0.13320
H          1.85150       -0.10960        1.18540
14

C          0.67420       -0.23000       -0.70900
C         -0.42150       -0.91750        0.06880
C         -1.51110        0.08880        0.36790
Cl        -2.84400       -0.65340        1.28170
C          1.30410        0.91030        0.01130
Cl         2.01550        0.28600        1.53890
H          0.32350        0.13670       -1.69220
H          1.49050       -0.98190       -0.89810
H         -0.85590       -1.76420       -0.46340
H         -0.05340       -1.27860        1.04760
H         -1.89550        0.45480       -0.60690
H         -1.02730        0.91280        0.96380
H          0.65050        1.76830        0.21870
H          2.15040        1.26800       -0.64870
14

C         -0.47720       -0.69530       -0.54500
C          0.59700       -0.67830        0.50500
C          1.36760        0.61820        0.43370
Cl         2.65710        0.68250        1.65200
C         -1.44730        0.43170       -0.35940
Cl        -2.72130        0.36820       -1.63180
H          0.00810       -0.65090       -1.55020
H         -1.01100       -1.66810       -0.51920
H          0.14450       -0.85060        1.49770
H          1.27770       -1.54270        0.30720
H          0.69290        1.46810        0.65620
H          1.78870        0.75870       -0.55810
H         -1.93020        0.35190        0.62490
H         -0.94660        1.40670       -0.51300
14

C          0.50620        0.24910       -0.38990
C         -0.56790       -0.38090        0.47800
C         -1.94670       -0.05830       -0.02360
Cl        -2.24520        1.69520       -0.04010
C          1.88700       -0.06460        0.09930
Cl         3.04040        0.73280       -1.00540
H          0.37490        1.35240       -0.34750
H          0.43300       -0.11820       -1.43490
H         -0.47130       -0.07940        1.51680
H         -0.43990       -1.48160        0.40650
H         -2.04380       -0.47080       -1.06300
H         -2.71130       -0.50430        0.63980
H          2.08770        0.28970        1.12390
H          2.09710       -1.16090        0.04010
