24

C         -2.51020        0.03240        0.07400
C         -1.08980        0.25110       -0.30270
C         -0.27470       -0.95920        0.14060
C          1.12310       -0.69950       -0.40970
C          1.61890        0.49540        0.41660
C          0.72550        1.65090        0.03830
O         -0.58080        1.35820        0.32750
O          1.10350        2.75330        0.79530
O          2.94890        0.74820        0.22730
O          1.94980       -1.78170       -0.32090
O         -0.80430       -2.14810       -0.25920
O         -2.96780       -1.10890       -0.60140
H         -3.11390        0.87400       -0.29760
H         -2.60270       -0.07290        1.14680
H         -1.01720        0.29130       -1.40610
H         -0.23810       -0.88780        1.26310
H          1.00820       -0.29580       -1.45180
H          1.38100        0.26400        1.49430
H          0.90790        1.85470       -1.03920
H          0.97420        3.57630        0.26480
H          3.46440       -0.00100        0.60510
H          2.48230       -1.81850       -1.17890
H         -0.85610       -2.77160        0.53390
H         -3.63220       -1.60470       -0.06000
24

C          2.45340       -0.17310       -0.36830
C          1.08380        0.03520        0.15070
C          0.13680       -0.91710       -0.59620
C         -1.14700       -0.84860        0.19660
C         -1.67090        0.56870       -0.01660
C         -0.63260        1.57700        0.35440
O          0.62760        1.30530       -0.09500
O         -1.03300        2.79540       -0.24430
O         -2.82850        0.80280        0.69850
O         -2.06140       -1.79940       -0.14410
O          0.65800       -2.17390       -0.70920
O          3.36440        0.69940        0.20830
H          2.48090       -0.00490       -1.45630
H          2.79810       -1.21450       -0.14440
H          1.04430       -0.22070        1.23820
H         -0.07740       -0.42900       -1.58390
H         -0.91580       -0.93380        1.28330
H         -1.89750        0.65850       -1.08890
H         -0.66780        1.79410        1.46220
H         -0.23860        3.36660       -0.39260
H         -3.50030        0.13460        0.39100
H         -2.30560       -2.41160        0.60820
H          0.27810       -2.85420       -0.11530
H          4.05070        0.24330        0.74670
24

C         -2.14880       -1.03990       -0.13800
C         -0.94180       -0.56850        0.66840
C         -0.52420        0.80080        0.26420
C          0.93930        1.06020        0.44390
C          1.77040       -0.03340       -0.16140
C          1.01840       -1.33920       -0.29740
O          0.04460       -1.51160        0.65870
O          0.54710       -1.50870       -1.59450
O          2.92510       -0.16450        0.60870
O          1.24390        2.27480       -0.16320
O         -1.20560        1.76230        1.04550
O         -3.15060       -0.09610       -0.13530
H         -2.54530       -1.93400        0.41070
H         -1.88630       -1.28060       -1.18100
H         -1.32090       -0.49800        1.73080
H         -0.79470        1.06130       -0.79480
H          1.16420        1.18470        1.53170
H          2.11850        0.32130       -1.17170
H          1.77920       -2.14820       -0.13350
H          0.32240       -0.66640       -2.04090
H          3.41530       -0.99720        0.38290
H          0.71570        2.28640       -1.01820
H         -0.60330        2.26730        1.62100
H         -2.88270        0.76690       -0.53680
24

C          2.51010       -0.66800        0.30920
C          1.10530       -0.38800       -0.12990
C          0.47500        0.74110        0.66190
C         -0.90660        0.94440        0.03520
C         -1.65230       -0.35630        0.28490
C         -0.92540       -1.41700       -0.55200
O          0.36770       -1.55110       -0.05950
O         -1.54340       -2.64950       -0.45380
O         -2.98690       -0.27930       -0.02660
O         -1.55240        2.04620        0.51690
O          1.25850        1.86620        0.58030
O          3.30630        0.48430        0.25700
H          2.53890       -1.16180        1.28930
H          2.94330       -1.38980       -0.43140
H          1.13400       -0.02180       -1.19770
H          0.31870        0.39650        1.71270
H         -0.75810        0.99280       -1.07660
H         -1.50140       -0.62850        1.35010
H         -0.91780       -1.01500       -1.58640
H         -2.52270       -2.56190       -0.45080
H         -3.17130        0.66650       -0.30270
H         -1.72350        2.67190       -0.25680
H          0.70440        2.59510        0.21030
H          3.49960        0.68310       -0.68320
24

C         -2.32710        0.43810       -0.59800
C         -0.90020       -0.02010       -0.85580
C         -0.47530       -1.10690        0.06880
C          0.54610       -0.63410        1.08930
C          1.66660        0.14340        0.46130
C          1.24040        0.80980       -0.83670
O         -0.09850        1.12970       -0.72610
O          1.95390        1.98740       -1.05820
O          2.74870       -0.69230        0.16040
O         -0.05770        0.12440        2.08300
O          0.15340       -2.14270       -0.64980
O         -2.46580        0.98060        0.66710
H         -3.02330       -0.41950       -0.71240
H         -2.63170        1.20630       -1.32520
H         -0.84700       -0.36590       -1.90870
H         -1.30780       -1.56080        0.64720
H          0.96850       -1.53850        1.55660
H          2.04850        0.92650        1.17100
H          1.42330        0.09490       -1.67270
H          1.42940        2.74630       -0.72240
H          3.22880       -0.84430        1.00720
H          0.11220        1.09270        1.99340
H         -0.50580       -2.69860       -1.14080
H         -2.87940        0.34360        1.30140
