38

C         -2.24660       -2.35030        1.33080
C         -1.54940       -2.27110       -0.01820
C         -1.55290       -0.89360       -0.56800
C         -2.64120       -0.57650       -1.39390
C         -2.82480        0.72060       -1.79940
C         -1.92120        1.68780       -1.37180
C         -0.84070        1.42690       -0.56380
C         -0.65930        0.10840       -0.16310
N          0.55590       -0.31280        0.46190
C          1.54640       -1.08330       -0.32110
O          2.54400       -0.21270       -0.66820
C          3.56460       -0.76430       -1.40020
C          0.72490       -0.22170        1.86350
O         -0.14110        0.19230        2.66410
C          2.02090       -0.64500        2.47740
Cl         2.01600       -0.50630        4.23930
C          0.14590        2.42630       -0.20580
C         -0.18380        3.84890       -0.34980
H         -1.52250       -2.41040        2.14360
H         -3.01420       -3.14700        1.35200
H         -2.83310       -1.39590        1.46190
H         -2.10750       -2.94410       -0.72410
H         -0.54580       -2.69710        0.07790
H         -3.30260       -1.36060       -1.70000
H         -3.67290        0.96270       -2.45080
H         -2.04260        2.68820       -1.72760
H          1.87840       -1.95750        0.25030
H          0.99280       -1.47700       -1.21270
H          4.29440        0.07110       -1.59850
H          3.18050       -1.05980       -2.39640
H          4.05610       -1.59970       -0.86630
H          2.31250       -1.67220        2.18960
H          2.81890        0.01140        2.01610
H          0.47500        2.27520        0.86340
H          1.07460        2.23550       -0.82200
H         -0.34860        4.33820        0.66630
H         -0.98340        4.16170       -1.00310
H          0.73260        4.40360       -0.73300
38

C          3.36010       -0.69720        0.65080
C          2.34510       -1.08900       -0.40500
C          1.42490       -0.01590       -0.78190
C          1.85810        0.82120       -1.81860
C          1.18020        1.99080       -2.07730
C          0.07600        2.32370       -1.30960
C         -0.32240        1.47040       -0.30560
C          0.32330        0.29260       -0.01940
N         -0.42030       -0.75500        0.57550
C         -1.37360       -1.45480       -0.30510
O         -0.83960       -2.63160       -0.76570
C         -1.76410       -3.25810       -1.60360
C         -0.50270       -1.07080        1.95490
O         -1.15260       -2.09490        2.32750
C          0.11370       -0.27690        3.02980
Cl        -0.20550       -1.13160        4.58540
C         -1.51960        1.84260        0.46730
C         -2.18640        3.10450       -0.09610
H          4.28560       -1.32390        0.57060
H          3.00310       -0.81590        1.68810
H          3.69910        0.34970        0.53170
H          1.83140       -1.97540        0.03020
H          2.94710       -1.47040       -1.26530
H          2.70290        0.57470       -2.43850
H          1.46650        2.67400       -2.86450
H         -0.47320        3.23810       -1.48840
H         -1.56290       -0.80170       -1.16420
H         -2.34880       -1.58020        0.21720
H         -2.66920       -3.44420       -1.01250
H         -1.36240       -4.20640       -1.97420
H         -1.94840       -2.58720       -2.47100
H         -0.44830        0.68530        3.14910
H          1.18640       -0.10540        2.94690
H         -1.14260        2.17640        1.46810
H         -2.30130        1.07720        0.52510
H         -1.61640        4.01320        0.10550
H         -3.14640        3.18680        0.49420
H         -2.49690        2.96510       -1.15150
38

C          0.50560       -3.23440       -0.00190
C         -0.00120       -2.39040        1.16500
C         -1.03680       -1.44260        0.76110
C         -2.35180       -1.90590        0.83880
C         -3.41670       -1.24280        0.30330
C         -3.15930       -0.05480       -0.34880
C         -1.86960        0.45560       -0.45420
C         -0.82170       -0.22700        0.10470
N          0.50100        0.29380        0.27010
C          1.58500        0.16730       -0.64790
O          1.91860        1.37750       -1.30290
C          2.98200        1.09760       -2.16010
C          0.84100        0.67400        1.63730
O          0.00930        0.59480        2.57380
C          2.20600        1.16060        1.95170
Cl         2.28220        1.54940        3.67700
C         -1.67200        1.67840       -1.20620
C         -1.42370        2.93110       -0.44530
H          0.40760       -4.30820        0.22270
H          1.58410       -3.05190       -0.20770
H         -0.05040       -2.95060       -0.94000
H          0.88890       -1.97640        1.64570
H         -0.43430       -3.09730        1.92740
H         -2.58480       -2.84960        1.35100
H         -4.42380       -1.63860        0.39280
H         -4.01340        0.45620       -0.77270
H          1.31010       -0.60020       -1.41270
H          2.53690       -0.19360       -0.20690
H          3.82020        0.72320       -1.55670
H          3.23270        2.06130       -2.65330
H          2.74160        0.29620       -2.89300
H          2.48840        2.02380        1.31170
H          2.92420        0.30150        1.79580
H         -2.59030        1.83510       -1.85960
H         -0.79950        1.52430       -1.90130
H         -0.42910        2.98960        0.00240
H         -1.44300        3.76810       -1.21250
H         -2.24390        3.20490        0.25140
38

C          2.25430       -3.06440        0.49810
C          1.08490       -2.14730        0.78350
C          1.29720       -0.84760        0.11170
C          2.56140       -0.58210       -0.43080
C          2.83120        0.68060       -0.91320
C          1.87790        1.66890       -0.85980
C          0.64380        1.38720       -0.32430
C          0.32720        0.12190        0.16140
N         -1.02660       -0.15740        0.42340
C         -1.86740       -0.38500       -0.75030
O         -2.05140       -1.71540       -1.05220
C         -2.85270       -1.78000       -2.19040
C         -1.66820       -0.08530        1.69440
O         -2.90120       -0.34780        1.80190
C         -0.95470        0.29970        2.93450
Cl        -2.11500        0.35740        4.27830
C         -0.32650        2.45990       -0.11270
C          0.09300        3.74800       -0.82160
H          2.43750       -3.14690       -0.57900
H          2.06230       -4.08170        0.94850
H          3.16570       -2.68860        0.99670
H          1.08860       -1.95100        1.89790
H          0.13090       -2.62880        0.54830
H          3.34280       -1.33140       -0.49370
H          3.82200        0.84790       -1.34550
H          2.12170        2.63660       -1.24230
H         -1.53840        0.22450       -1.61740
H         -2.87560        0.00480       -0.49250
H         -3.03350       -2.83240       -2.47360
H         -2.26250       -1.25730       -2.99350
H         -3.80170       -1.23260       -2.06420
H         -0.40200        1.25860        2.84470
H         -0.26410       -0.54430        3.18400
H         -1.35900        2.25290       -0.39980
H         -0.34120        2.74470        0.97800
H          0.16670        3.48140       -1.90500
H         -0.68240        4.52700       -0.65670
H          1.01490        4.10520       -0.36680
38

C         -0.21070        3.46430       -0.53850
C          0.41670        2.61950        0.54900
C         -0.41350        1.42120        0.76430
C         -1.42840        1.56910        1.72690
C         -2.36110        0.58440        1.91090
C         -2.30950       -0.55680        1.16010
C         -1.29660       -0.69940        0.21930
C         -0.34230        0.26150       -0.00540
N          0.91500       -0.05580       -0.60220
C          2.06040       -0.24000        0.34840
O          2.18870       -1.58440        0.63660
C          3.23060       -1.75630        1.51950
C          1.23860       -0.12570       -1.95060
O          2.46090       -0.47410       -2.22930
C          0.45510        0.12060       -3.16350
Cl        -1.19440        0.64620       -2.97380
C         -1.13460       -2.07720       -0.32530
C         -2.44720       -2.86770       -0.16570
H         -1.13620        3.00630       -0.94740
H          0.50810        3.77400       -1.32230
H         -0.57750        4.45730       -0.11480
H          1.47530        2.37100        0.29460
H          0.42940        3.26380        1.46900
H         -1.50400        2.44910        2.32980
H         -3.15640        0.65030        2.65580
H         -3.08050       -1.32620        1.31300
H          2.96000        0.15790       -0.14010
H          1.84730        0.26610        1.30020
H          4.15360       -1.37620        1.01870
H          3.31640       -2.77580        1.90050
H          3.09350       -1.09030        2.41650
H          0.41610       -0.85270       -3.73790
H          1.06380        0.80920       -3.81070
H         -0.93720       -2.06910       -1.39700
H         -0.41450       -2.62610        0.29220
H         -2.37930       -3.81390       -0.76150
H         -3.30940       -2.30800       -0.51510
H         -2.59620       -3.21620        0.87570
