9

C          1.46490       -0.04300        0.38710
S         -0.05940       -0.41310        1.26850
C         -1.47270        0.00530        0.23270
H          2.14380       -0.90760        0.44940
H          1.96490        0.79240        0.92460
H          1.31120        0.24860       -0.66100
H         -2.02780        0.85580        0.68620
H         -1.18260        0.33010       -0.78110
H         -2.14240       -0.86840        0.19660
9

C         -1.45790        0.14830        0.15260
S          0.03980       -0.46550        0.98220
C          1.44990       -0.17930       -0.10150
H         -1.84410        1.00450        0.73200
H         -2.19760       -0.69100        0.15920
H         -1.24020        0.46090       -0.89890
H          1.97450       -1.11180       -0.39250
H          2.13150        0.52350        0.41360
H          1.14400        0.31050       -1.04670
9

C         -1.47550       -0.02670        0.02210
S         -0.01030       -0.32880       -1.03640
C          1.45660        0.00520       -0.01150
H         -2.28460       -0.63490       -0.40810
H         -1.21010       -0.28960        1.05900
H         -1.74510        1.04220       -0.09420
H          1.95070        0.89380       -0.44300
H          2.11830       -0.88170       -0.12090
H          1.19990        0.22050        1.03310
9

C         -1.46680       -0.18130       -0.03440
S          0.02330       -0.55870        0.95030
C          1.44920        0.15890        0.06690
H         -1.83870        0.85190        0.17800
H         -2.21890       -0.94890        0.24270
H         -1.21090       -0.21250       -1.12620
H          1.87420        0.92870        0.75030
H          2.23280       -0.61760       -0.11590
H          1.15580        0.57940       -0.91170
