26

C          3.95130       -0.37220        0.42460
C          3.74830        0.98600        0.36510
C          2.46500        1.46910        0.21680
C          1.35570        0.64280        0.12370
C          1.56360       -0.73140        0.18410
C          2.86100       -1.21430        0.33380
C          0.41810       -1.62500        0.08910
O          0.57490       -2.88310        0.14090
C         -0.94900       -1.09900       -0.06900
C         -2.02360       -1.97360       -0.15720
C         -3.29650       -1.48400       -0.30460
C         -3.48430       -0.12230       -0.36250
C         -2.41700        0.73950       -0.27470
C         -1.11050        0.27360       -0.12450
C          0.01630        1.19120       -0.03220
O         -0.17080        2.42950       -0.08660
N         -2.57330        2.14870       -0.33080
H          4.96790       -0.71850        0.54100
H          4.57960        1.70360        0.43210
H          2.27220        2.54530        0.16640
H          3.00500       -2.29180        0.37930
H         -1.85020       -3.03940       -0.10900
H         -4.15050       -2.16870       -0.37510
H         -4.48930        0.24320       -0.47820
H         -2.60040        2.67020       -1.24610
H         -2.66330        2.68050        0.55380
26

C          3.94880       -0.58940       -0.39200
C          3.82860        0.62520        0.24650
C          2.59710        1.14840        0.54730
C          1.43140        0.47720        0.22130
C          1.54590       -0.74010       -0.41850
C          2.79090       -1.25550       -0.71540
C          0.31100       -1.46490       -0.77120
O          0.43650       -2.57580       -1.35550
C         -1.01160       -0.93460       -0.46490
C         -2.17060       -1.60940       -0.79290
C         -3.41900       -1.10210       -0.50000
C         -3.48880        0.13490        0.14920
C         -2.35570        0.83750        0.49230
C         -1.12620        0.29220        0.17990
C          0.10460        0.99580        0.52160
O          0.00110        2.10740        1.10580
N         -2.48210        2.09260        1.15210
H          4.93820       -0.95310       -0.60400
H          4.70500        1.20390        0.53030
H          2.53320        2.09000        1.04160
H          2.85360       -2.21360       -1.21820
H         -2.09970       -2.56440       -1.29450
H         -4.31240       -1.65050       -0.76770
H         -4.48410        0.52370        0.37450
H         -2.24790        2.21130        2.15920
H         -2.82790        2.91320        0.57300
