16

C          2.65730        0.41190        0.22180
O          1.74190       -0.61870        0.47080
C          0.37850       -0.41910        0.16670
C         -0.55500       -1.39780        0.39260
C         -1.89020       -1.22010        0.10170
C         -2.26670       -0.01260       -0.43080
C         -1.36150        1.00330       -0.67580
C         -0.03940        0.78000       -0.36940
H          2.25700        1.32500        0.74490
H          3.65360        0.14810        0.56780
H          2.62750        0.67590       -0.87490
H         -0.23440       -2.33760        0.81130
H         -2.63690       -2.00520        0.28320
H         -3.31550        0.16080       -0.67220
H         -1.71210        1.95330       -1.10400
H          0.69570        1.55270       -0.54810
16

C         -2.69850        0.08590        0.32570
O         -1.66990       -0.84850        0.32480
C         -0.34430       -0.47790        0.10720
C          0.68820       -1.39100        0.10290
C          1.99610       -1.00610       -0.11450
C          2.34150        0.31120       -0.33900
C          1.30380        1.22020       -0.33350
C         -0.00390        0.83860       -0.11660
H         -2.91370        0.41580       -0.72340
H         -3.62190       -0.35360        0.75070
H         -2.41290        0.92860        0.98500
H          0.41850       -2.43360        0.28020
H          2.80840       -1.73810       -0.11610
H          3.36770        0.60600       -0.50860
H          1.55970        2.27140       -0.51010
H         -0.81880        1.57130       -0.11470
16

C         -2.64870        0.35080        0.32470
O         -1.74210       -0.69530        0.02850
C         -0.39670       -0.42530        0.01680
C          0.49390       -1.43590       -0.27020
C          1.85570       -1.20010       -0.29080
C          2.34450        0.06070       -0.02200
C          1.44850        1.06600        0.26400
C          0.09340        0.83340        0.28500
H         -2.59360        1.14830       -0.45100
H         -2.41090        0.80460        1.33190
H         -3.69730       -0.04470        0.42250
H          0.10460       -2.44790       -0.48600
H          2.50120       -2.01520       -0.51820
H          3.41410        0.28210       -0.02970
H          1.82080        2.04740        0.47370
H         -0.58750        1.67110        0.51970
16

C          2.73970        0.14910        0.10010
O          1.61820        0.93560       -0.22900
C          0.31750        0.44800       -0.13390
C         -0.75790        1.25230       -0.46610
C         -2.06830        0.82640       -0.39270
C         -2.32860       -0.45130        0.02760
C         -1.26260       -1.26210        0.36140
C          0.05340       -0.84350        0.29080
H          2.55600       -0.48600        1.01520
H          2.95260       -0.52980       -0.73480
H          3.64500        0.77840        0.28740
H         -0.56420        2.27220       -0.80260
H         -2.90460        1.47490       -0.65890
H         -3.36600       -0.77950        0.08290
H         -1.49050       -2.26490        0.69000
H          0.86040       -1.51980        0.56260
16

C          2.63820       -0.12060       -0.75350
O          1.61020       -1.03570       -0.42590
C          0.32200       -0.53080       -0.19690
C          0.06250        0.81910       -0.28780
C         -1.19510        1.33610       -0.06710
C         -2.25250        0.50990        0.25710
C         -1.98880       -0.84470        0.34770
C         -0.73080       -1.35960        0.12660
H          2.80590        0.56060        0.11170
H          2.27410        0.46150       -1.65070
H          3.55510       -0.63680       -1.08380
H          0.89490        1.47680       -0.54330
H         -1.40860        2.41250       -0.13810
H         -3.25470        0.88700        0.43690
H         -2.81480       -1.50560        0.60270
H         -0.51760       -2.42960        0.19710
