11

C          1.17210       -0.41000        0.31160
C          0.11200        0.45130       -0.33410
C         -1.26960       -0.05650       -0.03810
Cl         0.31180        2.16530        0.08260
H          1.37540       -1.26280       -0.35530
H          2.09670        0.15800        0.49230
H          0.79390       -0.80790        1.26140
H          0.26510        0.37790       -1.44290
H         -1.98720        0.78340       -0.12300
H         -1.53250       -0.82790       -0.81000
H         -1.33780       -0.57080        0.95550
11

C         -1.24550        0.02260       -0.33510
C         -0.02710        0.13630        0.57240
C          1.25000       -0.18530       -0.17440
Cl         0.05610        1.71220        1.37140
H         -1.41970        0.95170       -0.91550
H         -2.11070       -0.30240        0.25930
H         -1.00550       -0.81250       -1.04460
H         -0.17670       -0.63520        1.36920
H          0.97420       -0.57210       -1.18830
H          1.89140        0.71160       -0.21940
H          1.81360       -1.02690        0.30490
11

C         -1.24980       -0.23800        0.15770
C          0.00210        0.54610       -0.24050
C          1.25530       -0.27010        0.03970
Cl         0.06960        2.12240        0.55140
H         -2.11660        0.38380       -0.12100
H         -1.25080       -1.13680       -0.50940
H         -1.22360       -0.55840        1.19900
H         -0.09940        0.68610       -1.35070
H          0.92100       -1.32580        0.20670
H          1.79270        0.10130        0.93430
H          1.89940       -0.31070       -0.86710
11

C         -1.23640       -0.29130       -0.06550
C          0.00660        0.58180        0.15050
C          1.25140       -0.23870       -0.01120
Cl        -0.07400        1.97230       -0.91570
H         -2.12700        0.34430       -0.05750
H         -1.23840       -0.99490        0.81130
H         -1.16760       -0.84370       -1.02200
H         -0.11160        0.95690        1.20370
H          0.96150       -1.27070       -0.33490
H          1.96970        0.16570       -0.73320
H          1.76570       -0.38160        0.97450
11

C          1.20030       -0.26840        0.16400
C          0.00550        0.62030       -0.00240
C         -1.24290       -0.21190       -0.08740
Cl         0.23450        1.68260       -1.38900
H          1.43530       -0.39720        1.24950
H          1.00860       -1.30820       -0.20980
H          2.06010        0.10340       -0.41970
H         -0.08890        1.25360        0.91580
H         -1.52450       -0.48450       -1.12320
H         -2.06950        0.21680        0.50170
H         -1.01850       -1.20650        0.40040
