9

C         -0.92140        0.44540        0.00020
C          0.18210       -0.61340        0.03130
C          1.51030        0.00630       -0.03630
N          2.56680        0.48950       -0.08310
H         -0.41940        1.41990       -0.22940
H         -1.69850        0.18390       -0.73800
H         -1.36900        0.51440        1.00140
H          0.06380       -1.22990       -0.89860
H          0.08540       -1.21600        0.95260
9

C         -0.98100       -0.28510        0.01970
C          0.29140        0.54750       -0.00500
C          1.48960       -0.28560       -0.03850
N          2.44870       -0.93550       -0.06340
H         -1.54910       -0.13650       -0.92770
H         -1.61220        0.01560        0.90030
H         -0.65470       -1.33860        0.14430
H          0.28660        1.17800       -0.90020
H          0.28080        1.24030        0.87060
9

C         -0.94900        0.35490       -0.01830
C          0.21850       -0.59270        0.14810
C          1.45320        0.13830       -0.11340
N          2.45770        0.71110       -0.32700
H         -1.84610        0.00490        0.49340
H         -0.60790        1.34190        0.36980
H         -1.08870        0.49480       -1.11040
H          0.13740       -1.39030       -0.60060
H          0.22490       -1.06290        1.15840
9

C         -0.96140       -0.36290        0.01690
C          0.23040        0.60050        0.07720
C          1.45290       -0.16250       -0.13890
N          2.44000       -0.76670       -0.31660
H         -1.87760        0.18380        0.24210
H         -0.74080       -1.14180        0.77740
H         -0.92720       -0.82650       -0.97080
H          0.22820        1.12500        1.05730
H          0.15550        1.35110       -0.74450
9

C         -0.97120       -0.22690       -0.10480
C          0.31900        0.52030        0.09020
C          1.48170       -0.35880        0.07620
N          2.41460       -1.06000        0.05540
H         -0.80760       -1.25480       -0.48910
H         -1.45620       -0.35440        0.89210
H         -1.67790        0.34940       -0.76090
H          0.44300        1.24580       -0.76490
H          0.25470        1.13940        1.00580
