13

C         -2.20730        0.19400       -0.10430
C         -0.93130        0.17170        0.62670
O         -0.92710        0.32440        1.81740
C          0.32820       -0.03660       -0.10020
O          1.46130       -0.03210        0.73750
N          2.68560       -0.22290        0.12210
O          3.23240        0.80680       -0.32910
O          3.26170       -1.47200        0.01570
H         -2.17860        0.99080       -0.87730
H         -2.31980       -0.77250       -0.62360
H         -3.07550        0.30600        0.57310
H          0.38920        0.77200       -0.88290
H          0.28120       -1.02950       -0.62680
13

C         -1.92640       -0.31480        0.36620
C         -0.51380       -0.28220        0.25330
O          0.19860       -0.74400        1.20430
C          0.23560        0.26890       -0.92760
O          1.53220       -0.00150       -0.71680
N          2.49060        0.44950        0.09120
O          3.12330       -0.52070        0.64430
O          2.10730        1.46590        1.02050
H         -2.36820       -1.02170       -0.36200
H         -2.24470       -0.64190        1.40200
H         -2.35120        0.69470        0.20160
H         -0.13690        1.17470       -1.39420
H         -0.14640       -0.52690       -1.78280
13

C         -2.25830       -0.14080        0.41240
C         -0.92560        0.43140        0.03730
O         -0.86800        1.42670       -0.65860
C          0.32730       -0.19310        0.49880
O          1.42320        0.51710        0.02240
N          2.73040        0.24040        0.24130
O          3.48300        1.13790        0.64360
O          3.24300       -1.00740        0.02940
H         -3.02470        0.12670       -0.35220
H         -2.23680       -1.25390        0.43650
H         -2.61040        0.30030        1.37100
H          0.37850       -1.22850        0.05290
H          0.33830       -0.35680        1.59460
13

C         -1.90970       -0.09900        0.23490
C         -1.08050        0.11120       -0.98460
O         -1.68920        0.27940       -2.02730
C          0.39340        0.12320       -0.97870
O          0.94700       -0.08320        0.29100
N          2.31250       -0.09030        0.40590
O          2.90470       -1.18010        0.27390
O          3.06230        1.03350        0.65770
H         -2.47540        0.84740        0.47720
H         -2.68990       -0.85780        0.02400
H         -1.32530       -0.45610        1.09730
H          0.74670       -0.72710       -1.63040
H          0.80350        1.09870       -1.35590
13

C         -1.95730        0.31700        0.27820
C         -0.80350        0.14010       -0.61140
O         -0.95340        0.49980       -1.78780
C          0.37290       -0.73320       -0.29270
O          1.07660       -0.22290        0.82720
N          2.37560        0.21740        0.68140
O          2.74480        1.19330        1.37800
O          2.97460        0.09810       -0.54870
H         -1.80660       -0.12650        1.27890
H         -2.84450       -0.18540       -0.21030
H         -2.21570        1.39140        0.35410
H         -0.00010       -1.79230       -0.10520
H          1.03670       -0.79680       -1.13420
