27

C          3.13100        0.45510       -0.61690
C          2.88360       -0.92110       -0.02810
C          2.28880       -0.73240        1.34700
C          0.99870        0.02280        1.28880
C         -0.07270       -0.65590        0.45950
C         -1.29120        0.23380        0.51360
C         -2.45080       -0.30830       -0.26860
C         -3.57340        0.65970       -0.12980
C         -4.11740        1.26700       -1.18120
H          3.75090        0.37210       -1.53680
H          2.13950        0.88650       -0.86790
H          3.63040        1.07960        0.15940
H          3.81580       -1.52590        0.00760
H          2.15980       -1.44840       -0.67950
H          2.96970       -0.17270        2.01160
H          2.11930       -1.71900        1.84410
H          1.16770        1.05530        0.91760
H          0.62960        0.10620        2.35190
H         -0.25210       -1.68430        0.76490
H          0.28610       -0.66820       -0.60770
H         -0.99650        1.21240        0.07840
H         -1.59070        0.32130        1.56450
H         -2.74190       -1.30120        0.14710
H         -2.22910       -0.46110       -1.33880
H         -3.97750        0.89290        0.84950
H         -3.74490        1.06350       -2.17870
H         -4.93280        1.97020       -1.08170
27

C          3.88190       -0.20160       -0.09560
C          2.75450       -1.21110       -0.04070
C          1.45320       -0.50350        0.28880
C          1.09110        0.52830       -0.72070
C         -0.19470        1.19620       -0.32550
C         -1.35510        0.23310       -0.23330
C         -2.60740        1.00150        0.15440
C         -3.78620        0.11800        0.26090
C         -3.69240       -1.16860        0.02950
H          4.01960        0.19230       -1.13080
H          3.55870        0.68500        0.51640
H          4.83480       -0.61500        0.24570
H          2.95480       -1.90870        0.80330
H          2.68820       -1.79540       -0.96800
H          1.57250       -0.01110        1.27460
H          0.62970       -1.23740        0.38580
H          0.90130        0.05400       -1.72200
H          1.86500        1.33310       -0.81370
H         -0.48510        1.95830       -1.09360
H         -0.06970        1.77100        0.61690
H         -1.21270       -0.52760        0.58900
H         -1.51630       -0.25530       -1.19280
H         -2.47000        1.51720        1.13180
H         -2.83030        1.75330       -0.64510
H         -4.73320        0.55100        0.53420
H         -2.73400       -1.58910       -0.24510
H         -4.51820       -1.86790        0.09180
27

C         -4.21950        0.51790       -0.50790
C         -2.77380        0.67380       -0.01880
C         -2.26570       -0.73120        0.24290
C         -0.84420       -0.73410        0.73380
C          0.09260       -0.09140       -0.29810
C          1.47900       -0.15400        0.30700
C          2.51620        0.45370       -0.61690
C          3.85380        0.35430        0.04800
C          4.86660       -0.29540       -0.46350
H         -4.86500        1.31820       -0.10080
H         -4.63900       -0.43910       -0.12780
H         -4.24310        0.45720       -1.60430
H         -2.73070        1.31100        0.87210
H         -2.22880        1.14570       -0.86150
H         -2.87740       -1.23670        1.01640
H         -2.31550       -1.31020       -0.68180
H         -0.71910       -0.24890        1.72310
H         -0.54950       -1.79490        0.87010
H          0.01910       -0.58360       -1.26260
H         -0.19950        0.98620       -0.32140
H          1.43190        0.49520        1.22990
H          1.76970       -1.15070        0.64520
H          2.30340        1.51520       -0.81680
H          2.56430       -0.17480       -1.52910
H          3.95350        0.86060        1.00520
H          5.81120       -0.33250        0.06440
H          4.80960       -0.81140       -1.41080
27

C         -3.91550        0.21780       -0.64360
C         -3.07330       -0.53130        0.35980
C         -1.68010       -0.80370       -0.16180
C         -0.99840        0.51320       -0.46890
C          0.40390        0.32410       -0.99890
C          1.24620       -0.39530        0.00490
C          2.66280       -0.61590       -0.46110
C          3.38370        0.62400       -0.75340
C          4.49150        0.91130       -0.08150
H         -4.00440       -0.36450       -1.59740
H         -4.94660        0.26660       -0.21400
H         -3.58980        1.25050       -0.81130
H         -3.58170       -1.49340        0.56790
H         -3.05300        0.06400        1.29520
H         -1.15220       -1.35830        0.66110
H         -1.76210       -1.44670       -1.03970
H         -1.60600        1.02120       -1.23710
H         -0.94390        1.10090        0.47930
H          0.30970       -0.27790       -1.94620
H          0.80220        1.29380       -1.29170
H          0.81410       -1.42730        0.14540
H          1.24490        0.14660        0.94980
H          3.18720       -1.15660        0.34910
H          2.71570       -1.26540       -1.35400
H          3.07550        1.35280       -1.50070
H          4.88770        0.23960        0.69540
H          5.08180        1.80970       -0.24040
27

C         -3.32840        0.65680       -0.31390
C         -2.91730       -0.79760       -0.50000
C         -1.91500       -1.23240        0.52760
C         -0.64710       -0.41920        0.48470
C          0.04290       -0.52210       -0.85920
C          1.30530        0.28940       -0.90110
C          2.31410       -0.15920        0.14400
C          3.50640        0.69310        0.01410
C          3.91000        1.43090        1.01800
H         -2.86400        1.31490       -1.08670
H         -4.40860        0.79680       -0.26160
H         -2.90520        0.97550        0.65980
H         -3.85250       -1.38450       -0.37070
H         -2.52500       -0.95310       -1.50560
H         -2.37660       -1.10150        1.53060
H         -1.69440       -2.29410        0.40520
H          0.03770       -0.79170        1.28980
H         -0.89320        0.63730        0.69560
H         -0.68440       -0.10030       -1.60310
H          0.26400       -1.56300       -1.13350
H          1.12960        1.37070       -0.73320
H          1.75780        0.20400       -1.90850
H          1.91930       -0.05230        1.16710
H          2.60540       -1.21860       -0.05940
H          4.04830        0.71140       -0.90570
H          3.37880        1.43180        1.96340
H          4.79200        2.07700        0.95870
