15

C         -0.93560       -1.66540        0.05810
C         -1.86100       -0.68740       -0.21020
C         -1.41910        0.60980       -0.30100
C         -0.07800        0.93690       -0.12870
C          0.85570       -0.04040        0.14080
C          0.41340       -1.34220        0.23220
C          2.27110        0.28190        0.32550
O          2.70640        1.44440        0.25040
O          0.38640        2.24170       -0.21690
H         -1.26780       -2.68360        0.13190
H         -2.91100       -0.90050       -0.35020
H         -2.12480        1.39680       -0.51080
H          1.14350       -2.13410        0.44660
H          2.98650       -0.50110        0.53630
H         -0.16590        3.04310       -0.40400
15

C         -1.54030       -1.11870       -0.00500
C         -1.92020        0.20950        0.10350
C         -1.00840        1.23140        0.13110
C          0.33150        0.90830        0.04670
C          0.75600       -0.40320       -0.06270
C         -0.19340       -1.40890       -0.08730
C          2.17950       -0.68850       -0.14830
O          2.58320       -1.87160       -0.24800
O          1.31020        1.90000        0.06910
H         -2.25690       -1.92740       -0.02690
H         -2.99410        0.39570        0.16590
H         -1.31680        2.26580        0.21620
H          0.14700       -2.45200       -0.17440
H          2.91060        0.09830       -0.12850
H          1.01200        2.86140        0.14860
15

C         -1.69070        0.86550        0.06670
C         -1.96290       -0.48130        0.18340
C         -0.92260       -1.40520        0.17030
C          0.37490       -0.95510        0.03960
C          0.61180        0.39310       -0.07450
C         -0.40350        1.33500       -0.06460
C          1.97040        0.89340       -0.21340
O          2.23620        2.12010       -0.32100
O          1.38410       -1.89080        0.02970
H         -2.49740        1.57150        0.07770
H         -2.98270       -0.86400        0.28820
H         -1.10530       -2.46220        0.25950
H         -0.19170        2.39860       -0.15660
H          2.81780        0.22310       -0.23000
H          2.36160       -1.74180       -0.05520
