32

C         -3.17170       -3.05710       -0.40700
C         -2.03160       -2.05680       -0.24200
O         -2.41340       -1.16020        0.72510
P         -1.27220        0.02370        1.04190
S         -0.39480       -0.33290        2.49030
O         -2.09320        1.47870        1.30600
C         -2.14920        2.24980        0.14590
C         -2.90940        3.52230        0.52100
O         -0.17620        0.25490       -0.24170
C          1.19160        0.13200       -0.11930
C          2.00880        1.19600        0.21670
C          3.37090        0.97330        0.31550
C          3.93830       -0.25780        0.09360
C          3.11330       -1.33280       -0.24580
C          1.75860       -1.10120       -0.34170
N          5.32560       -0.49840        0.19140
O          6.07600        0.44150        0.49120
O          5.87810       -1.73060       -0.03200
H         -3.47860       -3.09430       -1.47340
H         -2.78650       -4.05770       -0.13880
H         -4.01330       -2.84370        0.26680
H         -1.10230       -2.56060        0.06130
H         -1.85730       -1.53710       -1.22210
H         -1.11900        2.52480       -0.21760
H         -2.74820        1.76930       -0.65520
H         -3.08890        4.15260       -0.36050
H         -2.29690        4.02300        1.29920
H         -3.85900        3.16670        0.99480
H          1.59960        2.16850        0.39630
H          4.03310        1.78390        0.57580
H          3.55200       -2.30990       -0.42340
H          1.11570       -1.92970       -0.60420
32

C         -2.42380       -3.72190        0.15850
C         -2.35350       -2.23490       -0.04090
O         -1.25910       -1.75340        0.67710
P         -1.09240       -0.08350        0.51730
S         -0.51290        0.65610        1.94840
O         -2.58510        0.63710        0.09750
C         -2.39680        2.00940        0.25350
C         -3.64390        2.79310       -0.08450
O         -0.03150        0.21830       -0.79720
C          1.31570        0.26290       -0.55090
C          2.06740       -0.87920       -0.63330
C          3.43900       -0.87510       -0.39040
C          4.05860        0.32920       -0.05420
C          3.30160        1.47490        0.02790
C          1.92120        1.44870       -0.22070
N          5.44720        0.39360        0.20300
O          5.96900        1.47960        0.49950
O          6.26860       -0.70090        0.14180
H         -1.45300       -4.18250        0.42070
H         -3.14280       -4.00120        0.95950
H         -2.77140       -4.24870       -0.77540
H         -2.09420       -2.07130       -1.12760
H         -3.28160       -1.72360        0.21530
H         -1.57110        2.30250       -0.41610
H         -2.10280        2.21600        1.29930
H         -3.94090        2.59770       -1.12790
H         -3.38070        3.86820       -0.00030
H         -4.41110        2.54920        0.65250
H          1.57600       -1.79910       -0.89330
H          4.04140       -1.76740       -0.45210
H          3.71620        2.44750        0.28430
H          1.32690        2.35850       -0.15420
32

C         -3.25680        2.99740        0.64890
C         -2.93540        1.53280        0.65540
O         -1.96500        1.16940        1.57090
P         -0.93580       -0.03320        0.92960
S         -0.64440       -1.14820        2.19120
O         -1.79520       -0.72630       -0.36360
C         -2.03300       -2.07280       -0.18310
C         -3.51290       -2.26480        0.02820
O          0.40230        0.76880        0.35100
C          1.65140        0.35120        0.04430
C          2.41360        1.22800       -0.72290
C          3.70080        0.93010       -1.08300
C          4.27450       -0.26660       -0.70190
C          3.50110       -1.20120       -0.02560
C          2.18740       -0.89160        0.23030
N          5.69510       -0.33020       -0.64070
O          6.23400       -0.25960        0.48210
O          6.39820        0.02960       -1.77040
H         -3.34250        3.35580        1.70460
H         -2.43430        3.51980        0.10550
H         -4.22470        3.11490        0.09960
H         -3.82770        0.90870        0.85860
H         -2.53910        1.24470       -0.34830
H         -1.74410       -2.59370       -1.13090
H         -1.41100       -2.53320        0.60560
H         -3.71370       -2.66180        1.03460
H         -4.09810       -1.33590       -0.07960
H         -3.93060       -2.97500       -0.72880
H          1.95540        2.08300       -1.22320
H          4.33350        1.73380       -1.46210
H          4.01200       -2.05330        0.37790
H          1.58510       -1.62050        0.72950
32

C         -2.36970       -2.60560        0.59520
C         -2.08320       -1.68200       -0.54100
O         -1.65440       -0.42680       -0.13800
P         -1.33310        0.60840       -1.39620
S         -2.14190        0.11720       -2.86500
O         -1.94310        2.13690       -1.00400
C         -1.94970        2.27650        0.38140
C         -2.48460        3.62310        0.79650
O          0.31830        0.78270       -1.74940
C          1.34520        0.23480       -1.03700
C          1.83510       -1.00960       -1.34290
C          2.87990       -1.58160       -0.62750
C          3.45350       -0.89120        0.42520
C          2.94280        0.37810        0.72560
C          1.89980        0.93680        0.00340
N          4.51580       -1.41020        1.19440
O          4.97130       -2.52920        0.93530
O          5.03810       -0.68210        2.21880
H         -3.41500       -2.56330        0.96320
H         -2.22270       -3.65590        0.23560
H         -1.65060       -2.48200        1.44860
H         -2.99540       -1.64120       -1.17780
H         -1.23430       -2.13280       -1.13300
H         -2.53960        1.46740        0.82430
H         -0.90360        2.18110        0.77690
H         -3.59680        3.52960        0.92070
H         -2.30180        4.35810       -0.01740
H         -2.01540        3.94780        1.75050
H          1.40590       -1.56060       -2.15320
H          3.26100       -2.55820       -0.87110
H          3.40320        0.90620        1.55310
H          1.56500        1.92770        0.30470
32

C         -2.62970       -2.58730        0.60290
C         -1.30080       -2.22990       -0.03510
O         -1.45640       -1.20080       -0.95010
P         -1.31260        0.28930       -0.18440
S         -1.70720        0.04410        1.49140
O         -2.34040        1.43340       -0.89970
C         -3.54490        1.56340       -0.23810
C         -3.41780        2.37270        1.03460
O          0.24790        0.89470       -0.28810
C          1.43350        0.29620        0.09890
C          2.17920       -0.37700       -0.82880
C          3.55870       -0.47150       -0.70220
C          4.20340        0.16540        0.31830
C          3.45740        0.74930        1.30660
C          2.05800        0.78390        1.22200
N          5.63250        0.25490        0.30530
O          6.32960       -0.72240        0.66980
O          6.20170        1.05060       -0.67760
H         -3.40660       -1.79930        0.43660
H         -2.42470       -2.71060        1.70520
H         -3.05360       -3.52270        0.24440
H         -1.01540       -3.15540       -0.63920
H         -0.50330       -2.09320        0.69370
H         -4.18270        2.22200       -0.92010
H         -4.11240        0.63850       -0.12920
H         -4.00790        3.30300        1.05220
H         -2.36310        2.67080        1.25430
H         -3.83400        1.71340        1.83790
H          1.77600       -0.61040       -1.79510
H          4.10200       -1.21220       -1.27940
H          3.95900        1.13820        2.16690
H          1.47470        1.10870        2.06140
