11

C         -1.73730       -0.03180       -0.00590
C         -0.31550        0.40420        0.10340
C          0.67680       -0.42180       -0.10930
C          2.03230        0.06000        0.01190
O          3.00150       -0.70500       -0.18520
H         -1.98610       -0.06670       -1.08540
H         -2.37980        0.71080        0.50860
H         -1.87610       -1.01160        0.49590
H         -0.09200        1.43010        0.36510
H          0.45380       -1.45070       -0.37230
H          2.22230        1.08230        0.27310
11

C         -1.70860        0.30110       -0.24220
C         -0.29560       -0.03020       -0.56550
C          0.66360       -0.05070        0.34880
C          2.03530       -0.37820        0.00220
O          2.89260       -0.37840        0.91970
H         -1.81770        0.84860        0.69410
H         -2.34330       -0.60480       -0.27650
H         -2.05970        0.98250       -1.06740
H         -0.01480       -0.26770       -1.58270
H          0.39520        0.18300        1.35740
H          2.25290       -0.60500       -1.02280
11

C         -1.73840       -0.05540        0.03360
C         -0.32080        0.28570        0.32830
C          0.66850       -0.27770       -0.33640
C          2.05740        0.03280       -0.07350
O          2.34400        0.86550        0.81540
H         -1.78860       -0.98450       -0.55860
H         -2.15710        0.74930       -0.58370
H         -2.30290       -0.20210        0.99420
H         -0.05800        1.00370        1.09400
H          0.42740       -0.99540       -1.10250
H          2.86850       -0.42190       -0.61070
11

C         -1.69890       -0.11760        0.00540
C         -0.25960       -0.38170       -0.16140
C          0.66830        0.48580        0.19810
C          2.05750        0.15910        0.00480
O          2.37670       -0.92890       -0.49550
H         -1.92020        0.42270        0.96590
H         -2.28450       -1.06210        0.02140
H         -2.10890        0.46470       -0.86930
H          0.02940       -1.32830       -0.59710
H          0.33200        1.42800        0.63340
H          2.80830        0.85820        0.29440
