13

C          1.30580       -0.19330        0.23960
C         -0.02980        0.16620       -0.41750
C         -0.96050       -0.99030       -0.15090
C         -0.51260        1.43190        0.16390
O          0.27590        2.19810        0.66290
H          1.09700       -0.72570        1.19260
H          1.83220       -0.84850       -0.50080
H          1.83440        0.77190        0.39560
H          0.16080        0.28780       -1.50210
H         -1.90820       -0.77640       -0.65270
H         -0.47070       -1.90070       -0.52810
H         -1.06990       -1.10340        0.94720
H         -1.55450        1.68240        0.15030
13

C         -0.92070       -0.82070        0.55960
C          0.05400       -0.17480       -0.41200
C         -0.10600        1.31920       -0.27350
C          1.42180       -0.64520       -0.13090
O          2.09060       -0.15220        0.74670
H         -0.75680       -0.48500        1.60430
H         -0.93260       -1.92170        0.47400
H         -1.93190       -0.45860        0.27530
H         -0.29700       -0.44120       -1.42980
H          0.83640        1.83430       -0.00250
H         -0.46900        1.79760       -1.20900
H         -0.84290        1.59800        0.51140
H          1.85410       -1.44980       -0.71380
13

C         -1.31540        0.15490        0.30800
C         -0.01960       -0.15770       -0.41450
C          0.93320        0.97180       -0.06090
C          0.52550       -1.48710       -0.04860
O          1.70250       -1.72240        0.12810
H         -1.90160       -0.74050        0.55200
H         -1.84770        0.89990       -0.30010
H         -1.08910        0.66640        1.28410
H         -0.18360       -0.13850       -1.51410
H          1.95950        0.78010       -0.39590
H          0.55730        1.86520       -0.62170
H          0.87010        1.20550        1.01770
H         -0.19100       -2.29770        0.06590
13

C          1.22150       -0.21920        0.60820
C          0.06170       -0.02870       -0.32860
C         -0.73500        1.21700       -0.03730
C         -0.78970       -1.24750       -0.36330
O         -0.47040       -2.14920       -1.11810
H          1.00270        0.03380        1.65360
H          2.10200        0.37630        0.26280
H          1.53090       -1.29910        0.51360
H          0.48550        0.11830       -1.35060
H         -1.43410        1.34940       -0.90930
H         -0.02210        2.07020       -0.08540
H         -1.28110        1.17360        0.92350
H         -1.67180       -1.39500        0.23100
13

C         -0.99800       -0.95470       -0.24930
C          0.05070        0.15550       -0.41630
C          1.34240       -0.20520        0.27550
C         -0.50540        1.35170        0.25740
O         -0.97020        2.22930       -0.41610
H         -1.84370       -0.64630       -0.91110
H         -0.57410       -1.92530       -0.51630
H         -1.37210       -0.88220        0.78860
H          0.25930        0.30850       -1.48580
H          1.45860       -1.30020        0.42590
H          2.20040        0.16080       -0.34260
H          1.43120        0.30380        1.25970
H         -0.47900        1.40430        1.33040
