17

C          2.44180       -0.75450        0.07720
C          1.09490       -0.09780        0.00980
C          0.95240        1.26680       -0.15260
C         -0.29470        1.86850       -0.21380
C         -1.44600        1.09490       -0.11090
C         -1.32240       -0.27880        0.05270
C         -0.07900       -0.82830        0.10760
N         -2.50700       -1.06100        0.15610
O         -2.43330       -2.29750        0.30260
O         -3.74160       -0.49880        0.09970
H          2.27910       -1.72980        0.58440
H          3.19060       -0.14320        0.56850
H          2.70130       -1.01200       -0.98300
H          1.86670        1.83720       -0.22920
H         -0.34400        2.94470       -0.34240
H         -2.40170        1.59580       -0.16240
H          0.04280       -1.90630        0.23570
17

C          2.37950       -0.87890        0.27500
C          1.08250       -0.16670        0.08110
C          1.02330        1.18860       -0.17450
C         -0.19020        1.82240       -0.34960
C         -1.39150        1.14830       -0.28030
C         -1.33370       -0.20930       -0.02440
C         -0.12130       -0.83820        0.14980
N         -2.56610       -0.91490        0.04910
O         -2.50470       -2.13860        0.28000
O         -3.76960       -0.31010       -0.12010
H          2.46210       -1.31560        1.29040
H          2.42970       -1.64710       -0.52190
H          3.18010       -0.11980        0.19820
H          1.96630        1.73380       -0.23190
H         -0.23550        2.89250       -0.55150
H         -2.34060        1.65100       -0.41870
H         -0.07050       -1.89740        0.34940
17

C         -2.40090       -0.75230       -0.13810
C         -1.05190       -0.13270       -0.05960
C         -0.95560        1.25620       -0.05190
C          0.28290        1.86280        0.02010
C          1.44980        1.15750        0.08590
C          1.35010       -0.24100        0.07800
C          0.11510       -0.85490        0.00610
N          2.49180       -1.04790        0.14240
O          3.61740       -0.53330        0.20840
O          2.37120       -2.40360        0.13340
H         -2.32380       -1.76340        0.30410
H         -2.73780       -0.84720       -1.18400
H         -3.17050       -0.15160        0.38940
H         -1.85820        1.85540       -0.10250
H          0.34520        2.95750        0.02500
H          2.43500        1.59680        0.14320
H          0.04020       -1.95800        0.00010
17

C         -2.28380       -1.04100        0.01090
C         -1.03840       -0.25580        0.01690
C         -1.12200        1.12970        0.09630
C          0.02480        1.89620        0.10470
C          1.25440        1.25150        0.03240
C          1.36670       -0.12300       -0.04730
C          0.19520       -0.87550       -0.05420
N          2.64590       -0.73670       -0.11960
O          2.72980       -1.97700       -0.19100
O          3.76370        0.02050       -0.11060
H         -2.06520       -2.10230       -0.21750
H         -3.00670       -0.61580       -0.73580
H         -2.82500       -1.02900        0.97740
H         -2.07660        1.60870        0.15120
H         -0.01920        2.98150        0.16630
H          2.18880        1.81950        0.03620
H          0.26750       -1.95140       -0.11610
17

C         -2.41070       -0.73880       -0.05030
C         -1.06160       -0.13710       -0.05210
C         -0.93150        1.22540       -0.24260
C          0.29680        1.85950       -0.25660
C          1.44650        1.10270       -0.07260
C          1.33350       -0.25860        0.11890
C          0.10190       -0.86360        0.12840
N          2.51730       -1.03070        0.30760
O          3.63730       -0.49470        0.30110
O          2.46640       -2.38940        0.50290
H         -2.78460       -0.84750       -1.09610
H         -2.45240       -1.70750        0.49950
H         -3.11640       -0.05970        0.50100
H         -1.85070        1.80590       -0.38610
H          0.36900        2.92820       -0.40800
H          2.43710        1.52780       -0.07130
H          0.00190       -1.92190        0.27640
