27

C          3.80720       -1.31220       -0.04250
C          4.00250        0.00360       -0.39190
C          2.97390        0.91250       -0.51920
C          1.67600        0.48340       -0.28430
C          1.45490       -0.83320        0.06790
C          2.51620       -1.73670        0.19060
C          0.07730       -1.27880        0.31500
O         -0.16820       -2.46790        0.63760
C         -1.02900       -0.33770        0.18750
C         -2.33870       -0.76310        0.42300
C         -3.40960        0.09470        0.31280
C         -3.19620        1.39700       -0.03500
C         -1.90910        1.84760       -0.27460
C         -0.83030        0.98190       -0.16320
C          0.53940        1.41060       -0.40540
O          0.75810        2.60560       -0.72680
O         -1.63290        3.15240       -0.62920
N         -2.51960       -2.12770        0.78360
H          4.66580       -1.97440        0.03970
H          5.02910        0.32280       -0.57260
H          3.16660        1.93860       -0.79550
H          2.31490       -2.75120        0.46490
H         -4.41090       -0.26780        0.50210
H         -3.99050        2.13340       -0.14170
H         -2.36080        3.84980       -0.73280
H         -2.38020       -2.48890        1.74930
H         -2.80600       -2.79430        0.04090
27

C          3.89440        0.65320        0.23020
C          3.96520       -0.72410        0.21600
C          2.78930       -1.43750        0.14050
C          1.60200       -0.75280        0.08280
C          1.52280        0.63610        0.09670
C          2.69800        1.33080        0.17190
C          0.23980        1.34020        0.03380
O          0.15630        2.58010        0.04540
C         -0.97610        0.53970       -0.04530
C         -2.19700        1.17900       -0.10570
C         -3.38660        0.47320       -0.18220
C         -3.29900       -0.91080       -0.19550
C         -2.06590       -1.56390       -0.13450
C         -0.91580       -0.84270       -0.06010
C          0.35640       -1.54200        0.00230
O          0.40370       -2.81450       -0.01180
O         -1.99990       -2.94390       -0.14900
N         -2.22550        2.59200       -0.08870
H          4.82010        1.21240        0.28950
H          4.93890       -1.23520        0.26390
H          2.86950       -2.51710        0.13070
H          2.68660        2.40930        0.18560
H         -4.32860        1.00030       -0.22840
H         -4.21060       -1.48730       -0.25450
H         -2.85570       -3.47810       -0.20430
H         -2.12420        3.17870        0.76440
H         -2.35810        3.12490       -0.99380
27

C          3.70850       -1.25380        0.01190
C          3.94180        0.05730        0.34680
C          2.90210        0.94450        0.47150
C          1.61760        0.49150        0.25330
C          1.37750       -0.81980       -0.08220
C          2.44220       -1.72190       -0.20830
C          0.01690       -1.28590       -0.31010
O         -0.16700       -2.49440       -0.61620
C         -1.06840       -0.33240       -0.17360
C         -2.34300       -0.80460       -0.39590
C         -3.39590        0.06930       -0.27590
C         -3.23600        1.37550        0.05160
C         -1.94640        1.89480        0.28650
C         -0.87520        1.01180        0.16580
C          0.49180        1.44500        0.38640
O          0.77530        2.63390        0.69620
O         -1.79800        3.19470        0.61150
N         -2.51150       -2.17220       -0.73900
H          4.52040       -1.98660       -0.09520
H          4.97830        0.33310        0.50130
H          3.05930        1.97120        0.73160
H          2.19530       -2.72660       -0.47080
H         -4.39180       -0.31490       -0.45320
H         -4.06420        2.08160        0.15060
H         -1.08450        3.77810        0.81260
H         -2.54620       -2.85010        0.05940
H         -2.59900       -2.51920       -1.71650
27

C         -3.74710        1.20860       -0.03060
C         -3.93710       -0.10850        0.34850
C         -2.88960       -0.97950        0.50310
C         -1.59910       -0.54960        0.27850
C         -1.41150        0.76380       -0.09950
C         -2.46860        1.65650       -0.25920
C         -0.05960        1.24540       -0.34280
O          0.16320        2.44940       -0.69350
C          1.07220        0.35300       -0.18860
C          2.35450        0.82640       -0.42330
C          3.44610       -0.00050       -0.28330
C          3.22620       -1.29300        0.09150
C          1.96080       -1.83850        0.34460
C          0.87450       -0.98100        0.19580
C         -0.46470       -1.48160        0.44330
O         -0.75980       -2.63810        0.78670
O          1.84480       -3.13260        0.71130
N          2.48540        2.18720       -0.81010
H         -4.55810        1.90730       -0.15700
H         -4.98110       -0.40860        0.51710
H         -3.06800       -1.99760        0.79880
H         -2.22730        2.66570       -0.55760
H          4.43530        0.39710       -0.47300
H          4.08270       -1.94860        0.20340
H          1.15730       -3.74490        0.93590
H          2.56880        2.50930       -1.78580
H          2.49980        2.93300       -0.05410
