16

C         -2.27300        0.24450       -0.42480
C         -1.72900       -0.98310       -0.11220
C         -0.37990       -1.21440        0.02310
C          0.48100       -0.14280       -0.16780
C         -0.02360        1.11080       -0.48380
C         -1.38660        1.28340       -0.60670
C          1.95370       -0.28360       -0.03810
O          2.27790       -0.00460        1.28450
H         -3.34450        0.37340       -0.51980
H         -2.39410       -1.82620        0.03870
H          0.05850       -2.16800        0.26690
H          0.63650        1.95320       -0.63500
H         -1.73720        2.27510       -0.85380
H          2.24180       -1.32800       -0.29380
H          2.41010        0.43000       -0.75250
H          3.20850        0.28040        1.35290
16

C         -2.24500        0.18820       -0.04880
C         -1.64050       -1.04700       -0.18580
C         -0.27350       -1.20180       -0.08530
C          0.56120       -0.13510        0.15660
C         -0.04380        1.09620        0.29300
C         -1.40870        1.25320        0.19300
C          2.03200       -0.30680        0.26390
O          2.56080       -0.15100       -1.01640
H         -3.31970        0.28330       -0.13200
H         -2.26480       -1.92340       -0.37900
H          0.19840       -2.18770       -0.19560
H          0.60880        1.95180        0.48540
H         -1.87080        2.22140        0.30150
H          2.43140        0.46230        0.95640
H          2.32000       -1.28750        0.69160
H          2.35420        0.78380       -1.29850
16

C          2.21910       -0.19230        0.11330
C          1.39870       -1.30060       -0.09070
C          0.03430       -1.16980       -0.24140
C         -0.52170        0.09450       -0.18710
C          0.29240        1.20550        0.01640
C          1.66060        1.06860        0.16690
C         -1.98670        0.31250       -0.34160
O         -2.64640        0.26490        0.88810
H          3.28450       -0.34300        0.22630
H          1.85290       -2.27490       -0.12930
H         -0.63280       -2.00340       -0.40070
H         -0.17350        2.19510        0.05510
H          2.28790        1.96000        0.32720
H         -2.21200        1.30740       -0.79320
H         -2.36310       -0.52910       -0.96210
H         -2.49430       -0.59550        1.35280
16

C         -2.26190        0.29620       -0.01080
C         -1.37680        1.35380        0.02730
C         -0.01390        1.14970        0.10340
C          0.52100       -0.11960        0.14460
C         -0.36230       -1.17870        0.10660
C         -1.72540       -0.97610        0.03050
C          1.98460       -0.36940        0.22700
O          2.55700       -0.46550       -1.04960
H         -3.33970        0.45530       -0.07110
H         -1.79440        2.35020       -0.00500
H          0.69160        1.96990        0.13410
H          0.05990       -2.19440        0.13930
H         -2.41160       -1.81950        0.00120
H          2.49730        0.43200        0.79030
H          2.16120       -1.36580        0.71650
H          2.81330        0.48190       -1.28420
16

C         -2.24020        0.33670        0.06930
C         -1.63140       -0.85550        0.46180
C         -0.24910       -0.99210        0.35450
C          0.52800        0.03720       -0.13550
C         -0.12400        1.20320       -0.51280
C         -1.48070        1.37230       -0.42110
C          2.01100       -0.09780       -0.25480
O          2.36390       -1.36130        0.19520
H         -3.30220        0.40200        0.16740
H         -2.17660       -1.69010        0.84930
H          0.22890       -1.93010        0.66360
H          0.48490        1.99420       -0.89080
H         -1.97700        2.29170       -0.72050
H          2.48220        0.65510        0.38610
H          2.31930       -0.03070       -1.32060
H          2.76310       -1.33470        1.10880
