14

C         -1.91270       -0.17690       -0.04130
C         -1.09040       -1.28030       -0.16560
C          0.28070       -1.11660       -0.13240
C          0.88550        0.11900        0.02180
C          0.07380        1.20780        0.14440
C         -1.30090        1.05590        0.11260
N          2.31300        0.19370        0.04480
H         -3.00110       -0.27950       -0.06430
H         -1.51400       -2.25880       -0.28740
H          0.94170       -1.98750       -0.23000
H          0.54810        2.17740        0.26530
H         -1.95080        1.93430        0.21160
H          2.84100        1.03050       -0.25600
H          2.88600       -0.61900        0.37640
14

C         -1.90430       -0.18030       -0.05450
C         -1.29890        1.04800        0.14480
C          0.07340        1.19110        0.19000
C          0.89030        0.08000        0.03260
C          0.26890       -1.13550       -0.16510
C         -1.10230       -1.28910       -0.21190
N          2.30640        0.21990        0.07810
H         -2.96850       -0.26510       -0.08530
H         -1.92230        1.93390        0.27060
H          0.55930        2.16060        0.34750
H          0.94570       -1.99200       -0.28550
H         -1.52640       -2.27960       -0.37170
H          2.83760        0.62380        0.86150
H          2.84110       -0.11550       -0.75120
14

C         -1.87640        0.23910       -0.03810
C         -1.31360       -1.01850       -0.04290
C          0.05450       -1.18340       -0.01640
C          0.90110       -0.09290        0.01580
C          0.33080        1.16060        0.02040
C         -1.04470        1.35160       -0.00590
N          2.30250       -0.30600        0.04230
H         -2.95310        0.41240       -0.05840
H         -2.00210       -1.87710       -0.06870
H          0.43950       -2.21540       -0.02200
H          0.96610        2.02450        0.04510
H         -1.48450        2.33730       -0.00220
H          2.66930       -1.20290        0.43540
H          3.01060        0.37080       -0.30440
14

C          1.83950        0.56000        0.02250
C          0.80820        1.47260       -0.01690
C         -0.52930        1.07510       -0.03340
C         -0.85740       -0.25460       -0.01040
C          0.15780       -1.17970        0.02890
C          1.49860       -0.77650        0.04530
N         -2.21630       -0.66680       -0.02710
H          2.88670        0.85200        0.03580
H          1.06980        2.52370       -0.03500
H         -1.32260        1.81980       -0.06460
H         -0.11340       -2.23660        0.04700
H          2.26110       -1.54310        0.07650
H         -2.98440        0.00390       -0.24630
H         -2.49850       -1.64980        0.17750
