13

C         -1.46370       -0.69320       -0.00630
C         -1.58270        0.67700        0.09420
C         -0.42120        1.42170        0.11290
C          0.80630        0.77490        0.03130
C          0.91900       -0.59650       -0.06910
C         -0.24850       -1.33210       -0.08700
O          2.16110       -1.23690       -0.15090
Cl         2.32260        1.67970        0.05130
H         -2.35870       -1.29230       -0.02250
H         -2.52300        1.16410        0.15620
H         -0.43370        2.50950        0.19030
H         -0.17120       -2.41600       -0.16600
H          2.99380       -0.65990       -0.13440
13

C          1.06880       -1.15420       -0.03330
C          1.69120        0.06490       -0.07290
C          0.93530        1.21900       -0.05300
C         -0.44710        1.18140        0.00650
C         -1.08450       -0.05410        0.04700
C         -0.30880       -1.19880        0.02610
O         -2.46210       -0.06130        0.10590
Cl        -1.38630        2.68260        0.02980
H          1.69010       -2.03910       -0.05030
H          2.76260        0.19350       -0.12000
H          1.39810        2.21350       -0.08320
H         -0.82500       -2.16330        0.05840
H         -3.03230       -0.88410        0.13910
