12

C         -0.95390        0.46110       -0.07340
C          0.49740        0.85250       -0.37710
C          0.89210       -0.36310        0.46850
C         -0.42880       -0.97520       -0.02510
F         -0.34480       -1.50670       -1.28970
F         -1.01720       -1.77270        0.90660
F          2.01150       -1.00790        0.03840
F          0.83020       -0.10210        1.81490
F          0.83470        2.03470        0.19230
F          0.81700        0.68900       -1.70700
F         -1.82710        0.71460       -1.09490
F         -1.31110        0.97570        1.14650
12

C          0.77040       -0.58550        0.44100
C          0.67070        0.69270       -0.40400
C         -0.81260        0.69010       -0.01070
C         -0.67110       -0.83860       -0.00910
F         -0.71610       -1.30730       -1.29390
F         -1.46220       -1.45390        0.90710
F         -0.99210        1.20220        1.25310
F         -1.65070        1.18080       -0.96480
F          1.40210        1.70780        0.12630
F          0.87120        0.46630       -1.75200
F          0.90080       -0.30050        1.77640
F          1.68950       -1.45390       -0.06930
12

C          0.89610        0.46110        0.28050
C         -0.35660        0.88190       -0.44820
C         -1.01190       -0.37700        0.11950
C          0.38980       -0.97780        0.10060
F          0.75330       -1.45160       -1.13020
F          0.73010       -1.71530        1.18490
F         -1.44800       -0.26800        1.40880
F         -1.88160       -0.89770       -0.79100
F         -0.18310        0.78180       -1.80480
F         -0.91940        2.05550       -0.07050
F          2.04060        0.67380       -0.43650
F          0.99090        0.83330        1.58680
12

C          0.44430        0.96470       -0.00560
C          0.87300       -0.45750       -0.37760
C         -0.35500       -0.90500        0.42740
C         -0.98580        0.42490        0.01730
F         -1.53600        0.31400       -1.22630
F         -1.80800        0.99090        0.93230
F         -0.13410       -0.97690        1.76630
F         -0.92340       -1.97810       -0.18350
F          0.74430       -0.70480       -1.72860
F          2.06690       -0.85480        0.12790
F          0.68110        1.89830       -0.97750
F          0.93250        1.28450        1.22790
