15

C          0.43070        1.19140        0.03670
C         -0.95220        1.15370       -0.11400
C         -1.64370       -0.03350       -0.23700
C         -0.90400       -1.19690       -0.20460
C          0.47050       -1.16230       -0.05500
C          1.16450        0.02210        0.06820
N          2.57670        0.04290        0.22140
O          3.18520       -1.04300        0.24260
O          3.30160        1.19330        0.34650
O         -3.03350       -0.04790       -0.38750
H          0.96700        2.11500        0.13210
H         -1.53500        2.07030       -0.13950
H         -1.43190       -2.13300       -0.29970
H          1.06420       -2.08350       -0.02830
H         -3.66020       -0.08860        0.41810
15

C          0.52810        1.13110        0.11240
C         -0.84750        1.23990        0.18360
C         -1.65440        0.12040        0.14050
C         -1.01390       -1.09570        0.02370
C          0.36450       -1.21180       -0.04820
C          1.16180       -0.08710       -0.00420
N          2.58510       -0.16760       -0.07550
O          3.28190        0.86550       -0.03350
O          3.21710       -1.38170       -0.19180
O         -3.04280        0.20780        0.21060
H          1.17850        2.00380        0.14510
H         -1.28500        2.22810        0.27470
H         -1.67010       -1.97030       -0.00870
H          0.83290       -2.18460       -0.13950
H         -3.63630        0.30220       -0.58930
15

C          0.42480        1.01150        0.64130
C         -0.96740        1.05320        0.56810
C         -1.63970        0.07980       -0.13310
C         -0.90780       -0.91280       -0.74520
C          0.47790       -0.96640       -0.68050
C          1.14330        0.01300        0.02430
N          2.55900       -0.05750        0.07960
O          3.19420        0.80810        0.70570
O          3.27760       -1.04810       -0.53230
O         -3.02370        0.14120       -0.19250
H          0.97840        1.76790        1.18830
H         -1.49250        1.87270        1.07910
H         -1.42930       -1.69060       -1.30450
H          1.03520       -1.77080       -1.17910
H         -3.63000       -0.30130        0.48080
