18

C          2.13750       -0.02230       -0.08640
C          0.80800        0.59160        0.18910
C         -0.34980       -0.20100       -0.39650
C         -0.41250       -1.59660        0.15240
C         -1.60730        0.54870        0.04730
O         -1.49100        1.83420       -0.48950
H          2.53840       -0.56690        0.79150
H          2.84810        0.80440       -0.32840
H          2.12640       -0.68710       -0.96730
H          0.73500        1.60980       -0.25490
H          0.63910        0.67070        1.26980
H         -0.30970       -0.24190       -1.50540
H         -1.50100       -1.89070        0.18250
H          0.08890       -2.34960       -0.47400
H         -0.02230       -1.61660        1.19110
H         -2.52180        0.03230       -0.30420
H         -1.54200        0.64120        1.14410
H         -2.16410        2.43980       -0.10310
18

C          2.08020        0.06350        0.39650
C          0.74210        0.65450        0.11570
C         -0.22270       -0.25670       -0.55230
C         -0.54350       -1.49610        0.21300
C         -1.52210        0.53590       -0.70490
O         -1.90070        0.87280        0.61180
H          2.57260       -0.18840       -0.57180
H          2.67780        0.84420        0.93230
H          2.00550       -0.78860        1.08590
H          0.29560        1.04310        1.06350
H          0.88690        1.54310       -0.53070
H          0.15410       -0.50030       -1.56770
H         -1.53570       -1.87140       -0.17450
H         -0.58280       -1.34060        1.29610
H          0.17410       -2.31160       -0.00290
H         -2.31780       -0.07900       -1.15880
H         -1.29050        1.45730       -1.24550
H         -1.67300        1.81850        0.79400
18

C          2.11510       -0.35420       -0.05210
C          0.71620       -0.72720       -0.38200
C         -0.31500        0.27840        0.04430
C         -0.12460        1.62610       -0.58160
C         -1.67160       -0.30890       -0.32530
O         -1.82560       -1.51820        0.35490
H          2.27170        0.09300        0.92900
H          2.51630        0.26510       -0.89790
H          2.73620       -1.29070       -0.07610
H          0.63470       -0.91460       -1.47040
H          0.42870       -1.69800        0.11550
H         -0.32870        0.41450        1.14520
H         -0.84860        2.32070       -0.08120
H          0.88080        1.99680       -0.35070
H         -0.37220        1.64950       -1.65680
H         -1.58440       -0.58260       -1.41570
H         -2.49530        0.39150       -0.14220
H         -2.73370       -1.64130        0.72420
18

C         -1.82840       -0.50980        0.06160
C         -0.70070       -0.34300       -0.89420
C          0.53000        0.27610       -0.30790
C          0.26170        1.66130        0.24080
C          1.20240       -0.58440        0.72880
O          1.60600       -1.81020        0.22140
H         -2.44580        0.42530        0.10640
H         -1.56660       -0.79290        1.06990
H         -2.51390       -1.28730       -0.34650
H         -1.04580        0.31990       -1.71500
H         -0.43250       -1.30720       -1.35880
H          1.26130        0.39590       -1.13790
H         -0.81380        1.81700        0.48670
H          0.92230        1.82770        1.12280
H          0.50760        2.45990       -0.50920
H          0.57760       -0.77710        1.61290
H          2.12230       -0.04220        1.04690
H          2.35610       -1.72900       -0.42890
18

C         -1.67750       -1.15270       -0.02160
C         -1.06970        0.13880        0.40940
C          0.17830        0.50320       -0.33790
C          0.66790        1.83900        0.22020
C          1.29240       -0.48150       -0.16790
O          0.98000       -1.75270       -0.59960
H         -1.23430       -2.04490        0.44510
H         -1.70380       -1.21420       -1.13580
H         -2.75250       -1.14130        0.29800
H         -0.89470        0.13610        1.49830
H         -1.81410        0.94410        0.21710
H         -0.03390        0.60710       -1.41460
H          0.32240        2.67280       -0.42060
H          1.77720        1.86140        0.27570
H          0.29930        1.96010        1.26590
H          1.65750       -0.49770        0.88880
H          2.15050       -0.12340       -0.77140
H          1.85500       -2.25430       -0.64900
