23

C          3.67010        0.19250        0.86700
C          2.45360        0.77040        0.14350
C          1.31840       -0.19830        0.38570
C          0.03340        0.23850       -0.27250
C         -1.01770       -0.78020        0.02580
C         -2.35450       -0.46960       -0.57140
O         -2.89160        0.74760       -0.12510
N         -4.11800        1.12280       -0.61620
O         -4.29830        1.63450       -1.72590
O         -5.21390        0.91170        0.18640
H          3.35890       -0.23050        1.83940
H          4.10750       -0.62850        0.25730
H          4.40260        1.01020        0.97240
H          2.73710        0.82180       -0.92230
H          2.18530        1.75900        0.51020
H          1.61850       -1.19240       -0.05490
H          1.13820       -0.33190        1.46360
H          0.15570        0.45640       -1.34410
H         -0.25770        1.20950        0.21330
H         -1.05950       -0.92770        1.11870
H         -0.67810       -1.74980       -0.41530
H         -3.05530       -1.27390       -0.25380
H         -2.23470       -0.48150       -1.68210
23

C         -3.37450       -0.11220       -0.07400
C         -2.35010        0.76600        0.55010
C         -0.98480        0.13250        0.65500
C         -0.40480       -0.25640       -0.65690
C          0.94440       -0.88500       -0.53310
C          1.95540        0.02330        0.10830
O          3.21320       -0.61670        0.19820
N          4.24050        0.07860        0.75870
O          4.63300       -0.21090        1.89100
O          4.83480        1.09190        0.07240
H         -3.57880        0.24880       -1.11520
H         -4.33100        0.01990        0.47330
H         -3.13450       -1.18900       -0.05000
H         -2.28500        1.72620       -0.00180
H         -2.65520        1.02470        1.59490
H         -0.32910        0.94270        1.09290
H         -0.97250       -0.69520        1.38120
H         -0.29220        0.64290       -1.30730
H         -1.06490       -0.95000       -1.21980
H          1.34530       -1.12990       -1.55400
H          0.92820       -1.85960        0.00360
H          2.07870        0.93640       -0.51370
H          1.58380        0.27100        1.12860
23

C         -2.79300       -0.68560        1.26250
C         -2.40580       -0.64340       -0.18950
C         -1.67180        0.62870       -0.50280
C         -0.26430        0.66200        0.00270
C          0.68730       -0.22400       -0.73910
C          2.05390       -0.04510       -0.09160
O          3.08770       -0.61290       -0.86030
N          4.37910       -0.30320       -0.47320
O          4.88910        0.75250       -0.92620
O          4.69300       -0.59420        0.84150
H         -3.47490        0.12030        1.56750
H         -1.91770       -0.64740        1.93770
H         -3.32180       -1.64320        1.48340
H         -1.79660       -1.53110       -0.41560
H         -3.35970       -0.60830       -0.77470
H         -1.77890        0.83330       -1.57910
H         -2.22250        1.44790        0.02520
H          0.11480        1.69230       -0.05180
H         -0.27650        0.36600        1.06330
H          0.43410       -1.30580       -0.60350
H          0.74080        0.05160       -1.81890
H          2.23320        1.05610       -0.07990
H          1.97070       -0.47810        0.92240
23

C          3.41550        1.13150       -0.04930
C          2.46400       -0.01280       -0.25520
C          1.28680        0.02170        0.65710
C          0.22730       -0.88860       -0.01050
C         -1.05170       -0.12520       -0.05550
C         -2.11110       -0.79240        0.85340
O         -2.91410        0.26790        1.30530
N         -4.20040        0.49420        1.02000
O         -4.36730        1.70390        0.55950
O         -5.24220       -0.35320        0.91030
H          4.36000        0.87490       -0.56350
H          3.61710        1.41360        0.97250
H          2.98200        1.98960       -0.63760
H          2.99330       -0.99360       -0.07870
H          2.12940       -0.03580       -1.30430
H          1.61350       -0.45780        1.63630
H          0.89720        0.99570        0.91740
H          0.09040       -1.78480        0.66670
H          0.55190       -1.27290       -0.97980
H         -1.47700       -0.30120       -1.11730
H         -1.01410        0.92730        0.14080
H         -2.69700       -1.52950        0.31370
H         -1.55330       -1.27240        1.64810
23

C         -3.53100        0.42580        0.69860
C         -2.09830        0.59630        0.21250
C         -1.58400       -0.79210       -0.10370
C         -0.15620       -0.71490       -0.59730
C          0.77720       -0.10840        0.40680
C          2.16250       -0.09300       -0.21400
O          3.12130        0.46600        0.66470
N          4.40780        0.54010        0.23100
O          5.22680       -0.31450        0.56990
O          4.78520        1.56400       -0.57960
H         -4.03800       -0.19920       -0.09080
H         -3.48800       -0.21140        1.60870
H         -4.04510        1.38000        0.85600
H         -1.51260        1.08490        1.01540
H         -2.14480        1.20670       -0.70280
H         -2.19490       -1.16310       -0.95760
H         -1.69540       -1.43810        0.76640
H          0.22530       -1.71930       -0.85440
H         -0.13100       -0.08080       -1.50820
H          0.85260       -0.76150        1.30660
H          0.49930        0.89740        0.73830
H          2.44440       -1.12460       -0.52180
H          2.11690        0.55950       -1.12310
