16

C          1.07450       -0.82270        0.14380
C          1.26430        0.62460       -0.10970
N          0.08940        1.32610       -0.54400
C         -1.07080        0.80370        0.16220
C         -1.29020       -0.61010       -0.26820
N         -0.11540       -1.39500       -0.39620
H          1.94400       -1.36610       -0.33220
H          1.19690       -1.03770        1.24100
H          2.06010        0.81710       -0.88580
H          1.62730        1.13680        0.82510
H          0.16530        2.33780       -0.24250
H         -0.87160        0.81470        1.24820
H         -1.97300        1.39770       -0.12130
H         -2.01460       -1.06600        0.45750
H         -1.82630       -0.63150       -1.25980
H         -0.25980       -2.32950        0.08200
16

C         -1.39230       -0.29100       -0.17930
C         -0.86230        1.01700        0.35770
N          0.48320        1.27860        0.05180
C          1.31280        0.19570       -0.31630
C          0.83480       -1.16900       -0.07940
N         -0.50560       -1.31150        0.38910
H         -1.36360       -0.27680       -1.27230
H         -2.40450       -0.45370        0.24690
H         -1.53390        1.83960        0.00460
H         -1.01620        0.97950        1.47030
H          0.62620        2.12410       -0.57100
H          1.55000        0.30540       -1.41660
H          2.31550        0.36320        0.18050
H          0.95770       -1.82810       -0.99000
H          1.48990       -1.67130        0.69310
H         -0.49180       -1.10180        1.43090
16

C          1.34330        0.23780       -0.54400
C          0.26760        1.28710       -0.24600
N         -0.97870        0.65980       -0.71370
C         -1.31050       -0.31370        0.30140
C         -0.24580       -1.36490        0.30360
N          1.08340       -0.88740        0.28170
H          2.33220        0.66720       -0.28510
H          1.31720        0.03390       -1.63120
H          0.46440        2.24050       -0.73350
H          0.25040        1.40120        0.87140
H         -1.71270        1.33830       -0.91670
H         -1.24960        0.24000        1.28490
H         -2.29020       -0.79050        0.15500
H         -0.42170       -2.02800       -0.58070
H         -0.37910       -1.97010        1.24860
H          1.52990       -0.75110        1.20430
16

C          0.70610        1.23390       -0.08640
C          1.33900       -0.11850       -0.08690
N          0.47860       -1.14890       -0.66120
C         -0.75010       -1.12320        0.14650
C         -1.44650        0.16960       -0.29450
N         -0.67800        1.25560        0.23480
H          0.94340        1.78710       -1.04300
H          1.24090        1.84140        0.70280
H          2.31980       -0.06260       -0.59200
H          1.47270       -0.41570        0.99390
H          0.93180       -2.05910       -0.55330
H         -0.45760       -0.94470        1.20680
H         -1.36780       -2.00420        0.00240
H         -1.45840        0.13690       -1.40410
H         -2.43720        0.17230        0.16660
H         -0.83680        1.28010        1.26750
16

C          0.76620       -1.10340        0.09320
C         -0.76380       -1.22100        0.15660
N         -1.25010        0.00310        0.75160
C         -0.90780        1.11140       -0.09750
C          0.61160        1.18860       -0.27500
N          1.03430       -0.06550       -0.86210
H          1.22130       -2.06380       -0.11890
H          1.06230       -0.74840        1.11460
H         -1.15550       -1.22610       -0.89910
H         -1.07050       -2.12840        0.68210
H         -0.85690        0.06710        1.70230
H         -1.28440        2.07470        0.25090
H         -1.30150        0.89140       -1.11800
H          0.87760        2.06650       -0.87620
H          1.04520        1.21220        0.75420
H          1.97200       -0.05840       -1.25880
