27

C         -4.43940        0.77930       -0.04820
C         -2.99940        0.75790        0.33000
C         -2.30750       -0.54900        0.00800
C         -0.84350       -0.36000        0.47440
O         -0.10890       -1.47980        0.23660
C          1.18890       -1.40890        0.66150
C          1.93110       -0.30960       -0.01170
C          3.39270       -0.25970        0.45200
C          4.03580        0.88470       -0.29370
H         -4.62430        1.57790       -0.82510
H         -5.05520        1.08600        0.82200
H         -4.81100       -0.15350       -0.49620
H         -2.88670        0.90040        1.43520
H         -2.44640        1.55230       -0.22060
H         -2.28380       -0.76850       -1.06720
H         -2.70200       -1.40340        0.56880
H         -0.88000       -0.01140        1.51610
H         -0.42830        0.49680       -0.13730
H          1.21170       -1.32850        1.77650
H          1.70460       -2.38190        0.42080
H          1.95190       -0.46990       -1.10440
H          1.47220        0.69890        0.20690
H          3.45350       -0.13990        1.55360
H          3.85680       -1.24220        0.21780
H          3.35630        1.36690       -1.02040
H          4.90480        0.46810       -0.84770
H          4.35610        1.69700        0.40670
27

C         -3.88870        0.18460        0.18380
C         -3.10490        1.13260       -0.67610
C         -1.83600        0.51610       -1.19420
C         -0.93310        0.09400       -0.06190
O          0.24990       -0.48060       -0.52040
C          0.98720       -0.82300        0.61780
C          2.30160       -1.45950        0.26900
C          3.18340       -0.55490       -0.55460
C          3.49140        0.72110        0.19340
H         -4.84990        0.66240        0.44570
H         -4.10400       -0.76560       -0.35460
H         -3.35520       -0.08950        1.10610
H         -2.88350        2.03470       -0.04400
H         -3.75970        1.48300       -1.49060
H         -1.31080        1.29550       -1.78950
H         -2.08970       -0.29820       -1.87880
H         -0.76880        0.96700        0.59240
H         -1.47080       -0.66040        0.57220
H          1.10990        0.03620        1.29180
H          0.37880       -1.57530        1.16040
H          2.83360       -1.65680        1.22230
H          2.12960       -2.43700       -0.21260
H          4.15290       -1.08640       -0.68700
H          2.75390       -0.31590       -1.53910
H          4.08610        0.46080        1.11750
H          2.55890        1.24740        0.52090
H          4.13840        1.36790       -0.41120
27

C         -3.87370        0.63700       -0.47820
C         -3.28860        1.13070        0.80150
C         -1.79920        1.16120        0.82690
C         -1.20060       -0.22880        0.60890
O          0.19650       -0.12060        0.64560
C          0.81950       -1.32600        0.45800
C          2.31020       -1.10480        0.51440
C          2.76500       -0.13540       -0.56500
C          4.25160        0.05440       -0.47190
H         -4.63620        1.33730       -0.89770
H         -3.12020        0.45290       -1.26990
H         -4.40000       -0.35200       -0.33840
H         -3.65950        2.15170        0.98390
H         -3.64440        0.50580        1.64280
H         -1.34160        1.86900        0.13450
H         -1.48760        1.45040        1.86180
H         -1.55440       -0.93730        1.38210
H         -1.56870       -0.56370       -0.38340
H          0.60590       -1.75640       -0.56180
H          0.56660       -2.07230        1.23970
H          2.88970       -2.04480        0.44370
H          2.55520       -0.60200        1.48930
H          2.49860       -0.57430       -1.56170
H          2.29880        0.86220       -0.43360
H          4.72960       -0.72820       -1.09640
H          4.51600        1.06260       -0.79000
H          4.57150       -0.12840        0.57510
27

C         -3.82490        0.16340       -0.39670
C         -2.71020        0.16880        0.62420
C         -1.58590       -0.75520        0.21020
C         -0.98040       -0.36470       -1.10490
O         -0.44430        0.90530       -1.10120
C          0.55720        1.08460       -0.17820
C          1.73190        0.15510       -0.40100
C          2.81410        0.38220        0.63270
C          3.93600       -0.58970        0.32360
H         -3.90760       -0.87100       -0.78210
H         -3.49580        0.83770       -1.22320
H         -4.79440        0.45710        0.03580
H         -3.14740       -0.19290        1.57560
H         -2.30800        1.18940        0.79610
H         -0.85060       -0.79890        1.03010
H         -2.02250       -1.76810        0.10220
H         -0.26340       -1.15840       -1.39810
H         -1.80180       -0.40310       -1.86840
H          0.17550        0.99080        0.83890
H          0.95210        2.11650       -0.28660
H          2.20310        0.31750       -1.39130
H          1.44390       -0.92020       -0.31480
H          3.20520        1.42580        0.59220
H          2.45630        0.16070        1.65630
H          4.54130       -0.81260        1.20490
H          3.49480       -1.52480       -0.06910
H          4.62610       -0.19550       -0.46210
27

C         -4.21830        0.30780        0.41790
C         -3.29390       -0.55600       -0.40710
C         -1.89390        0.03490       -0.43460
C         -1.31830        0.13940        0.95160
O         -0.05190        0.68460        0.98340
C          0.83700       -0.06640        0.26250
C          2.25140        0.52180        0.31750
C          3.14650       -0.39680       -0.51810
C          4.56240        0.07920       -0.53900
H         -4.12540        1.35280        0.05000
H         -4.01100        0.22440        1.49560
H         -5.25670       -0.05100        0.19800
H         -3.30320       -1.60510       -0.10650
H         -3.66840       -0.50780       -1.45570
H         -1.95080        1.04920       -0.86840
H         -1.28710       -0.67400       -1.04800
H         -1.19390       -0.92280        1.32240
H         -2.01680        0.62650        1.66340
H          0.88120       -1.10730        0.64080
H          0.59460       -0.06700       -0.83990
H          2.62000        0.61510        1.34700
H          2.27300        1.50540       -0.19470
H          3.03760       -1.40540       -0.07800
H          2.68340       -0.42260       -1.52710
H          5.24270       -0.60980        0.02310
H          4.87920        0.15490       -1.60490
H          4.58050        1.09590       -0.08100
