19

C         -2.61060       -1.18540       -0.01700
C         -1.37760       -0.34870       -0.02060
C         -1.46430        1.02800       -0.06570
C         -0.32960        1.81810       -0.07030
C          0.93240        1.26620       -0.03040
C          1.02660       -0.10890        0.01480
C         -0.12020       -0.89610        0.01910
C          2.37020       -0.75480        0.05820
O          2.08380        2.06810       -0.03500
H         -2.38060       -2.21790       -0.32150
H         -2.97880       -1.24700        1.04100
H         -3.40850       -0.71220       -0.60220
H         -2.44850        1.50680       -0.09850
H         -0.39110        2.90480       -0.10570
H         -0.05260       -1.97350        0.05470
H          3.02600       -0.30680       -0.69810
H          2.84130       -0.61490        1.06280
H          2.29860       -1.83680       -0.18110
H          2.98350        1.61090       -0.00440
19

C          2.74210       -0.68380        0.11780
C          1.38700       -0.07670        0.09340
C          1.28320        1.28720        0.26600
C          0.01970        1.83960        0.24120
C         -1.10430        1.04220        0.04840
C         -1.00020       -0.32000       -0.12390
C          0.26030       -0.86770       -0.09870
C         -2.21550       -1.14990       -0.32830
O         -2.34590        1.67460        0.03590
H          3.05320       -0.98630        1.13290
H          3.50850        0.04260       -0.24180
H          2.75530       -1.61140       -0.51460
H          2.17790        1.89330        0.41590
H         -0.05730        2.90720        0.37670
H          0.33600       -1.94760       -0.23600
H         -2.53030       -1.14630       -1.39640
H         -3.05240       -0.83220        0.34330
H         -2.01520       -2.21970       -0.03240
H         -3.20210        1.15480       -0.09940
19

C          2.76640       -0.71230        0.24790
C          1.42490       -0.09760        0.05500
C          1.27600        1.22520       -0.30730
C          0.02940        1.79390       -0.48600
C         -1.12750        1.06370       -0.31000
C         -0.99020       -0.26020        0.05230
C          0.26120       -0.82410        0.22980
C         -2.21520       -1.07960        0.25120
O         -2.39130        1.62810       -0.48780
H          2.65640       -1.77750        0.46370
H          3.30930       -0.60160       -0.71380
H          3.30900       -0.25530        1.09560
H          2.18270        1.81770       -0.45060
H         -0.08410        2.82990       -0.76960
H          0.37220       -1.87230        0.51670
H         -2.67440       -1.34410       -0.72490
H         -2.97970       -0.57980        0.85830
H         -1.91900       -2.00510        0.82620
H         -3.20610        1.05080       -0.34680
19

C          2.80730       -0.58800       -0.13040
C          1.42990       -0.02940       -0.08340
C          1.17780        1.32440       -0.16120
C         -0.10320        1.83660       -0.11700
C         -1.20140        1.01300        0.00790
C         -0.95430       -0.34160        0.08600
C          0.33360       -0.85880        0.04180
C         -2.14200       -1.23040        0.22080
O         -2.49290        1.53660        0.05170
H          3.49070        0.16830       -0.55500
H          2.80350       -1.54630       -0.67550
H          3.17080       -0.78310        0.91170
H          2.05650        1.97570       -0.26080
H         -0.27070        2.90890       -0.18070
H          0.50230       -1.91730        0.10430
H         -1.78820       -2.26350        0.39540
H         -2.66350       -1.25170       -0.76770
H         -2.85940       -0.88340        0.96900
H         -3.29680        0.93000        0.14320
19

C          2.64320        1.01010       -0.22030
C          1.34640        0.24960       -0.20480
C          1.33620       -1.12070       -0.23530
C          0.13310       -1.77920       -0.21940
C         -1.02640       -1.05270       -0.17360
C         -1.05550        0.32280       -0.14200
C          0.17050        0.95180       -0.15910
C         -2.33020        1.07220       -0.09190
O         -2.26270       -1.72850       -0.15740
H          3.44830        0.28680        0.01520
H          2.76530        1.51420       -1.18930
H          2.54600        1.74200        0.63410
H          2.29210       -1.68250       -0.27230
H          0.09890       -2.86270       -0.24290
H          0.23090        2.04400       -0.13620
H         -3.14580        0.41450        0.29600
H         -2.65610        1.41240       -1.08810
H         -2.24980        1.95480        0.59150
H         -2.28440       -2.74880       -0.17990
