22

C         -1.66960        0.92080        0.83450
C         -1.17510        0.16080       -0.36310
C         -2.27710       -0.86280       -0.68070
N         -0.00350       -0.63190       -0.11690
C          1.15840        0.11400        0.25730
C          2.25670       -0.90940        0.54010
C          1.68180        0.99580       -0.85260
H         -2.09420        1.90620        0.51800
H         -0.90690        1.12290        1.59330
H         -2.51360        0.40900        1.36260
H         -1.02290        0.78580       -1.26040
H         -2.23090       -1.58660        0.17450
H         -3.26290       -0.39110       -0.75680
H         -1.93500       -1.38300       -1.58600
H         -0.20210       -1.34530        0.59970
H          1.03760        0.69840        1.17920
H          2.84010       -0.65140        1.44430
H          1.81570       -1.91800        0.74520
H          2.90880       -1.04520       -0.34190
H          2.48400        1.62490       -0.40190
H          0.91380        1.64150       -1.29920
H          2.19710        0.34440       -1.58940
22

C          2.05090        0.87560        1.13770
C          1.12460       -0.11570        0.44020
C          1.89320       -0.58890       -0.79800
N         -0.01410        0.63830       -0.02300
C         -1.07430       -0.21500       -0.51830
C         -2.21220        0.67770       -0.97410
C         -1.63670       -1.09800        0.57650
H          1.52430        1.25590        2.04070
H          2.18660        1.74020        0.45160
H          3.01230        0.40040        1.39400
H          0.86930       -0.94550        1.11040
H          1.96570        0.27990       -1.49200
H          2.91700       -0.84470       -0.45810
H          1.38760       -1.46980       -1.24100
H         -0.30720        1.40740        0.58260
H         -0.69600       -0.79380       -1.36280
H         -2.01650        1.74300       -0.72890
H         -2.34380        0.62580       -2.07590
H         -3.17140        0.40450       -0.51390
H         -1.75670       -0.52670        1.51120
H         -2.65150       -1.41070        0.24480
H         -1.05100       -2.03990        0.69640
22

C         -1.40730       -1.36420       -0.43730
C         -1.16660        0.11290       -0.59260
C         -2.46350        0.84010       -0.18190
N         -0.08930        0.66780        0.10270
C          1.21180        0.28080       -0.20970
C          1.56310       -1.14420        0.04720
C          2.27550        1.14320        0.47410
H         -0.71880       -2.00680       -0.97570
H         -1.40340       -1.60510        0.63780
H         -2.45850       -1.60080       -0.81850
H         -1.06000        0.30970       -1.70270
H         -3.06540        1.05350       -1.07490
H         -2.19650        1.75680        0.37420
H         -3.03410        0.16430        0.50810
H         -0.28620        1.38630        0.78120
H          1.41270        0.45220       -1.32290
H          1.60310       -1.69260       -0.91860
H          0.93720       -1.63730        0.81570
H          2.60940       -1.21320        0.44720
H          3.24580        0.60250        0.50900
H          2.47980        2.06970       -0.11950
H          2.01130        1.42430        1.49160
22

C          1.86430       -0.83860       -1.11290
C          1.21010       -0.16410        0.01690
C          2.21490        0.72270        0.77070
N          0.00810        0.51370       -0.13100
C         -1.19500       -0.12640        0.15600
C         -2.00230       -0.93020       -0.76030
C         -2.09960        0.91520        0.87130
H          2.31440        0.01260       -1.76610
H          2.77140       -1.39090       -0.68540
H          1.19900       -1.44810       -1.72340
H          0.99430       -1.02340        0.77270
H          3.10130        0.15290        0.91090
H          2.42100        1.61910        0.15660
H          1.81470        1.01630        1.75480
H          0.00490        1.50430       -0.35530
H         -0.89220       -0.89820        1.00520
H         -2.90590       -1.31940       -0.15340
H         -2.57660       -0.16270       -1.41870
H         -1.52370       -1.69450       -1.35800
H         -2.61920        0.40770        1.66480
H         -1.38360        1.72240        1.27740
H         -2.72020        1.40990        0.10730
22

C         -2.24740        0.88260       -0.52290
C         -1.16740       -0.18070       -0.20600
C         -1.82090       -1.22530        0.64320
N         -0.01990        0.45950        0.35320
C          1.24580        0.16030       -0.24070
C          1.79040       -1.20900        0.05600
C          2.24750        1.20690        0.15810
H         -1.95130        1.79390        0.04430
H         -3.23280        0.59710       -0.15600
H         -2.27110        1.15390       -1.58000
H         -0.95230       -0.62130       -1.21390
H         -2.11610       -0.74330        1.58920
H         -1.21430       -2.13950        0.75250
H         -2.72820       -1.57200        0.06590
H         -0.14640        1.48750        0.38460
H          1.14310        0.23780       -1.38890
H          2.75080       -1.13840        0.64590
H          2.09010       -1.72010       -0.87520
H          1.13600       -1.84210        0.65100
H          2.41010        1.14510        1.25010
H          1.85180        2.23380       -0.02700
H          3.20280        1.03330       -0.38360
