26

C          1.79840        1.21100       -0.42130
C          1.44950       -0.23140       -0.30730
C          2.59070       -0.84290        0.54500
C          0.20350       -0.53480        0.40040
C         -1.10260       -0.07930       -0.02660
C         -1.25050        1.41420       -0.07350
C         -1.62050       -0.60670       -1.33660
C         -2.14650       -0.54170        1.01790
H          1.19750        1.83640       -1.06480
H          1.76370        1.64900        0.61790
H          2.89680        1.24340       -0.71720
H          1.57380       -0.78130       -1.27810
H          2.29840       -0.81970        1.62970
H          2.75080       -1.89420        0.29190
H          3.50830       -0.26260        0.45110
H          0.17440       -1.67380        0.51860
H          0.38170       -0.23520        1.49000
H         -1.13610        1.75940       -1.14210
H         -0.55950        1.98950        0.53440
H         -2.32770        1.70130        0.17770
H         -0.85720       -0.84540       -2.06860
H         -2.31300        0.13090       -1.83770
H         -2.24060       -1.51950       -1.19360
H         -1.90550       -1.61110        1.19190
H         -1.97080       -0.02440        1.98080
H         -3.15700       -0.43080        0.62000
26

C          2.56680        1.02140        0.10150
C          1.27060        0.34880        0.59560
C          1.66400       -1.06660        0.91010
C          0.28930        0.50170       -0.50790
C         -1.06510       -0.05120       -0.31220
C         -1.18020       -1.51020       -0.06600
C         -1.88520        0.32760       -1.55160
C         -1.75200        0.66660        0.84830
H          3.24750        1.15310        0.95390
H          2.33110        1.96900       -0.42620
H          3.00330        0.34410       -0.66390
H          0.91420        0.82290        1.52890
H          0.99020       -1.60500        1.57300
H          1.91910       -1.59950       -0.03480
H          2.63970       -0.99460        1.47790
H          0.17100        1.59000       -0.75180
H          0.72400        0.04180       -1.43380
H         -2.13850       -1.85260       -0.54660
H         -0.37620       -2.14140       -0.43750
H         -1.33030       -1.71160        1.01600
H         -2.66050       -0.44260       -1.75500
H         -2.35960        1.31980       -1.42760
H         -1.21610        0.40790       -2.45190
H         -1.44730        1.71440        0.92800
H         -1.46020        0.12510        1.76490
H         -2.85940        0.62110        0.66880
26

C          1.85530       -1.16750        0.59100
C          1.55040        0.28940        0.30130
C          1.99600        0.57520       -1.08800
C          0.20810        0.71910        0.69550
C         -0.99320        0.09640        0.13000
C         -2.19910        0.80890        0.77790
C         -1.21490       -1.35290        0.38230
C         -1.14690        0.38270       -1.36540
H          1.61710       -1.80890       -0.30840
H          2.96730       -1.32320        0.71590
H          1.40170       -1.54060        1.50730
H          2.26880        0.85420        0.97650
H          1.54280        1.41750       -1.58480
H          1.86160       -0.33030       -1.73190
H          3.11300        0.75430       -1.10950
H          0.14190        0.61520        1.82170
H          0.10820        1.83350        0.54830
H         -2.20400        0.65650        1.86850
H         -3.14230        0.46570        0.33020
H         -2.06450        1.88390        0.53440
H         -0.76390       -1.97580       -0.43660
H         -2.32400       -1.55090        0.25880
H         -0.97910       -1.69460        1.38350
H         -2.21750        0.30720       -1.67200
H         -0.52800       -0.34800       -1.92480
H         -0.85470        1.43320       -1.60170
26

C          2.50030        0.28490       -1.18540
C          1.37590       -0.31620       -0.35190
C          1.82430       -0.38960        1.04860
C          0.14180        0.43890       -0.64520
C         -1.10430        0.03450        0.05490
C         -1.54270       -1.37450       -0.19850
C         -1.08610        0.36440        1.53640
C         -2.22960        0.92660       -0.50830
H          3.34100       -0.41330       -1.22850
H          2.14540        0.54180       -2.20050
H          2.87070        1.21050       -0.66350
H          1.26730       -1.37270       -0.73990
H          1.47150       -1.35500        1.50470
H          1.61520        0.48160        1.67840
H          2.95000       -0.50390        1.05730
H          0.31380        1.51510       -0.43200
H         -0.03620        0.37320       -1.74060
H         -1.26960       -2.04510        0.66710
H         -2.66150       -1.44800       -0.24850
H         -1.17180       -1.76570       -1.15510
H         -2.13950        0.49700        1.92420
H         -0.61700        1.36220        1.65720
H         -0.64220       -0.42170        2.15180
H         -2.38430        0.57440       -1.54420
H         -3.13380        0.86120        0.11250
H         -1.79850        1.93920       -0.55080
26

C          2.56110       -1.13030        0.02790
C          1.42670       -0.14460        0.41530
C          1.85440        1.18430       -0.13920
C          0.19440       -0.68930       -0.16060
C         -1.09870       -0.03360        0.01750
C         -1.20830        1.36080       -0.53190
C         -1.62380        0.01030        1.42780
C         -2.13760       -0.85800       -0.77180
H          2.48300       -1.28410       -1.05070
H          3.54470       -0.68070        0.26910
H          2.42150       -2.05150        0.62500
H          1.46970       -0.08910        1.51450
H          1.65370        2.04040        0.55880
H          1.38410        1.44630       -1.10070
H          2.97850        1.21890       -0.26310
H          0.11400       -1.80140        0.07810
H          0.37810       -0.73670       -1.28740
H         -0.91100        1.41170       -1.61790
H         -0.64240        2.09260        0.06880
H         -2.29090        1.68230       -0.55920
H         -1.41460       -0.87360        2.01920
H         -1.25680        0.96670        1.88020
H         -2.72640        0.12550        1.35870
H         -3.15680       -0.71850       -0.31760
H         -2.15470       -0.53680       -1.82920
H         -1.84200       -1.91160       -0.63170
