5

C          0.01710       -0.19840       -0.00720
Br        -1.52520        0.98450       -0.01330
Br         1.61170        0.88130       -0.00410
H         -0.05860       -0.80650        0.91330
H         -0.04500       -0.86090       -0.88870
5

C          0.00700       -0.18740        0.00300
Br        -1.55420        0.94820       -0.03620
Br         1.62890        0.86470       -0.04570
H         -0.05240       -0.86990       -0.88100
H         -0.02930       -0.75550        0.95990
