19

C         -2.96850        0.01610        0.20810
C         -1.47020       -0.10040        0.11190
C         -0.84100       -1.32380        0.21940
C          0.55110       -1.40010        0.12560
C          1.32250       -0.27370       -0.07370
C          0.69720        0.95120       -0.18170
C         -0.68010        1.01120       -0.08690
O          1.47320        2.09260       -0.38320
C          2.78790       -0.36920       -0.17000
H         -3.21330        0.31350        1.25960
H         -3.36820       -0.98000       -0.00680
H         -3.28900        0.80290       -0.47800
H         -1.45460       -2.19050        0.37430
H          1.03700       -2.34760        0.20890
H         -1.18640        1.95770       -0.16870
H          0.98720        2.98090       -0.45920
H          3.13660       -1.38600        0.11590
H          3.30260        0.32180        0.55790
H          3.17590       -0.07640       -1.17340
19

C          2.97340       -0.19410       -0.12090
C          1.47270       -0.18050       -0.05960
C          0.75000       -1.35440       -0.03050
C         -0.62850       -1.38440        0.02600
C         -1.33730       -0.19330        0.05560
C         -0.63460        0.99840        0.02740
C          0.75690        1.00030       -0.02970
O         -1.35240        2.16390        0.05730
C         -2.82770       -0.16580        0.11650
H          3.30460       -1.00750       -0.79740
H          3.35140        0.75000       -0.51870
H          3.31730       -0.36820        0.94090
H          1.30890       -2.28590       -0.05420
H         -1.17450       -2.32550        0.04820
H          1.29030        1.94080       -0.05090
H         -0.99130        3.09480        0.04280
H         -3.18620        0.68790        0.74740
H         -3.20420       -1.10430        0.53150
H         -3.18880       -0.07230       -0.93170
19

C          2.88110        0.46760        0.50630
C          1.46090        0.14880        0.18110
C          1.11620       -0.90670       -0.63710
C         -0.20290       -1.19570       -0.93380
C         -1.23510       -0.42250       -0.41060
C         -0.89950        0.63110        0.40570
C          0.42250        0.91010        0.69490
O         -1.89880        1.42770        0.94850
C         -2.66030       -0.69630       -0.70220
H          3.52270        0.51230       -0.38140
H          2.89420        1.42110        1.07140
H          3.29030       -0.29990        1.22420
H          1.91390       -1.52110       -1.05420
H         -0.49670       -2.01440       -1.57010
H          0.71120        1.73990        1.33930
H         -1.74390        2.20390        1.54440
H         -3.12750       -1.16990        0.19500
H         -2.70440       -1.45130       -1.50740
H         -3.24370        0.21540       -0.91400
19

C          2.94460        0.38320       -0.03610
C          1.47990        0.10510       -0.06420
C          0.95320       -1.05730       -0.59410
C         -0.40350       -1.30970       -0.61710
C         -1.29500       -0.39100       -0.10130
C         -0.77820        0.77300        0.43020
C          0.59370        1.02280        0.45070
O         -1.69110        1.68370        0.94390
C         -2.74880       -0.68430       -0.13730
H          3.17950        1.36000       -0.51760
H          3.33830        0.34320        1.00040
H          3.48540       -0.38630       -0.61000
H          1.62960       -1.78860       -1.00230
H         -0.81320       -2.23280       -1.03840
H          0.93610        1.94790        0.87800
H         -1.32980        2.55700        1.34470
H         -2.95830       -1.78000       -0.00590
H         -3.24240       -0.34370       -1.05890
H         -3.27980       -0.20210        0.73540
19

C         -2.94310        0.14730        0.53160
C         -1.46670       -0.02800        0.30660
C         -0.89520       -1.27090        0.14340
C          0.45220       -1.47060       -0.06450
C          1.25670       -0.34580       -0.10810
C          0.74370        0.92950        0.04870
C         -0.60730        1.05190        0.25220
O          1.60670        2.02210       -0.00530
C          2.73170       -0.47510       -0.32970
H         -3.09560        0.29400        1.63750
H         -3.28990        1.05250        0.01480
H         -3.42830       -0.77850        0.17650
H         -1.51750       -2.14600        0.17670
H          0.89930       -2.44800       -0.19260
H         -1.03490        2.03340        0.37760
H          1.27090        2.95860        0.10390
H          3.09190        0.37380       -0.95400
H          2.96700       -1.43770       -0.81200
H          3.25850       -0.46230        0.66050
