16

C          2.09080        0.35380       -0.09490
C          1.85470       -0.97390        0.54680
S          0.27160       -1.66880        0.48430
S         -0.88470       -0.34030        1.67190
C         -1.49400        0.76590        0.46380
C         -2.44520        0.02600       -0.47530
H          1.96810        0.32370       -1.19510
H          3.18580        0.58240        0.07440
H          1.53290        1.16750        0.40410
H          2.60630       -1.68210        0.08400
H          2.21940       -0.87690        1.61330
H         -0.78800        1.31050       -0.16830
H         -2.14300        1.56390        0.93790
H         -1.86250       -0.26390       -1.38040
H         -2.76590       -0.91360        0.03530
H         -3.34630        0.62590       -0.71580
16

C         -3.03310        0.16740        0.17840
C         -2.08400       -0.11410       -0.97340
S         -0.64280        0.97170       -0.94890
S          1.07890       -0.28320       -1.12670
C          1.82630       -0.39680        0.51420
C          3.20740        0.23980        0.43160
H         -2.62390       -0.31280        1.10040
H         -4.04320       -0.22750       -0.07770
H         -3.12050        1.24150        0.40350
H         -2.60590        0.01790       -1.95560
H         -1.81400       -1.19500       -0.87050
H          1.21310        0.10700        1.29940
H          1.88690       -1.46970        0.82680
H          3.97720       -0.41400        0.89470
H          3.24050        1.23300        0.92800
H          3.53710        0.37910       -0.62420
16

C         -2.52540       -0.46840        0.27620
C         -2.24230        0.97260       -0.10790
S         -0.71310        0.98400       -1.04220
S          0.96960        1.37670        0.16100
C          1.71840       -0.14890        0.73820
C          2.97560       -0.45900       -0.06580
H         -1.66590       -0.94790        0.79070
H         -2.66660       -1.02530       -0.68510
H         -3.47470       -0.55970        0.82840
H         -2.25900        1.65630        0.75640
H         -3.06280        1.26760       -0.81150
H          0.99830       -1.00160        0.67790
H          2.04420       -0.00840        1.79810
H          3.90130       -0.29340        0.54110
H          3.05230        0.17890       -0.95540
H          2.95000       -1.52340       -0.34580
16

C         -3.34360        0.20110       -0.02030
C         -2.01390       -0.15100       -0.62370
S         -0.90750        1.28730       -0.69370
S          0.90510        0.97570        0.31700
C          1.96040       -0.27090       -0.46190
C          3.36430       -0.08100        0.08620
H         -3.16740        0.48760        1.02600
H         -3.99620       -0.68080       -0.14980
H         -3.71570        1.10340       -0.55950
H         -2.07450       -0.53550       -1.65430
H         -1.51480       -0.91040        0.00750
H          1.92990       -0.16380       -1.56660
H          1.60220       -1.27400       -0.18470
H          3.64780        0.96340       -0.17920
H          3.27790       -0.11610        1.19450
H          4.04600       -0.83500       -0.33010
16

C         -3.05840        0.17900        0.17650
C         -1.73360       -0.53410        0.31350
S         -0.44830        0.63610        0.86770
S          0.63770        1.18110       -0.89320
C          2.06790        0.04990       -0.96940
C          2.75640        0.09450        0.37570
H         -2.95780        1.05530       -0.48320
H         -3.77400       -0.58230       -0.22700
H         -3.42700        0.42890        1.19230
H         -1.84970       -1.30500        1.09640
H         -1.45730       -1.00490       -0.65240
H          1.75570       -0.98370       -1.21810
H          2.76800        0.45920       -1.73240
H          2.26760       -0.59130        1.10990
H          3.81380       -0.20600        0.26820
H          2.63870        1.12340        0.77550
