27

C         -1.77500       -0.96080       -0.39430
C         -1.51120        0.49480       -0.41260
C         -0.12200        0.78960        0.03870
C          0.31560       -0.56540        0.55150
C         -0.94560       -1.23090        0.83780
C         -1.70820       -0.26970        1.77610
C         -2.30690        0.81560        0.87500
O         -3.03410       -0.09050        1.54700
C          1.28690       -0.98310       -0.47200
C          2.51770       -0.25440        0.10140
C          2.24260        1.03170       -0.13010
C          0.92990        1.13640       -0.90330
C          1.24910       -0.14630       -1.69370
Cl         0.41580       -0.41280       -3.10530
Cl         2.96290        0.14290       -2.26210
Cl         0.78810        2.54670       -1.85410
Cl         3.24220        2.36680        0.38030
Cl         3.90390       -0.99000        0.85860
Cl         1.55680       -2.66640       -0.68370
H         -1.53830       -1.64260       -1.11410
H         -2.83680       -1.13220       -0.14400
H         -1.87010        1.04720       -1.26380
H         -0.06630        1.58230        0.85130
H          0.75140       -0.35950        1.58590
H         -0.95550       -2.24510        1.17770
H         -1.17140        0.14720        2.63060
H         -2.32160        1.84850        1.22120
27

C          1.81320       -0.19550        1.09990
C          1.26870        1.08120        0.49230
C         -0.06880        0.81450       -0.02000
C          0.00760       -0.62710       -0.49150
C          1.33450       -1.06990       -0.03700
C          2.27060       -0.47690       -1.10520
C          2.14910        1.02240       -0.78170
O          3.30950        0.32440       -0.81520
C         -1.25040       -1.19190       -0.00960
C         -2.28810       -0.40420       -0.83310
C         -2.34350        0.82820       -0.33720
C         -1.30300        0.85900        0.78290
C         -1.68480       -0.51830        1.27530
Cl        -1.30830       -1.11320        2.77420
Cl        -3.50790       -0.65670        1.22770
Cl        -1.51370        2.14630        1.89100
Cl        -3.35290        2.16060       -0.81070
Cl        -3.22510       -0.99660       -2.16760
Cl        -1.48320       -2.88840       -0.08120
H          1.60300       -0.42590        2.08010
H          2.91940       -0.12170        1.06130
H          1.44900        1.96910        1.06740
H         -0.16930        1.45520       -0.95880
H         -0.04560       -0.68600       -1.62580
H          1.48790       -2.12550        0.11090
H          2.12380       -0.80060       -2.14250
H          1.80830        1.63750       -1.64560
27

C         -1.78220        0.23810        1.33550
C         -1.29130       -1.03580        0.68070
C          0.03660       -0.80730        0.11870
C          0.01770        0.66770       -0.24160
C         -1.28380        1.12760        0.21660
C         -2.26280        0.58690       -0.85220
C         -2.22670       -0.92670       -0.54800
O         -3.33470       -0.16750       -0.56620
C          1.31130        1.15010        0.26510
C          2.29610        0.46010       -0.65360
C          2.31390       -0.82840       -0.33090
C          1.30200       -0.98760        0.81720
C          1.74200        0.31770        1.46220
Cl         3.56810        0.34660        1.40300
Cl         1.41870        0.72710        3.02630
Cl         1.55480       -2.40020        1.75340
Cl         3.23230       -2.15480       -0.98380
Cl         3.22020        1.23650       -1.89260
Cl         1.54620        2.84030        0.41940
H         -1.55160        0.44420        2.31550
H         -2.88840        0.22030        1.31150
H         -1.47360       -1.93210        1.24690
H          0.08390       -1.39430       -0.85310
H          0.05420        0.79070       -1.37020
H         -1.43300        2.17640        0.41400
H         -2.11250        0.91330       -1.88100
H         -2.05710       -1.60900       -1.38350
27

C         -1.67340       -0.81400        1.03690
C         -1.20450       -1.16180       -0.35630
C          0.02150       -0.42310       -0.67230
C         -0.02310        0.78290        0.26560
C         -1.32640        0.65820        0.90280
C         -2.31580        0.92950       -0.25710
C         -2.29580       -0.35780       -1.09780
O         -3.38880        0.13480       -0.48280
C          1.27190        0.73610        0.95830
C          2.19710        1.20390       -0.16570
C          2.23710        0.19820       -1.03530
C          1.37310       -0.94060       -0.46760
C          1.84220       -0.66420        0.94790
Cl         1.67960       -1.75450        2.18250
Cl         3.65690       -0.51220        0.78370
Cl         1.77940       -2.47960       -1.10090
Cl         3.07180        0.09240       -2.54230
Cl         3.01910        2.73170       -0.27640
Cl         1.45630        1.61590        2.41700
H         -2.77410       -0.94340        1.05150
H         -1.34370       -1.33140        1.86370
H         -1.24380       -2.21450       -0.58360
H         -0.02370       -0.06950       -1.75110
H         -0.08510        1.71630       -0.38640
H         -1.54820        1.24740        1.77410
H         -2.16820        1.86560       -0.82510
H         -2.19130       -0.24600       -2.18320
27

C         -1.85460       -1.03580        0.21000
C         -1.30860       -0.26050       -0.97260
C          0.02320        0.24540       -0.67200
C          0.06880        0.29310        0.85310
C         -1.29320       -0.06650        1.23480
C         -2.13110        1.14260        0.75160
C         -2.21190        0.97770       -0.77660
O         -3.27620        0.99120        0.04940
C          1.27480       -0.46880        1.19480
C          2.35520        0.53910        0.78460
C          2.32890        0.55600       -0.54510
C          1.27630       -0.44370       -1.01130
C          1.63930       -1.42800        0.08690
Cl         3.46530       -1.49980        0.03260
Cl         1.22070       -3.02600        0.03780
Cl         1.50030       -0.99930       -2.61360
Cl         3.30450        1.52600       -1.60480
Cl         3.33830        1.41320        1.91860
Cl         1.45690       -1.05490        2.79620
H         -2.96170       -0.95400        0.16410
H         -1.67380       -2.04420        0.31270
H         -1.48400       -0.74770       -1.91790
H          0.12700        1.29410       -1.09650
H          0.19350        1.38730        1.14550
H         -1.50310       -0.32350        2.25580
H         -1.85340        2.13400        1.14130
H         -2.02140        1.85290       -1.39850
