14

C          1.05350       -0.54950       -0.22280
C         -0.02890        0.49580       -0.08030
C         -1.25290       -0.17350        0.54560
O         -1.60880       -1.25340       -0.25450
O          0.34770        1.57150        0.69220
O          2.20060       -0.02900       -0.81620
H          0.64520       -1.32080       -0.93180
H          1.29830       -1.04220        0.72130
H         -0.28750        0.87210       -1.09080
H         -2.06700        0.56080        0.67310
H         -0.98900       -0.58990        1.53950
H         -2.19210       -0.95580       -0.98300
H         -0.09200        2.41750        0.41790
H          2.97300       -0.00370       -0.21040
14

C         -1.21430        0.09510       -0.07760
C          0.08990       -0.44550       -0.64510
C          1.23530       -0.09560        0.27210
O          1.50320        1.24680        0.34280
O         -0.04280       -1.85210       -0.59600
O         -1.24590        1.47370       -0.05600
H         -2.09220       -0.33340       -0.58360
H         -1.25730       -0.30390        0.97830
H          0.25250       -0.17110       -1.69020
H          2.15720       -0.62050       -0.04850
H          0.97490       -0.51840        1.27700
H          1.17240        1.77870       -0.42500
H         -0.19110       -2.04230        0.38490
H         -1.34170        1.78860        0.86670
14

C         -0.90570       -0.79740       -0.50600
C          0.03730        0.36880       -0.59680
C          0.97550        0.46100        0.57330
O          1.70210       -0.69620        0.76910
O         -0.63770        1.57650       -0.70180
O         -1.75080       -0.75240        0.57050
H         -1.54090       -0.76360       -1.42910
H         -0.35630       -1.75840       -0.50290
H          0.63700        0.24960       -1.52210
H          0.37480        0.76090        1.45130
H          1.69120        1.29430        0.34020
H          2.39990       -0.73420        0.06190
H         -1.29080        1.59750        0.04790
H         -1.33560       -0.80650        1.44470
14

C         -1.31650        0.25630        0.27190
C          0.01450        0.33280       -0.47410
C          1.04870       -0.36060        0.36970
O          2.28590       -0.40480       -0.25040
O          0.31220        1.63000       -0.78060
O         -1.63570       -1.05420        0.59180
H         -2.13530        0.72250       -0.28580
H         -1.22930        0.80760        1.24660
H         -0.09250       -0.24260       -1.41110
H          1.11650        0.22620        1.32970
H          0.64240       -1.36990        0.60480
H          2.22410       -1.14500       -0.93560
H          0.64700        2.18060       -0.05120
H         -1.88210       -1.57890       -0.22570
14

C          0.91020        0.20910       -0.87640
C         -0.03370       -0.64330       -0.08400
C         -1.00530        0.14540        0.74300
O         -1.78980        0.97980       -0.05550
O          0.72070       -1.45500        0.75340
O          1.69340        1.00620       -0.06490
H          1.58140       -0.47360       -1.43800
H          0.38430        0.88950       -1.58790
H         -0.60750       -1.30140       -0.75020
H         -0.52710        0.72650        1.55380
H         -1.68460       -0.58390        1.23380
H         -2.49180        0.37400       -0.45200
H          0.39240       -2.39060        0.77910
H          2.45740        0.42460        0.24570
