14

C         -1.55880       -0.24760       -0.43690
C         -0.66690       -0.00820        0.73290
C          0.65180        0.59490        0.36770
C          1.46370       -0.24820       -0.57080
Cl         1.58200        0.89740        1.86170
H         -2.51670       -0.67160       -0.06420
H         -1.72580        0.71140       -0.97550
H         -1.14660       -0.96340       -1.14990
H         -1.16440        0.67180        1.44810
H         -0.51010       -0.98120        1.24820
H          0.44890        1.58050       -0.12940
H          0.89280       -0.94110       -1.18220
H          2.17070       -0.84510        0.05370
H          2.07940        0.45060       -1.20330
14

C          1.38880        0.71190       -0.08100
C          0.59610       -0.37950       -0.74120
C         -0.53600       -0.88090        0.13050
C         -1.47450        0.24040        0.43900
Cl         0.06400       -1.60850        1.63090
H          1.42200        0.61810        1.03110
H          0.99830        1.71970       -0.30030
H          2.43100        0.68480       -0.43350
H          0.10150        0.04200       -1.66100
H          1.23450       -1.21120       -1.10380
H         -1.07540       -1.65660       -0.44500
H         -1.06650        1.20010        0.02970
H         -1.61890        0.40570        1.53940
H         -2.46490        0.11390       -0.03490
14

C         -1.87220        0.08720        0.14950
C         -0.55500        0.02890       -0.59280
C          0.55080        0.01870        0.44210
C          1.91900       -0.03920       -0.21350
Cl         0.33290       -1.29750        1.61760
H         -1.73680       -0.02540        1.23310
H         -2.35390        1.07890       -0.00840
H         -2.57280       -0.70030       -0.18050
H         -0.54470       -0.88910       -1.21160
H         -0.38100        0.90240       -1.23880
H          0.47910        0.97650        0.99780
H          1.93230        0.65200       -1.06000
H          2.64450        0.29370        0.56180
H          2.15800       -1.08680       -0.49620
14

C          1.42870        0.53160        0.46330
C          0.75520       -0.21210       -0.65030
C         -0.59530       -0.74770       -0.27190
C         -1.56920        0.29360        0.13660
Cl        -0.41050       -1.97680        0.99190
H          1.11420        1.60630        0.44760
H          2.51630        0.53250        0.25580
H          1.27390        0.11030        1.45300
H          1.41450       -1.05760       -0.93320
H          0.68780        0.46680       -1.52310
H         -1.00370       -1.25580       -1.18630
H         -2.21750        0.64540       -0.70360
H         -2.27820       -0.12080        0.90640
H         -1.11610        1.18440        0.61390
14

C          1.54500       -0.43280        0.07460
C          0.66550        0.67560       -0.39770
C         -0.69260        0.61190        0.29150
C         -1.40780       -0.67710        0.01930
Cl        -1.67070        2.04060       -0.10610
H          2.60650       -0.14680       -0.05210
H          1.33840       -1.34720       -0.50110
H          1.31570       -0.63470        1.14340
H          0.52140        0.57860       -1.50540
H          1.09960        1.66490       -0.21530
H         -0.48140        0.66390        1.38500
H         -1.23800       -1.44710        0.80050
H         -2.49980       -0.45910        0.01990
H         -1.10180       -1.09060       -0.95640
