20

C          2.96330        0.03710        0.36200
C          2.66020       -1.04870       -0.43310
C          1.33500       -1.30330       -0.76160
C          0.30780       -0.49860       -0.31410
C         -1.01880       -0.77680       -0.65920
C         -2.05220        0.02240       -0.21630
C         -1.72970        1.11360        0.58480
C         -0.42220        1.39210        0.92800
C          0.61390        0.59390        0.48600
C          1.93680        0.84210        0.80970
N         -3.41230       -0.22690       -0.54520
H          3.96640        0.30310        0.66190
H          3.46050       -1.68060       -0.78510
H          1.08530       -2.14770       -1.38160
H         -1.23610       -1.63630       -1.28600
H         -2.53840        1.72300        0.92010
H         -0.19960        2.24710        1.55220
H          2.15050        1.69560        1.43190
H         -3.67260       -0.69660       -1.43970
H         -4.19790        0.04560        0.08530
20

C          2.96230        0.23230        0.04910
C          2.61010       -1.11120       -0.01380
C          1.30690       -1.53450       -0.04950
C          0.29480       -0.60450       -0.02270
C         -1.02230       -0.98690       -0.05690
C         -2.04310       -0.07300       -0.03090
C         -1.75090        1.26710        0.03110
C         -0.42130        1.67180        0.06630
C          0.59160        0.74220        0.03950
C          1.92250        1.13740        0.07440
N         -3.39340       -0.47900       -0.06660
H          4.01150        0.54660        0.07660
H          3.44950       -1.81870       -0.03320
H          1.10710       -2.59670       -0.09800
H         -1.26120       -2.03380       -0.10550
H         -2.57380        1.96400        0.05040
H         -0.22270        2.73260        0.11480
H          2.18100        2.19540        0.12370
H         -3.80120       -0.93460        0.77180
H         -3.94750       -0.31650       -0.92060
