8

C         -0.74790        0.27690       -0.09700
C          0.67810       -0.26100       -0.22140
Cl         1.85860        1.00560       -0.47610
Cl         1.03560       -1.06350        1.32600
Cl        -0.75590        1.37610        1.29420
Cl        -1.76650       -1.16390        0.20190
H         -1.06460        0.82880       -0.98930
H          0.76260       -0.99890       -1.03840
8

C          0.74880        0.05380       -0.16320
C         -0.76630       -0.01800       -0.05880
Cl        -1.21250       -1.71670       -0.40950
Cl        -1.34560        0.51650        1.50570
Cl         1.19570        1.74760        0.18670
Cl         1.52690       -1.03080        0.99150
H          1.08000       -0.14190       -1.20150
H         -1.22710        0.58950       -0.85080
8

C         -0.76520        0.02340       -0.06000
C          0.69070       -0.10000        0.31060
Cl         1.68180       -0.71570       -1.02360
Cl         1.28950        1.53080        0.69270
Cl        -1.48060       -1.52800       -0.53310
Cl        -0.93400        1.19460       -1.37720
H         -1.30580        0.39120        0.81940
H          0.82360       -0.79630        1.17120
8

C         -0.69880       -0.31840       -0.02810
C          0.67850        0.22120       -0.24370
Cl         1.00010        1.46210        0.99710
Cl         1.91370       -1.05090       -0.13420
Cl        -0.76350       -1.03170        1.60780
Cl        -1.84260        1.04070       -0.17780
H         -0.99550       -1.05410       -0.79860
H          0.70810        0.73120       -1.22260
