8

C         -0.87240       -0.08630        0.02840
C          0.48090        0.49040       -0.07830
O          0.71830        1.68140        0.23940
O          1.54610       -0.26970       -0.53700
H         -1.21780        0.11150        1.08010
H         -0.84480       -1.18130       -0.07280
H         -1.59510        0.34160       -0.69340
H          1.78470       -1.08750        0.03370
8

C         -0.89890       -0.19890        0.03370
C          0.40770        0.43870       -0.27360
O          0.54990        1.63860       -0.57530
O          1.54030       -0.38960       -0.21240
H         -1.67950        0.57540        0.10170
H         -0.78040       -0.75650        1.00430
H         -1.14060       -0.91500       -0.78070
H          2.00150       -0.39260        0.70240
8

C         -0.88830        0.09710       -0.01880
C          0.47920       -0.44260       -0.14010
O          0.66300       -1.44090       -0.88570
O          1.56720        0.07830        0.51180
H         -1.34790       -0.21710        0.96390
H         -1.53920       -0.27810       -0.81660
H         -0.87460        1.20150        0.00360
H          1.94050        1.00180        0.38200
8

C         -0.81080       -0.08560       -0.37670
C          0.52000       -0.44450        0.15930
O          0.92810       -1.62360        0.24930
O          1.35810        0.56850        0.58320
H         -0.67550        0.71200       -1.14470
H         -1.29140       -0.93270       -0.90870
H         -1.48650        0.34270        0.41630
H          1.45800        1.46320        0.16110
