28

C          4.04810        0.37730       -0.35780
C          3.93670       -0.99560       -0.14740
C          2.71830       -1.61270        0.04080
C          1.57940       -0.81850        0.01540
C          1.65500        0.55000       -0.19150
C          2.89260        1.13030       -0.37580
C          0.43740        1.37190       -0.21440
O          0.56340        2.60870       -0.40610
C         -0.85770        0.73270       -0.01670
C         -1.98550        1.52740       -0.04270
C         -3.25030        0.95720        0.14260
C         -3.30200       -0.38410        0.34350
C         -2.20610       -1.21660        0.37760
C         -0.97160       -0.62540        0.19170
C          0.27520       -1.41520        0.20760
O          0.21270       -2.65530        0.39460
N         -2.31950       -2.60350        0.59010
N         -1.92600        2.92690       -0.25280
H          5.03390        0.80580       -0.49970
H          4.81780       -1.62200       -0.12600
H          2.62340       -2.67630        0.20450
H          2.95310        2.19480       -0.53690
H         -4.12130        1.60810        0.11700
H         -4.28440       -0.84000        0.48940
H         -1.97790       -3.02330        1.46320
H         -2.74710       -3.19130       -0.13650
H         -2.06400        3.62250        0.50270
H         -1.73400        3.26610       -1.21430
28

C          4.08620        0.24780       -0.04280
C          3.96510       -1.03190       -0.54420
C          2.69310       -1.54310       -0.70230
C          1.56450       -0.80460       -0.37160
C          1.68520        0.47470        0.12960
C          2.95720        0.98710        0.28820
C          0.49520        1.24720        0.47580
O          0.59420        2.42030        0.93590
C         -0.85510        0.71590        0.31240
C         -1.96210        1.47600        0.65090
C         -3.23500        0.96920        0.49460
C         -3.36290       -0.29790       -0.00160
C         -2.25830       -1.06610       -0.34330
C         -0.97080       -0.56450       -0.18950
C          0.21680       -1.33780       -0.53590
O          0.07930       -2.49830       -0.98970
N         -2.40060       -2.37830       -0.85710
N         -1.83660        2.79090        1.16600
H          5.06990        0.69560        0.10020
H          4.85810       -1.59090       -0.79590
H          2.56850       -2.54920       -1.09530
H          3.01820        1.99500        0.68450
H         -4.12390        1.54670        0.75340
H         -4.36000       -0.69110       -0.12250
H         -2.64620       -2.48310       -1.86790
H         -2.27740       -3.24710       -0.29730
H         -1.52360        2.89480        2.15110
H         -2.03910        3.62270        0.61420
28

C          4.01360       -0.92140        0.15930
C          4.09340        0.43350       -0.12970
C          2.92180        1.15030       -0.27020
C          1.67220        0.56540       -0.13300
C          1.59190       -0.78470        0.15500
C          2.76290       -1.49450        0.29400
C          0.27210       -1.39630        0.29840
O          0.17460       -2.62490        0.56070
C         -0.95990       -0.64290        0.15060
C         -2.21200       -1.18560        0.27860
C         -3.36980       -0.44750        0.13330
C         -3.30370        0.89610       -0.15300
C         -2.04640        1.45260       -0.28400
C         -0.89020        0.71110       -0.13800
C          0.43820        1.32760       -0.28260
O          0.51240        2.55340       -0.54410
N         -1.95060        2.83570       -0.57900
N         -2.31350       -2.57280        0.57430
H          4.91850       -1.50640        0.27470
H          5.07140        0.86600       -0.23170
H          2.96240        2.19820       -0.49350
H          2.70990       -2.53690        0.51630
H         -4.35570       -0.90710        0.24100
H         -4.16790        1.52390       -0.27790
H         -1.66850        3.54770        0.12270
H         -2.17150        3.16040       -1.54030
H         -2.38120       -3.23060       -0.23290
H         -2.32450       -2.97060        1.53100
28

C          3.99510        0.85530        0.23500
C          4.08180       -0.50130        0.00940
C          2.90190       -1.19900       -0.13520
C          1.66490       -0.59260       -0.06230
C          1.57320        0.77220        0.16450
C          2.75380        1.45410        0.30650
C          0.27770        1.42580        0.24390
O          0.22800        2.67320        0.45210
C         -0.96430        0.64850        0.08460
C         -2.20070        1.28410        0.16250
C         -3.34860        0.50940        0.00580
C         -3.26140       -0.84640       -0.21970
C         -2.02910       -1.47610       -0.29670
C         -0.89180       -0.71040       -0.14170
C          0.41770       -1.33180       -0.21550
O          0.50770       -2.57280       -0.42150
N         -1.98080       -2.87840       -0.53120
N         -2.27550        2.67600        0.39470
H          4.89300        1.44780        0.35540
H          5.04060       -0.99660       -0.05130
H          2.92220       -2.27760       -0.31550
H          2.67700        2.52640        0.48450
H         -4.31860        0.98400        0.06300
H         -4.13920       -1.46120       -0.34330
H         -2.19830       -3.29540       -1.47710
H         -1.72010       -3.48610        0.27280
H         -2.29350        3.33050       -0.38990
H         -2.31250        3.03830        1.36620
