6

C          0.77530       -0.02510        0.04710
C         -0.54200        0.01650       -0.03280
Cl        -1.51200       -1.42640        0.10880
Cl        -1.35570        1.54060       -0.28590
H          1.36200        0.87800       -0.04270
H          1.27240       -0.98360        0.20540
6

C         -0.75260       -0.06700       -0.00890
C          0.55540        0.05490        0.00500
Cl         1.52420       -1.32850        0.47040
Cl         1.25640        1.59180       -0.44230
H         -1.21050       -1.02380        0.26850
H         -1.37290        0.77260       -0.29260
