18

C         -1.34600       -1.61110        0.01340
C         -0.15970       -0.74010        0.00010
C          1.13700       -1.24840       -0.01490
C          2.21790       -0.38960       -0.02610
C          2.06410        0.98200       -0.02310
C          0.78440        1.49710       -0.00830
C         -0.30570        0.62830        0.00310
C         -1.65910        1.22200        0.01970
H         -2.15070       -1.26250        0.67750
H         -1.02540       -2.60910        0.43210
H         -1.69930       -1.80440       -1.02930
H          1.25840       -2.33910       -0.01740
H          3.22920       -0.80120       -0.03750
H          2.93260        1.63760       -0.03190
H          0.64800        2.57360       -0.00570
H         -1.82080        1.67530        1.03440
H         -1.66980        2.07060       -0.71180
H         -2.43520        0.51900       -0.27430
18

C         -1.73540        1.18680        0.15360
C         -0.33860        0.65690        0.04700
C          0.74670        1.50850        0.00970
C          2.04650        1.03850       -0.08970
C          2.24980       -0.34200       -0.15330
C          1.19010       -1.22270       -0.11860
C         -0.08390       -0.69840       -0.01880
C         -1.24930       -1.62450        0.02000
H         -2.41940        0.64960       -0.55200
H         -2.14390        1.09080        1.17170
H         -1.69570        2.23810       -0.20340
H          0.59450        2.59280        0.05910
H          2.90320        1.66330       -0.12090
H          3.26820       -0.73370       -0.23270
H          1.36010       -2.30740       -0.16930
H         -1.98350       -1.32860        0.81890
H         -1.77700       -1.70120       -0.93450
H         -0.93220       -2.66670        0.31320
18

C         -1.18260       -1.72380        0.01260
C         -0.09410       -0.71850       -0.01250
C          1.21540       -1.15370       -0.06320
C          2.24920       -0.22940       -0.08740
C          2.01040        1.12920       -0.06220
C          0.69470        1.53850       -0.01170
C         -0.35630        0.62100        0.01320
C         -1.76510        1.12900        0.06820
H         -1.81590       -1.63060       -0.91140
H         -0.77180       -2.74400        0.09370
H         -1.86980       -1.58910        0.88250
H          1.43780       -2.22830       -0.08420
H          3.28310       -0.59940       -0.12770
H          2.85210        1.80840       -0.08260
H          0.49870        2.60430        0.00830
H         -2.40180        0.43030        0.68480
H         -2.18130        1.25620       -0.95250
H         -1.80290        2.09980        0.63210
18

C         -1.12900        1.76870        0.01650
C         -0.07340        0.71510       -0.01500
C          1.25200        1.09720       -0.09040
C          2.25290        0.15340       -0.12170
C          1.92310       -1.18430       -0.07710
C          0.61060       -1.60260       -0.00150
C         -0.37090       -0.62320        0.02800
C         -1.79460       -1.01210        0.10820
H         -2.07420        1.39800        0.41160
H         -0.75400        2.53780        0.75190
H         -1.20820        2.29810       -0.95520
H          1.49210        2.15750       -0.12430
H          3.30730        0.41420       -0.18120
H          2.71270       -1.94660       -0.10150
H          0.32690       -2.64860        0.03500
H         -1.88050       -2.04780       -0.31710
H         -2.15500       -1.09640        1.15700
H         -2.43790       -0.37850       -0.52320
18

C         -1.28230       -1.58330        0.13330
C         -0.13140       -0.70790        0.01600
C          1.13390       -1.26250       -0.10230
C          2.21670       -0.38490       -0.21230
C          2.03360        0.98350       -0.20350
C          0.74790        1.52100       -0.08310
C         -0.31700        0.65280        0.02510
C         -1.66280        1.17910        0.15160
H         -1.09300       -2.55190       -0.39220
H         -2.23130       -1.20160       -0.22820
H         -1.39180       -1.87640        1.21890
H          1.30760       -2.33030       -0.11240
H          3.21010       -0.83160       -0.30510
H          2.91000        1.61810       -0.29180
H          0.61380        2.59130       -0.07720
H         -1.63960        2.20490        0.62600
H         -2.05100        1.38400       -0.88950
H         -2.37350        0.59560        0.72680
