14

C         -1.92650       -0.21920       -0.05390
C         -1.32950        1.01710       -0.19510
C          0.04440        1.15300       -0.15390
C          0.88400        0.07190        0.02860
C          0.29000       -1.16190        0.16970
C         -1.08450       -1.29680        0.12830
C          2.33190        0.25020        0.06730
O          2.88090        1.37150       -0.06060
H         -3.00630       -0.30280       -0.08940
H         -1.96880        1.89460       -0.34160
H          0.51510        2.12870       -0.26540
H          0.96020       -2.00420        0.31260
H         -1.54440       -2.28000        0.24130
H          2.95330       -0.62200        0.21220
14

C         -1.88260        0.39650       -0.02630
C         -1.43800       -0.84020        0.37360
C         -0.08920       -1.13260        0.39530
C          0.86200       -0.21630        0.02400
C          0.40490        1.03670       -0.38080
C         -0.94160        1.33420       -0.40440
C          2.28700       -0.48980        0.03480
O          3.14650        0.35450       -0.30640
H         -2.93870        0.67290       -0.05970
H         -2.14760       -1.58590        0.67210
H          0.25450       -2.12740        0.71780
H          1.14650        1.74530       -0.66830
H         -1.29480        2.31240       -0.72060
H          2.63110       -1.46040        0.34900
