15

C         -1.17880       -1.00060        0.64700
C         -0.56030       -0.03050       -0.33500
C         -0.38680        1.33950        0.26100
C          0.77720       -0.57280       -0.69440
C          1.90450        0.08210       -0.50140
H         -0.38990       -1.58880        1.19560
H         -1.74090       -1.78230        0.06210
H         -1.80270       -0.51100        1.39970
H         -1.14990        0.00270       -1.27540
H          0.28940        1.25710        1.13580
H          0.06450        1.98850       -0.51280
H         -1.36280        1.72250        0.62020
H          0.77570       -1.57360       -1.14070
H          1.94050        1.06380       -0.06670
H          2.82010       -0.39640       -0.79500
15

C         -1.28940       -1.07090       -0.08730
C         -0.30970        0.01320       -0.47760
C         -0.56320        1.28920        0.23940
C          1.06110       -0.52550       -0.29030
C          1.99630        0.02900        0.42650
H         -2.29320       -0.60890       -0.03230
H         -0.96850       -1.54250        0.84740
H         -1.30710       -1.81020       -0.91890
H         -0.45200        0.20980       -1.57760
H         -0.23520        2.18390       -0.36570
H         -1.68240        1.41560        0.31320
H         -0.09010        1.35740        1.24360
H          1.27380       -1.45610       -0.80210
H          1.89350        0.95970        0.98130
H          2.96610       -0.44360        0.50040
15

C         -1.38800       -0.85270        0.07100
C         -0.27310        0.09350       -0.34730
C         -0.55800        1.48680        0.22830
C          0.99390       -0.36230        0.29220
C          2.07280       -0.65550       -0.41230
H         -0.94810       -1.79950        0.45320
H         -2.04850       -1.11830       -0.77590
H         -2.02270       -0.41370        0.87200
H         -0.19600        0.18190       -1.43480
H         -1.39450        1.97820       -0.28480
H         -0.68080        1.40670        1.32410
H          0.38590        2.06170        0.04200
H          1.00000       -0.44630        1.37160
H          2.08760       -0.57880       -1.48480
H          2.96960       -0.98160        0.08570
15

C         -0.93320        1.30280        0.05070
C         -0.25990       -0.05150        0.26730
C         -1.09370       -1.07930       -0.47180
C          1.14170       -0.03380       -0.23720
C          2.17690       -0.28550        0.51990
H         -1.97660        1.17510        0.44570
H         -0.43990        2.08350        0.68910
H         -0.93760        1.58360       -1.01450
H         -0.30250       -0.21650        1.36350
H         -1.98750       -1.30470        0.14310
H         -1.40050       -0.61510       -1.45250
H         -0.48500       -1.98270       -0.67310
H          1.30250        0.19910       -1.27990
H          3.15500       -0.25540        0.09260
H          2.04040       -0.51960        1.55730
15

C         -1.01900        1.01060        0.77900
C         -0.24560       -0.26820        0.53260
C         -0.78680       -0.89190       -0.73200
C          1.19020        0.10120        0.39460
C          1.88900       -0.09630       -0.69790
H         -0.37010        1.84330        1.09100
H         -1.52580        1.35260       -0.16990
H         -1.85060        0.80670        1.48520
H         -0.36940       -0.94220        1.39730
H         -0.58360       -0.24290       -1.58860
H         -0.43120       -1.92670       -0.83360
H         -1.89770       -0.94700       -0.63150
H          1.64750        0.55490        1.26380
H          2.91980        0.19240       -0.73330
H          1.43320       -0.54640       -1.55690
