19

C         -2.09330        0.08320       -1.38090
C         -1.42500       -0.39910       -0.13470
C         -2.10990       -1.11260        0.71430
C         -0.03290       -0.07440        0.12210
C          0.68800        0.69670       -0.80800
C          2.00830        1.03850       -0.62390
C          2.69660        0.63390        0.49980
C          2.01680       -0.12130        1.42650
C          0.67360       -0.46590        1.23370
H         -1.41920       -0.16650       -2.24750
H         -2.22870        1.17940       -1.38880
H         -3.05580       -0.44710       -1.52500
H         -3.16790       -1.37290        0.54380
H         -1.71110       -1.49810        1.62870
H          0.14780        1.01560       -1.69180
H          2.55090        1.62870       -1.34110
H          3.73360        0.88920        0.66730
H          2.54980       -0.44450        2.31390
H          0.17850       -1.06280        1.99160
19

C         -2.30520        0.74500        0.67660
C         -1.45570       -0.19850       -0.09070
C         -2.00810       -1.08940       -0.85830
C         -0.01330       -0.11000        0.03130
C          0.56040        0.86400        0.86490
C          1.91800        0.99220        1.01940
C          2.76610        0.15320        0.34820
C          2.26400       -0.81520       -0.47820
C          0.88240       -0.92640       -0.61930
H         -3.33780        0.38760        0.68040
H         -1.98690        0.81660        1.74480
H         -2.27220        1.75930        0.21050
H         -1.45080       -1.79890       -1.43800
H         -3.10090       -1.18710       -0.97520
H         -0.10700        1.52320        1.39120
H          2.35140        1.76430        1.67950
H          3.84260        0.29530        0.50440
H          2.94900       -1.46360       -0.99580
H          0.50400       -1.71170       -1.28750
19

C          2.24930       -0.21890       -1.00020
C          1.43170        0.23540        0.17140
C          2.02350        0.89800        1.13250
C          0.02440        0.00870        0.15050
C         -0.54430       -0.80610       -0.83060
C         -1.89900       -0.99710       -0.91930
C         -2.71490       -0.36340       -0.01040
C         -2.19810        0.43960        0.95950
C         -0.81670        0.62190        1.03150
H          2.49580       -1.28820       -0.93790
H          1.63990       -0.05760       -1.93660
H          3.13080        0.44630       -1.07240
H          3.10570        1.13080        1.07970
H          1.45130        1.15810        2.00640
H          0.08430       -1.31790       -1.55710
H         -2.34330       -1.63910       -1.69320
H         -3.79180       -0.51830       -0.08310
H         -2.84660        0.94960        1.68960
H         -0.48210        1.31820        1.81970
19

C         -2.25670        1.03960        0.32890
C         -1.47250       -0.21550        0.22590
C         -2.11420       -1.34980        0.15910
C         -0.02910       -0.14160        0.20350
C          0.82160       -1.21980        0.11240
C          2.19730       -1.12080        0.09290
C          2.78990        0.12270        0.16780
C          1.97700        1.21370        0.25910
C          0.60570        1.10280        0.27770
H         -1.92400        1.78620       -0.41200
H         -3.34690        0.85350        0.30120
H         -2.03510        1.45800        1.34820
H         -1.55290       -2.26050        0.08450
H         -3.20730       -1.40600        0.17620
H          0.42530       -2.22220        0.05040
H          2.81660       -2.02070        0.01850
H          3.88170        0.19540        0.15200
H          2.42930        2.19260        0.31840
H         -0.00570        1.99230        0.35120
19

C         -2.03750       -0.49840       -1.32630
C         -1.43780       -0.35280        0.04340
C         -2.19430       -0.54530        1.08460
C         -0.02600        0.00000        0.12750
C          0.72960        0.19300       -1.01090
C          2.05860        0.52500       -0.96880
C          2.71460        0.68430        0.24370
C          1.98090        0.49680        1.39310
C          0.62580        0.15840        1.32890
H         -1.37770       -1.13700       -1.96790
H         -2.23210        0.46500       -1.79790
H         -2.99440       -1.07020       -1.24610
H         -1.85300       -0.46320        2.10450
H         -3.23820       -0.80600        0.97660
H          0.25980        0.07910       -1.99950
H          2.66370        0.67950       -1.85620
H          3.76840        0.94730        0.28930
H          2.49390        0.62160        2.33450
H          0.09570        0.02270        2.24760
