7

C         -0.64820       -0.11730       -0.00420
N          0.80860        0.05460       -0.00680
O          1.59590       -0.90100       -0.02000
O          1.23250        1.37220        0.00670
H         -1.11190        0.61720       -0.69780
H         -0.89250       -1.13510       -0.31660
H         -0.98430        0.10940        1.03860
7

C         -0.66500       -0.03070       -0.00350
N          0.78780       -0.05370       -0.01470
O          1.46710       -1.08320       -0.02390
O          1.40940        1.18670       -0.01470
H         -1.02280        0.50700       -0.89100
H         -0.96320        0.54460        0.89140
H         -1.01330       -1.07060        0.05640
7

C         -0.63650       -0.03450       -0.02920
N          0.78740        0.08640        0.05160
O          1.35220        1.20020        0.07510
O          1.63470       -0.99810        0.10880
H         -0.88540       -1.01650       -0.49760
H         -1.10510        0.75410       -0.67050
H         -1.14740        0.00840        0.96170
7

C         -0.63920        0.00470        0.01440
N          0.79300       -0.07720       -0.02470
O          1.44940       -1.13050       -0.01970
O          1.49660        1.10880       -0.07200
H         -1.13930       -0.97080        0.03660
H         -1.03570        0.53650       -0.89120
H         -0.92500        0.52860        0.95660
